<?xml version="1.0" encoding="utf-8"?>
<!-- Generated by IcoMoon.io -->
<!DOCTYPE svg PUBLIC "-//W3C//DTD SVG 1.1//EN" "http://www.w3.org/Graphics/SVG/1.1/DTD/svg11.dtd">
<svg version="1.1" xmlns="http://www.w3.org/2000/svg" xmlns:xlink="http://www.w3.org/1999/xlink" width="64" height="64" viewBox="0 0 64 64">
	<path d="M17.905 19.012c1.466-0.3 4.135-0.526 6.729-0.526 3.421 0 5.526 0.414 7.255 1.617 1.58 0.939 2.632 2.594 2.632 4.736 0 2.331-1.466 4.473-4.211 5.488v0.076c2.669 0.677 5.113 2.782 5.113 6.278 0 2.255-0.978 4.022-2.444 5.225-1.804 1.579-4.774 2.369-9.399 2.369-2.557 0-4.511-0.189-5.676-0.338v-24.925zM22.492 22.095v6.917h2.369c3.196 0 5-1.504 5-3.646 0-2.369-1.804-3.459-4.736-3.459-1.354 0-2.143 0.075-2.632 0.188zM22.492 40.666c0.602 0.113 1.392 0.113 2.444 0.113 2.97 0 5.601-1.127 5.601-4.248 0-2.932-2.555-4.135-5.751-4.135h-2.294v8.27zM43.545 29.2c0.902-2.594 3.044-3.91 5.001-3.91l1.090 0.113v4.361c-0.377-0.075-0.79-0.15-1.354-0.15-2.218 0-3.721 1.428-4.135 3.496l-0.15 1.429v9.474h-4.624v-12.406c0-2.481-0.039-4.248-0.151-5.902h4.023l0.151 3.496h0.15z" fill="#000000" />
</svg>
