<?xml version="1.0" encoding="utf-8"?>
<!-- Generated by IcoMoon.io -->
<!DOCTYPE svg PUBLIC "-//W3C//DTD SVG 1.1//EN" "http://www.w3.org/Graphics/SVG/1.1/DTD/svg11.dtd">
<svg version="1.1" xmlns="http://www.w3.org/2000/svg" xmlns:xlink="http://www.w3.org/1999/xlink" width="64" height="64" viewBox="0 0 64 64">
	<path d="M25.669 19.201h5.777l8.059 24.801h-4.857l-2.245-7.028h-7.874l-2.134 7.028h-4.673l7.948-24.801zM27.178 27.443l-1.913 6.109h6.366l-1.951-6.109c-0.478-1.508-0.883-3.201-1.251-4.636h-0.074c-0.368 1.435-0.736 3.165-1.178 4.636zM41.012 21.077c0-1.398 1.030-2.465 2.539-2.465 1.545 0 2.502 1.067 2.539 2.465 0 1.362-0.994 2.429-2.576 2.429-1.509 0-2.502-1.067-2.502-2.429zM41.27 44.002v-17.92h4.563v17.92h-4.563z" fill="#000000" />
</svg>
