<?xml version="1.0" encoding="utf-8"?>
<!-- Generated by IcoMoon.io -->
<!DOCTYPE svg PUBLIC "-//W3C//DTD SVG 1.1//EN" "http://www.w3.org/Graphics/SVG/1.1/DTD/svg11.dtd">
<svg version="1.1" xmlns="http://www.w3.org/2000/svg" xmlns:xlink="http://www.w3.org/1999/xlink" width="64" height="64" viewBox="0 0 64 64">
	<path d="M32 6.577c5.084 0 30.507 48.304 27.965 50.846-2.542 2.542-53.388 2.542-55.931 0-2.542-2.542 22.881-50.846 27.965-50.846zM32 44.711c-2.106 0-3.813 1.707-3.813 3.813s1.707 3.813 3.813 3.813c2.106 0 3.813-1.707 3.813-3.813 0-2.106-1.708-3.813-3.813-3.813zM28.187 21.831l1.271 20.338h5.085l1.271-20.338h-7.627z" fill="#000000" />
</svg>
