<?xml version="1.0" encoding="utf-8"?>
<!-- Generated by IcoMoon.io -->
<!DOCTYPE svg PUBLIC "-//W3C//DTD SVG 1.1//EN" "http://www.w3.org/Graphics/SVG/1.1/DTD/svg11.dtd">
<svg version="1.1" xmlns="http://www.w3.org/2000/svg" xmlns:xlink="http://www.w3.org/1999/xlink" width="64" height="64" viewBox="0 0 64 64">
	<path d="M49.365 51.845h-9.923v-30.698l-9.923 9.923v-13.024l14.884-14.884 14.884 14.884v13.024l-9.923-9.923v30.698zM14.635 12.155h9.923v30.698l9.923-9.923v13.024l-14.884 14.884-14.884-14.884v-13.024l9.923 9.923v-30.698z" fill="#000000" />
</svg>
