<?xml version="1.0" encoding="utf-8"?>
<!-- Generated by IcoMoon.io -->
<!DOCTYPE svg PUBLIC "-//W3C//DTD SVG 1.1//EN" "http://www.w3.org/Graphics/SVG/1.1/DTD/svg11.dtd">
<svg version="1.1" xmlns="http://www.w3.org/2000/svg" xmlns:xlink="http://www.w3.org/1999/xlink" width="64" height="64" viewBox="0 0 64 64">
	<path d="M49.684 28.632v6.737h-2.526v5.053h-30.316v-16.842h30.316v5.053h2.526zM20.21 26.947v10.105h23.579v-10.105h-23.579zM21.053 36.211v-8.421h4.21l4.21 8.421h-8.421zM26.526 27.79h6.737l4.21 8.421h-6.737l-4.21-8.421z" fill="#000000" />
</svg>
