<?xml version="1.0" encoding="utf-8"?>
<!-- Generated by IcoMoon.io -->
<!DOCTYPE svg PUBLIC "-//W3C//DTD SVG 1.1//EN" "http://www.w3.org/Graphics/SVG/1.1/DTD/svg11.dtd">
<svg version="1.1" xmlns="http://www.w3.org/2000/svg" xmlns:xlink="http://www.w3.org/1999/xlink" width="64" height="64" viewBox="0 0 64 64">
	<path d="M20.21 37.053c2.791 0 5.053 2.262 5.053 5.053s-2.262 5.053-5.053 5.053c-2.791 0-5.053-2.262-5.053-5.053 0-2.791 2.262-5.053 5.053-5.053zM19.368 38.737v1.684h1.684v-1.684h-1.684zM19.368 41.263v4.21h1.684v-4.21h-1.684zM48 21.053v21.895h-9.684c-2.225 0-3.789 2.526-3.789 2.526h-5.053c0 0-1.032-1.667-2.612-2.293l0.085-1.076c0-0.555-0.067-1.095-0.194-1.611 0.644 0.168 1.682 0.685 2.72 2.242v-17.767c-0.545-0.671-1.235-1.391-1.684-1.391h-9.263v12.002c-0.936 0.241-1.794 0.678-2.526 1.265v-15.793h13.053c0 0 1.196 0.598 2.506 1.975 1.57-1.975 3.178-1.975 3.178-1.975h13.263zM34.526 42.737c1.684-2.526 3.368-2.316 3.368-2.316h7.579v-16.842h-9.263c-0.45 0-1.139 0.72-1.684 1.391v17.767z" fill="#000000" />
</svg>
