<?xml version="1.0" encoding="utf-8"?>
<!-- Generated by IcoMoon.io -->
<!DOCTYPE svg PUBLIC "-//W3C//DTD SVG 1.1//EN" "http://www.w3.org/Graphics/SVG/1.1/DTD/svg11.dtd">
<svg version="1.1" xmlns="http://www.w3.org/2000/svg" xmlns:xlink="http://www.w3.org/1999/xlink" width="64" height="64" viewBox="0 0 64 64">
	<path d="M16 16h2.526v2.526h-2.526v-2.526zM18.526 23.579h-2.526v-2.526h2.526v2.526zM18.526 28.632h-2.526v-2.526h2.526v2.526zM19.368 31.158v1.684h-3.368v-1.684h3.368zM32.842 16v3.368h-1.684v-3.368h1.684zM26.105 18.526v-2.526h2.526v2.526h-2.526zM21.053 18.526v-2.526h2.526v2.526h-2.526zM48 16v2.526h-2.526v-2.526h2.526zM48 23.579h-2.526v-2.526h2.526v2.526zM48 28.632h-2.526v-2.526h2.526v2.526zM48 48h-2.526v-2.526h2.526v2.526zM44.632 32.842v-1.684h3.368v1.684h-3.368zM48 37.895h-2.526v-2.526h2.526v2.526zM48 42.947h-2.526v-2.526h2.526v2.526zM40.421 18.526v-2.526h2.526v2.526h-2.526zM35.368 18.526v-2.526h2.526v2.526h-2.526zM18.526 37.895h-2.526v-2.526h2.526v2.526zM18.526 42.947h-2.526v-2.526h2.526v2.526zM18.526 45.474v2.526h-2.526v-2.526h2.526zM31.158 44.632h1.684v3.368h-1.684v-3.368zM26.105 48v-2.526h2.526v2.526h-2.526zM21.053 48v-2.526h2.526v2.526h-2.526zM40.421 48v-2.526h2.526v2.526h-2.526zM35.368 48v-2.526h2.526v2.526h-2.526zM31.158 31.158h1.684v1.684h-1.684v-1.684zM32.842 36.211h-1.684v-1.684h1.684v1.684zM32.842 39.579h-1.684v-1.684h1.684v1.684zM32.842 42.947h-1.684v-1.684h1.684v1.684zM32.842 22.737h-1.684v-1.684h1.684v1.684zM32.842 26.105h-1.684v-1.684h1.684v1.684zM32.842 29.474h-1.684v-1.684h1.684v1.684zM22.737 31.158v1.684h-1.684v-1.684h1.684zM26.105 31.158v1.684h-1.684v-1.684h1.684zM29.474 31.158v1.684h-1.684v-1.684h1.684zM41.263 32.842v-1.684h1.684v1.684h-1.684zM36.21 31.158v1.684h-1.684v-1.684h1.684zM39.579 31.158v1.684h-1.684v-1.684h1.684z" fill="#000000" />
</svg>
