<?xml version="1.0" encoding="utf-8"?>
<!-- Generated by IcoMoon.io -->
<!DOCTYPE svg PUBLIC "-//W3C//DTD SVG 1.1//EN" "http://www.w3.org/Graphics/SVG/1.1/DTD/svg11.dtd">
<svg version="1.1" xmlns="http://www.w3.org/2000/svg" xmlns:xlink="http://www.w3.org/1999/xlink" width="64" height="64" viewBox="0 0 64 64">
	<path d="M16 16h2.526v2.526h-2.526v-2.526zM18.526 23.579h-2.526v-2.526h2.526v2.526zM18.526 28.632h-2.526v-2.526h2.526v2.526zM31.158 31.158v-15.158h1.684v15.158h15.158v1.684h-15.158v15.158h-1.684v-15.158h-15.158v-1.684h15.158zM48 37.895h-2.526v-2.526h2.526v2.526zM48 42.947h-2.526v-2.526h2.526v2.526zM48 48h-2.526v-2.526h2.526v2.526zM45.474 16h2.526v2.526h-2.526v-2.526zM48 23.579h-2.526v-2.526h2.526v2.526zM48 28.632h-2.526v-2.526h2.526v2.526zM26.105 18.526v-2.526h2.526v2.526h-2.526zM21.053 18.526v-2.526h2.526v2.526h-2.526zM40.421 18.526v-2.526h2.526v2.526h-2.526zM35.368 18.526v-2.526h2.526v2.526h-2.526zM18.526 37.895h-2.526v-2.526h2.526v2.526zM18.526 42.947h-2.526v-2.526h2.526v2.526zM18.526 45.474v2.526h-2.526v-2.526h2.526zM26.105 48v-2.526h2.526v2.526h-2.526zM21.053 48v-2.526h2.526v2.526h-2.526zM40.421 48v-2.526h2.526v2.526h-2.526zM35.368 48v-2.526h2.526v2.526h-2.526z" fill="#000000" />
</svg>
