<?xml version="1.0" encoding="utf-8"?>
<!-- Generated by IcoMoon.io -->
<!DOCTYPE svg PUBLIC "-//W3C//DTD SVG 1.1//EN" "http://www.w3.org/Graphics/SVG/1.1/DTD/svg11.dtd">
<svg version="1.1" xmlns="http://www.w3.org/2000/svg" xmlns:xlink="http://www.w3.org/1999/xlink" width="64" height="64" viewBox="0 0 64 64">
	<path d="M32 13.333l17.333 6.667v5.333l-17.333 6.667-17.333-6.667v-5.333l17.333-6.667zM49.333 37.333v6.667l-17.333 6.667-17.333-6.667v-6.667l17.333 6.667 17.333-6.667zM49.333 28v6.667l-17.333 6.667-17.333-6.667v-6.667l17.333 6.667 17.333-6.667z" fill="#000000" />
</svg>
