<?xml version="1.0" encoding="utf-8"?>
<!-- Generated by IcoMoon.io -->
<!DOCTYPE svg PUBLIC "-//W3C//DTD SVG 1.1//EN" "http://www.w3.org/Graphics/SVG/1.1/DTD/svg11.dtd">
<svg version="1.1" xmlns="http://www.w3.org/2000/svg" xmlns:xlink="http://www.w3.org/1999/xlink" width="64" height="64" viewBox="0 0 64 64">
	<path d="M12.155 32h6.202v-3.721h-4.961v-16.124h37.21v16.124h-4.961v3.721h6.202v21.086h-39.691v-21.086zM24.558 32v-7.442h-2.481l0.103 7.442h2.377zM24.558 15.876h12.403l8.786 9.251-0.103 0.672h2.481v-11.163h-32.249v11.163h2.481v-4.961h6.202v-4.961zM15.876 35.721v13.644h32.249v-13.644h-32.249zM5.953 59.287v-54.575h52.094v54.575h-52.094zM54.326 8.434h-44.652v47.133h44.652v-47.133zM24.558 39.442h3.721v2.481h7.442v-2.481h3.721v6.202h-14.884v-6.202zM28.279 19.597v12.403h13.644v-3.721h-8.682v-8.682h-4.961zM35.721 19.597v6.202h6.202l-6.202-6.202z" fill="#000000" />
</svg>
