<?xml version="1.0" encoding="utf-8"?>
<!-- Generated by IcoMoon.io -->
<!DOCTYPE svg PUBLIC "-//W3C//DTD SVG 1.1//EN" "http://www.w3.org/Graphics/SVG/1.1/DTD/svg11.dtd">
<svg version="1.1" xmlns="http://www.w3.org/2000/svg" xmlns:xlink="http://www.w3.org/1999/xlink" width="64" height="64" viewBox="0 0 64 64">
	<path d="M5.539 57.138v-44.983h6.615v-3.969c0-1.462 1.185-2.646 2.646-2.646h5.292c1.461 0 2.646 1.184 2.646 2.646v3.969h18.522v-3.969c0-1.461 1.185-2.646 2.646-2.646h5.292c1.461 0 2.646 1.185 2.646 2.646v3.969h6.615v18.122l-3.969-3.314v-4.224h-44.983v30.43h30.619l-1.134 3.969h-33.454zM12.155 43.907h7.938v6.615h-7.938v-6.615zM22.739 43.907h7.938v6.615h-7.938v-6.615zM33.323 43.907h7.938v5.292l-0.378 1.323h-7.56v-6.615zM12.155 34.646h7.938v6.615h-7.938v-6.615zM22.739 34.646h7.938v6.615h-7.938v-6.615zM33.323 34.646h7.454c-0.115 0.447-0.838 0.889-0.838 1.323 0 1.715 0.086 3.569 0.65 5.292h-7.265v-6.615zM22.739 25.385h7.938v6.615h-7.938v-6.615zM33.323 25.385h7.938v6.615h-7.938v-6.615zM43.907 25.385h5.421c-1.237 0.855-4.056 3.387-5.421 4.773v-4.773zM45.892 8.186c-1.096 0-1.984 0.888-1.984 1.984v3.969c0 1.096 0.888 1.984 1.984 1.984h1.323c1.096 0 1.984-0.888 1.984-1.984v-3.969c0-1.096-0.888-1.984-1.984-1.984h-1.323zM16.785 8.186c-1.096 0-1.984 0.888-1.984 1.984v3.969c0 1.096 0.888 1.984 1.984 1.984h1.323c1.096 0 1.984-0.888 1.984-1.984v-3.969c0-1.096-0.888-1.984-1.984-1.984h-1.323zM58.758 33.087l-1.14 4.432-2.109-0.872c-0.94-0.315-2.173-0.487-3.698-0.515-1.249 0.025-2.127 0.262-2.633 0.713-0.506 0.451-0.75 0.966-0.732 1.545-0.015 0.618 0.359 1.184 1.124 1.698 0.764 0.514 2.010 1.070 3.737 1.668 2.322 0.813 3.988 1.811 4.998 2.995 1.010 1.184 1.503 2.667 1.479 4.45 0 1.79-0.588 3.335-1.763 4.635-1.175 1.3-2.933 2.15-5.274 2.552v3.984h-3.861v-3.675c-1.333-0.069-2.576-0.259-3.729-0.57s-2.073-0.675-2.761-1.093l1.147-4.566c0.806 0.471 1.75 0.875 2.833 1.213 1.083 0.337 2.257 0.514 3.524 0.53 1.159-0.006 2.12-0.222 2.883-0.648 0.763-0.427 1.158-1.029 1.186-1.807-0.003-0.74-0.38-1.379-1.132-1.916-0.752-0.537-1.861-1.047-3.326-1.53-2.082-0.686-3.742-1.592-4.979-2.718-1.237-1.126-1.871-2.636-1.901-4.529 0.009-1.781 0.581-3.289 1.716-4.522 1.136-1.233 2.784-2.057 4.945-2.47v-3.71h3.832v3.437l5.635 1.289z" fill="#000000" />
</svg>
