<?xml version="1.0" encoding="utf-8"?>
<!-- Generated by IcoMoon.io -->
<!DOCTYPE svg PUBLIC "-//W3C//DTD SVG 1.1//EN" "http://www.w3.org/Graphics/SVG/1.1/DTD/svg11.dtd">
<svg version="1.1" xmlns="http://www.w3.org/2000/svg" xmlns:xlink="http://www.w3.org/1999/xlink" width="64" height="64" viewBox="0 0 64 64">
	<path d="M3.775 58.814v-47.982h7.056v-4.234c0-1.559 1.264-2.823 2.823-2.823h5.645c1.559 0 2.822 1.264 2.823 2.822v4.234h19.757v-4.234c0-1.559 1.264-2.823 2.823-2.823h5.645c1.559 0 2.823 1.264 2.823 2.823v4.234h7.056v47.982h-56.449zM8.009 54.58h47.982v-32.458h-47.982v32.458zM10.832 44.701h8.467v7.056h-8.467v-7.056zM22.121 44.701h8.467v7.056h-8.467v-7.056zM33.411 44.701h8.467v7.056h-8.467v-7.056zM44.701 44.701h8.467v7.056h-8.467v-7.056zM10.832 34.823h8.467v7.056h-8.467v-7.056zM22.121 34.823h8.467v7.056h-8.467v-7.056zM33.411 34.823h8.467v7.056h-8.467v-7.056zM44.701 34.823h8.467v7.056h-8.467v-7.056zM22.121 24.944h8.467v7.056h-8.467v-7.056zM33.411 24.944h8.467v7.056h-8.467v-7.056zM44.701 24.944h8.467v7.056h-8.467v-7.056zM46.818 6.598c-1.169 0-2.117 0.948-2.117 2.117v4.234c0 1.169 0.948 2.117 2.117 2.117h1.411c1.169 0 2.117-0.948 2.117-2.117v-4.234c0-1.169-0.948-2.117-2.117-2.117h-1.411zM15.771 6.598c-1.169 0-2.117 0.948-2.117 2.117v4.234c0 1.169 0.948 2.117 2.117 2.117h1.411c1.169 0 2.117-0.948 2.117-2.117v-4.234c0-1.169-0.948-2.117-2.117-2.117h-1.411zM23.533 36.234v4.234h5.645v-4.234h-5.645z" fill="#000000" />
</svg>
