<?xml version="1.0" encoding="utf-8"?>
<!-- Generated by IcoMoon.io -->
<!DOCTYPE svg PUBLIC "-//W3C//DTD SVG 1.1//EN" "http://www.w3.org/Graphics/SVG/1.1/DTD/svg11.dtd">
<svg version="1.1" xmlns="http://www.w3.org/2000/svg" xmlns:xlink="http://www.w3.org/1999/xlink" width="64" height="64" viewBox="0 0 64 64">
	<path d="M32 5.187c14.809 0 26.813 12.005 26.813 26.813s-12.005 26.813-26.813 26.813c-14.809 0-26.813-12.005-26.813-26.813 0-14.809 12.005-26.813 26.813-26.813zM32 11.89c-3.935 0-7.606 1.13-10.706 3.084l27.733 27.733c1.954-3.1 3.084-6.771 3.084-10.706 0-11.106-9.004-20.11-20.11-20.11zM11.89 32c0 11.106 9.004 20.11 20.11 20.11 3.935 0 7.606-1.13 10.706-3.084l-27.733-27.732c-1.953 3.1-3.084 6.771-3.084 10.706z" fill="#000000" />
</svg>
