<?xml version="1.0" encoding="utf-8"?>
<!-- Generated by IcoMoon.io -->
<!DOCTYPE svg PUBLIC "-//W3C//DTD SVG 1.1//EN" "http://www.w3.org/Graphics/SVG/1.1/DTD/svg11.dtd">
<svg version="1.1" xmlns="http://www.w3.org/2000/svg" xmlns:xlink="http://www.w3.org/1999/xlink" width="64" height="64" viewBox="0 0 64 64">
	<path d="M11.79 21.053v22.737h21.895v-13.474h5.053v-9.263h-26.947zM36.211 27.79h-21.895v-4.21h21.895v4.21zM31.158 30.316v4.211h-16.842v-4.21h16.842zM31.158 37.053v4.211h-16.842v-4.21h16.842zM48 23.579h-6.737v4.21h2.526v9.474l-5.053-5.053v4.632l7.158 7.158 7.158-7.158v-4.632l-5.053 5.053v-13.684z" fill="#000000" />
</svg>
