<?xml version="1.0" encoding="utf-8"?>
<!-- Generated by IcoMoon.io -->
<!DOCTYPE svg PUBLIC "-//W3C//DTD SVG 1.1//EN" "http://www.w3.org/Graphics/SVG/1.1/DTD/svg11.dtd">
<svg version="1.1" xmlns="http://www.w3.org/2000/svg" xmlns:xlink="http://www.w3.org/1999/xlink" width="64" height="64" viewBox="0 0 64 64">
	<path d="M11.79 42.947v-22.737h21.895v6.737h5.053v9.263h-5.053v6.737h-21.895zM36.211 33.684v-4.21h-21.895v4.21h21.895zM31.158 36.211h-16.842v4.211h16.842v-4.21zM31.158 26.947v-4.21h-16.842v4.21h16.842zM42.333 35.667l3.667-3.667-3.667-3.667 2-2 3.667 3.667 3.667-3.667 2 2-3.667 3.667 3.667 3.667-2 2-3.667-3.667-3.667 3.667-2-2z" fill="#000000" />
</svg>
