<?xml version="1.0" encoding="utf-8"?>
<!-- Generated by IcoMoon.io -->
<!DOCTYPE svg PUBLIC "-//W3C//DTD SVG 1.1//EN" "http://www.w3.org/Graphics/SVG/1.1/DTD/svg11.dtd">
<svg version="1.1" xmlns="http://www.w3.org/2000/svg" xmlns:xlink="http://www.w3.org/1999/xlink" width="64" height="64" viewBox="0 0 64 64">
	<path d="M47.158 30.316v3.368h-13.474v13.474h-3.368v-13.474h-13.474v-3.368h13.474v-13.474h3.368v13.474h13.474zM6.737 31.158v1.684h-4.199l-0.012-0.842 0.012-0.842h4.199zM10.947 31.158v1.684h-2.526v-1.684h2.526zM15.158 31.158v1.684h-2.526v-1.684h2.526zM32.842 6.737h-1.684v-4.199l0.842-0.012 0.842 0.012v4.199zM32.842 15.158h-1.684v-2.526h1.684v2.526zM31.158 8.421h1.684v2.526h-1.684v-2.526zM57.263 32.842v-1.684h4.199l0.012 0.842-0.012 0.842h-4.199zM53.053 32.842v-1.684h2.526v1.684h-2.526zM48.842 32.842v-1.684h2.526v1.684h-2.526zM31.158 57.263h1.684v4.199l-0.842 0.012-0.842-0.012v-4.199zM31.158 53.053h1.684v2.526h-1.684v-2.526zM31.158 48.842h1.684v2.526h-1.684v-2.526z" fill="#000000" />
</svg>
