<?xml version="1.0" encoding="utf-8"?>
<!-- Generated by IcoMoon.io -->
<!DOCTYPE svg PUBLIC "-//W3C//DTD SVG 1.1//EN" "http://www.w3.org/Graphics/SVG/1.1/DTD/svg11.dtd">
<svg version="1.1" xmlns="http://www.w3.org/2000/svg" xmlns:xlink="http://www.w3.org/1999/xlink" width="64" height="64" viewBox="0 0 64 64">
	<path d="M19.444 25.756l12.727 12.004 22.273-25.454 6.074 5.351-27.624 33.698-19.525-19.525 6.074-6.074zM4.424 13.904h44.759l-5.481 5.481h-33.797v34.711h34.711v-11.875l5.481-6.851v24.206h-45.672v-45.672z" fill="#000000" />
</svg>
