<?xml version="1.0" encoding="utf-8"?>
<!-- Generated by IcoMoon.io -->
<!DOCTYPE svg PUBLIC "-//W3C//DTD SVG 1.1//EN" "http://www.w3.org/Graphics/SVG/1.1/DTD/svg11.dtd">
<svg version="1.1" xmlns="http://www.w3.org/2000/svg" xmlns:xlink="http://www.w3.org/1999/xlink" width="64" height="64" viewBox="0 0 64 64">
	<path d="M29.333 13.333h5.333v1.333h-1.333v1.333c0.362 0 1.316 0.493 2.325 1.264l-3.93 3.345c-0.556 0.483-0.729 0.392-0.465 1.548 1.069 0.177 0.992-0.052 1.548-0.535l4.188-2.954c1.907 2.079 3.060 4.876-1.721 6.477l-0.082 1.739 5.803 3.784h-5.853c0.162 15.074 5.154 12.112 7.52 20h-21.333c2.366-7.888 7.358-4.926 7.52-20h-5.853l5.803-3.784-0.082-1.736c-8.236-2.702 1.946-7.409 1.946-9.146v-1.333h-1.333v-1.333z" fill="#000000" />
</svg>
