<?xml version="1.0" encoding="utf-8"?>
<!-- Generated by IcoMoon.io -->
<!DOCTYPE svg PUBLIC "-//W3C//DTD SVG 1.1//EN" "http://www.w3.org/Graphics/SVG/1.1/DTD/svg11.dtd">
<svg version="1.1" xmlns="http://www.w3.org/2000/svg" xmlns:xlink="http://www.w3.org/1999/xlink" width="64" height="64" viewBox="0 0 64 64">
	<path d="M29.333 22.667l2-12h1.333l2 12h-5.333zM36 31.333l10.667 10.667-2 1.333-12.667-13.333-12.667 13.333-2-1.333 10.667-10.667v-4.333h1.333v-3.333h5.333v3.333h1.333v4.333zM32 33.333l10.667 10.667v6.667h-8v-5.333c0-1.473-1.194-2.667-2.667-2.667s-2.667 1.194-2.667 2.667v5.333h-8v-6.667l10.667-10.667z" fill="#000000" />
</svg>
