<?xml version="1.0" encoding="utf-8"?>
<!-- Generated by IcoMoon.io -->
<!DOCTYPE svg PUBLIC "-//W3C//DTD SVG 1.1//EN" "http://www.w3.org/Graphics/SVG/1.1/DTD/svg11.dtd">
<svg version="1.1" xmlns="http://www.w3.org/2000/svg" xmlns:xlink="http://www.w3.org/1999/xlink" width="64" height="64" viewBox="0 0 64 64">
	<path d="M49.333 38.667v9.333h-33.333v-9.333h8.337c1.794 1.147 4.025 2.131 6.521 2.8 3.119 0.836 6.791 1.038 9.248 0.697v-3.497h9.228zM47.333 40.667h-2.333v4h2.333v-4zM38.521 40.659c-2.177 0.303-4.842-0.21-7.606-0.951-4.652-1.247-8.265-3.728-9.427-6.196l5.704-5.704 11.329 4.248v8.603zM33.087 23.724c0.29 0 0.575 0.019 0.854 0.055l4.8-9.421 2.582 1.316-4.654 9.135c1.348 0.929 2.214 2.37 2.214 3.988 0 0.695-0.16 1.357-0.449 1.96l-10.295-3.997c0.896-1.787 2.574-3.035 4.948-3.035z" fill="#000000" />
</svg>
