<?xml version="1.0" encoding="utf-8"?>
<!-- Generated by IcoMoon.io -->
<!DOCTYPE svg PUBLIC "-//W3C//DTD SVG 1.1//EN" "http://www.w3.org/Graphics/SVG/1.1/DTD/svg11.dtd">
<svg version="1.1" xmlns="http://www.w3.org/2000/svg" xmlns:xlink="http://www.w3.org/1999/xlink" width="64" height="64" viewBox="0 0 64 64">
	<path d="M10.832 54.58v-39.514c0-2.338 1.895-4.234 4.234-4.234h6.351c0 0 1.411-0.168 1.411-2.117s2.285-3.528 4.234-3.528h9.879c1.949 0 4.234 1.579 4.234 3.528s1.411 2.117 1.411 2.117h6.351c2.338 0 4.234 1.895 4.234 4.234v39.514c0 2.338-1.896 4.234-4.234 4.234h-33.869c-2.338 0-4.234-1.895-4.234-4.234zM29.177 9.421c-1.948 0-3.528 1.579-3.528 3.528 0 1.948-1.411 3.528-1.411 3.528h15.524c0 0-1.411-1.579-1.411-3.528s-1.579-3.528-3.528-3.528h-5.646zM18.593 20.71l2.117-5.645h-5.645v39.514h33.869v-39.514h-5.645l2.117 5.645h-26.813zM19.092 40.877l-0.93-1.013c-0.247-0.268-0.234-0.688 0.037-0.939l2.702-2.509c0.123-0.115 0.284-0.178 0.453-0.178 0.187 0 0.358 0.076 0.485 0.211l7.418 7.987 12.759-16.417c0.127-0.159 0.32-0.253 0.526-0.253l0.408 0.14 2.913 2.262c0.137 0.109 0.227 0.267 0.25 0.446 0.022 0.174-0.025 0.349-0.13 0.486l-16.395 21.081-10.495-11.304z" fill="#000000" />
</svg>
