<?xml version="1.0" encoding="utf-8"?>
<!-- Generated by IcoMoon.io -->
<!DOCTYPE svg PUBLIC "-//W3C//DTD SVG 1.1//EN" "http://www.w3.org/Graphics/SVG/1.1/DTD/svg11.dtd">
<svg version="1.1" xmlns="http://www.w3.org/2000/svg" xmlns:xlink="http://www.w3.org/1999/xlink" width="64" height="64" viewBox="0 0 64 64">
	<path d="M12.639 26.952l14.505 14.505-5.344 5.344-14.505-14.505 5.344-5.344zM6.15 31.151l-3.054-2.45c-0.979-0.979-0.598-3.060 0.382-4.039l1.527-1.527c0.979-0.979 2.838-1.361 3.817-0.382l2.672 3.054-5.344 5.344zM29.447 49.854l-6.502-1.908 5.344-5.344 1.785 6.626-0.627 0.627zM34.377 4.506c2.712 0 5.375 2.457 5.375 5.168l-0.31 1.24h14.884v44.652h-39.691v-11.473l3.721 3.721v4.031h32.249v-37.21h-6.822l2.481 4.961h-23.566l2.481-4.961h-6.822v14.264l-3.721-4.341v-13.644h14.884l-0.31-1.24c0-2.712 2.457-5.168 5.168-5.168zM34.377 7.452c-1.085 0-2.377 0.828-2.377 1.912 0 0.358 0.453 1.262 0.62 1.551h3.721c0.167-0.289 0.62-1.193 0.62-1.551 0-1.085-1.499-1.912-2.584-1.912z" fill="#000000" />
</svg>
