<?xml version="1.0" encoding="utf-8"?>
<!-- Generated by IcoMoon.io -->
<!DOCTYPE svg PUBLIC "-//W3C//DTD SVG 1.1//EN" "http://www.w3.org/Graphics/SVG/1.1/DTD/svg11.dtd">
<svg version="1.1" xmlns="http://www.w3.org/2000/svg" xmlns:xlink="http://www.w3.org/1999/xlink" width="64" height="64" viewBox="0 0 64 64">
	<path d="M19.368 31.158l8.842 8.842-8.842 8.842v-17.684zM41.333 24c3.682 0 6.667 2.985 6.667 6.667s-3.028 6.386-6.737 6.386h-13.895l-8.217-7.937c0.506-1.939 1.895-3.685 3.969-3.778 1.097-3.11 4.061-5.338 7.546-5.338 3.309 0 6.148 2.009 7.366 4.873 0.973-0.556 2.1-0.873 3.301-0.873zM16 34c0-1.613 1.005-2.954 2.526-3.263v6.316c-1.521-0.309-2.526-1.44-2.526-3.053z" fill="#000000" />
</svg>
