<?xml version="1.0" encoding="utf-8"?>
<!-- Generated by IcoMoon.io -->
<!DOCTYPE svg PUBLIC "-//W3C//DTD SVG 1.1//EN" "http://www.w3.org/Graphics/SVG/1.1/DTD/svg11.dtd">
<svg version="1.1" xmlns="http://www.w3.org/2000/svg" xmlns:xlink="http://www.w3.org/1999/xlink" width="64" height="64" viewBox="0 0 64 64">
	<path d="M16 16h10.105v6.737h-10.105v-6.737zM27.79 16h8.421v3.368h-8.421v-3.368zM48 16v3.368h-10.105v-3.368h10.105zM16 24.421h10.105v3.368h-10.105v-3.368zM27.79 21.053h8.421v3.368h-8.421v-3.368zM48 21.053v3.368h-10.105v-3.368h10.105zM16 29.474h10.105v3.368h-10.105v-3.368zM27.79 26.105h8.421v6.737h-8.421v-6.737zM48 26.105v3.368h-10.105v-3.368h10.105zM16 34.526h10.105v3.368h-10.105v-3.368zM27.79 34.526h8.421v3.368h-8.421v-3.368zM48 31.158v6.737h-10.105v-6.737h10.105zM16 39.579h10.105v3.368h-10.105v-3.368zM27.79 39.579h8.421v3.368h-8.421v-3.368zM48 39.579v3.368h-10.105v-3.368h10.105zM16 44.632h10.105v3.368h-10.105v-3.368zM27.79 44.632h8.421v3.368h-8.421v-3.368zM48 44.632v3.368h-10.105v-3.368h10.105z" fill="#000000" />
</svg>
