<?xml version="1.0" encoding="utf-8"?>
<!-- Generated by IcoMoon.io -->
<!DOCTYPE svg PUBLIC "-//W3C//DTD SVG 1.1//EN" "http://www.w3.org/Graphics/SVG/1.1/DTD/svg11.dtd">
<svg version="1.1" xmlns="http://www.w3.org/2000/svg" xmlns:xlink="http://www.w3.org/1999/xlink" width="64" height="64" viewBox="0 0 64 64">
	<path d="M36.234 27.766v31.047h-8.467v-31.047h8.467zM24.944 40.467v18.346h-8.467v-18.346h8.467zM5.187 58.813v-8.467h8.467v8.467h-8.467zM47.524 16.476v42.337h-8.467v-42.337h8.467z" fill="#000000" />
</svg>
