<?xml version="1.0" encoding="utf-8"?>
<!-- Generated by IcoMoon.io -->
<!DOCTYPE svg PUBLIC "-//W3C//DTD SVG 1.1//EN" "http://www.w3.org/Graphics/SVG/1.1/DTD/svg11.dtd">
<svg version="1.1" xmlns="http://www.w3.org/2000/svg" xmlns:xlink="http://www.w3.org/1999/xlink" width="64" height="64" viewBox="0 0 64 64">
	<path d="M14.667 45.333v-4h4v-17.333h-4v-4h4v-4h4v4h18.333l4-4 3 3-4 4v18.333h4v4h-4v4h-4v-4h-17.333v4h-4v-4h-4zM25.667 41.333h14.333v-14.333l-14.333 14.333zM22.667 38.333l14.333-14.333h-14.333v14.333z" fill="#000000" />
</svg>
