<?xml version="1.0" encoding="utf-8"?>
<!-- Generated by IcoMoon.io -->
<!DOCTYPE svg PUBLIC "-//W3C//DTD SVG 1.1//EN" "http://www.w3.org/Graphics/SVG/1.1/DTD/svg11.dtd">
<svg version="1.1" xmlns="http://www.w3.org/2000/svg" xmlns:xlink="http://www.w3.org/1999/xlink" width="64" height="64" viewBox="0 0 64 64">
	<path d="M22.667 12l22.21 22.21-8.569 1.395 7.563 12.793-6.87 3.809-7.278-13.207-7.055 7.055v-34.055zM25.333 18.667v20.542l4.532-4.532 7.801 14.323 2.667-1.667-7.904-14.171 7.171-0.23-14.267-14.267z" fill="#000000" />
</svg>
