<?xml version="1.0" encoding="utf-8"?>
<!-- Generated by IcoMoon.io -->
<!DOCTYPE svg PUBLIC "-//W3C//DTD SVG 1.1//EN" "http://www.w3.org/Graphics/SVG/1.1/DTD/svg11.dtd">
<svg version="1.1" xmlns="http://www.w3.org/2000/svg" xmlns:xlink="http://www.w3.org/1999/xlink" width="64" height="64" viewBox="0 0 64 64">
	<path d="M58.347 11.686l-25.11 25.109c-0.322 0.326-0.804 0.538-1.237 0.538s-0.915-0.213-1.241-0.538l-25.109-25.109c-0.322-0.322-0.538-0.805-0.538-1.237s0.216-0.916 0.538-1.241l2.694-2.694c0.326-0.322 0.754-0.538 1.241-0.538 0.432 0 0.915 0.216 1.238 0.538l21.177 21.177 21.178-21.178c0.322-0.322 0.804-0.538 1.237-0.538s0.916 0.216 1.237 0.538l2.694 2.694c0.326 0.326 0.542 0.809 0.542 1.241 0.001 0.432-0.216 0.916-0.541 1.238zM58.347 32.377l-25.11 25.113c-0.322 0.322-0.804 0.533-1.237 0.533s-0.915-0.212-1.241-0.533l-25.109-25.113c-0.322-0.322-0.538-0.805-0.538-1.238s0.216-0.915 0.538-1.241l2.694-2.694c0.326-0.323 0.754-0.538 1.241-0.538 0.432 0 0.915 0.216 1.238 0.538l21.177 21.179 21.178-21.178c0.322-0.323 0.804-0.538 1.237-0.538s0.916 0.216 1.237 0.538l2.694 2.694c0.326 0.326 0.542 0.809 0.542 1.241s-0.216 0.915-0.541 1.237z" fill="#000000" />
</svg>
