<?xml version="1.0" encoding="utf-8"?>
<!-- Generated by IcoMoon.io -->
<!DOCTYPE svg PUBLIC "-//W3C//DTD SVG 1.1//EN" "http://www.w3.org/Graphics/SVG/1.1/DTD/svg11.dtd">
<svg version="1.1" xmlns="http://www.w3.org/2000/svg" xmlns:xlink="http://www.w3.org/1999/xlink" width="64" height="64" viewBox="0 0 64 64">
	<path d="M59.749 44.799c0.12 1.14-0.153 2.328-0.762 3.444-1.408 2.584-4.68 3.051-6.763 0.97-1.111-1.11-1.544-2.531-1.836-4.010-0.306-1.555-0.988-2.891-2.114-4.024-1.524-1.535-3.383-2.031-5.452-1.782-3.724 0.449-7.435 1.006-11.16 1.445-5.876 0.693-11.075-0.961-15.639-4.682-3.884-3.166-6.336-7.268-7.627-12.052-0.983-3.641-1.854-7.317-2.628-11.009-0.231-1.103-0.13-2.347 0.112-3.462 0.505-2.329 2.264-3.395 4.463-3.765 4.313-0.726 7.989 0.707 11.264 3.443 3.034 2.534 4.608 5.854 5.325 9.665 0.487 2.585 0.95 5.18 1.572 7.734 0.505 2.070 1.573 3.846 3.499 4.958 1.046 0.604 2.166 0.935 3.388 0.99 2.375 0.106 4.691-0.326 7.023-0.653 2.401-0.337 4.798-0.706 7.222-0.091 3.722 0.944 6.458 3.165 8.369 6.429 1.135 1.939 1.855 4.023 1.742 6.452" fill="#000000" />
	<path d="M24.321 58.462c-3.617-0.106-6.226-1.075-8.14-3.508-1.947-2.476-2.298-6.234-0.81-8.686 1.174-1.934 2.999-2.938 5.143-3.445 3.215-0.761 6.224-0.306 8.898 1.674 2.45 1.814 3.281 4.35 2.813 7.297-0.467 2.943-2.168 4.977-4.954 5.997-1.119 0.41-2.34 0.539-2.951 0.672" fill="#000000" />
	<path d="M47.963 13.388c2.8-0.060 4.531 1.008 5.945 2.63 2.033 2.331 3.146 5.033 2.722 8.165-0.146 1.078-0.514 2.199-1.065 3.134-1.208 2.051-3.725 2.479-6.030 1.106-2.703-1.61-4.327-4.061-5.172-7.043-0.403-1.422-0.535-2.873-0.178-4.347 0.546-2.249 2.461-3.672 3.777-3.646" fill="#000000" />
</svg>
