<?xml version="1.0" encoding="utf-8"?>
<!-- Generated by IcoMoon.io -->
<!DOCTYPE svg PUBLIC "-//W3C//DTD SVG 1.1//EN" "http://www.w3.org/Graphics/SVG/1.1/DTD/svg11.dtd">
<svg version="1.1" xmlns="http://www.w3.org/2000/svg" xmlns:xlink="http://www.w3.org/1999/xlink" width="64" height="64" viewBox="0 0 64 64">
	<path d="M43.789 20.21v23.579h-4.211v-7.579c0-4.186-3.393-7.579-7.579-7.579h-0.842v-3.368l-5.684 5.474 5.684 5.474v-3.368h0.842c1.86 0 3.368 1.508 3.368 3.368v7.579h-15.158v-23.579h23.579z" fill="#000000" />
</svg>
