<?xml version="1.0" encoding="utf-8"?>
<!-- Generated by IcoMoon.io -->
<!DOCTYPE svg PUBLIC "-//W3C//DTD SVG 1.1//EN" "http://www.w3.org/Graphics/SVG/1.1/DTD/svg11.dtd">
<svg version="1.1" xmlns="http://www.w3.org/2000/svg" xmlns:xlink="http://www.w3.org/1999/xlink" width="64" height="64" viewBox="0 0 64 64">
	<path d="M16 38.667h9.333v9.333h-9.333v-9.333zM16 28h9.333v9.333h-9.333v-9.333zM16 17.333h9.333v9.333h-9.333v-9.333zM26.667 17.333h9.333v9.333h-9.333v-9.333zM26.667 38.667h9.333v9.333h-9.333v-9.333zM26.667 28h9.333v9.333h-9.333v-9.333zM29.333 30.667v4h4v-4h-4zM52 32v2.667h-8l4 4h-4.667l-6-5.333 6-5.333h4.667l-4 4h8z" fill="#000000" />
</svg>
