<?xml version="1.0" encoding="utf-8"?>
<!-- Generated by IcoMoon.io -->
<!DOCTYPE svg PUBLIC "-//W3C//DTD SVG 1.1//EN" "http://www.w3.org/Graphics/SVG/1.1/DTD/svg11.dtd">
<svg version="1.1" xmlns="http://www.w3.org/2000/svg" xmlns:xlink="http://www.w3.org/1999/xlink" width="64" height="64" viewBox="0 0 64 64">
	<path d="M22.737 16h10.947v10.105h-1.289l-0.146-1.57-0.475-4.751c-0.070-0.698-0.083-1.405-0.212-2.095-0.031-0.164-0.135-0.318-0.261-0.428-0.127-0.112-0.295-0.187-0.463-0.209-0.135-0.018-0.278 0.032-0.398 0.096-0.12 0.064-0.238 0.154-0.302 0.274-0.122 0.228-0.181 0.486-0.24 0.738l-0.118 0.785-1.459 7.16h-5.585v-10.105zM22.737 27.79h5.242l-0.839 4.118c-0.177-0.24-0.388-0.448-0.641-0.608-0.94-0.597-2.659-0.083-3.761 0.406v-3.916zM43.789 27.79v3.583c-0.852 0.195-1.735 0.385-2.599 0.28-0.982-0.12-2.072-0.891-2.94-0.414-0.979 0.539-0.926 2.315-1.971 2.711-0.595 0.226-1.538-0.449-1.909 0.068l-0.141 0.365c-0.097 0.729-0.181 1.692-0.26 2.67h-0.553l-0.864-9.263h11.238zM43.789 37.053h-8.321l0.177-1.562c0.364 0.051 0.75 0.034 1.099-0.080 1.149-0.376 1.727-1.753 2.259-2.839 0.076-0.156 0.319 0.138 0.481 0.199l0.266 0.104c0.368 0.1 0.733 0.216 1.111 0.269 0.968 0.136 1.961-0.011 2.928-0.209v4.118zM22.737 37.053v-3.346c2.082-1.292 3.019-1.249 3.401-0.621 0.429 0.705 0.054 1.808 0.636 2.394 0.125 0.126 0.308 0.209 0.485 0.222 0.177 0.012 0.369-0.045 0.511-0.153 0.142-0.108 0.246-0.278 0.284-0.452 0.532-2.43 1.021-4.868 1.506-7.307h1.474l0.926 9.263h-9.224zM22.737 38.737h5.895v5.053h-5.895v-5.053zM30.316 38.737h1.813l0.037 0.37 0.521 5.206c0.098 0.983-0.007 2.604 0.961 2.803 0.585 0.12 0.797-0.979 0.86-1.573l0.771-6.806h4.301v9.263h-9.263v-9.263zM33.7 40.105l-0.128-1.368h0.259c-0.043 0.502-0.086 0.969-0.131 1.368zM30.543 22.878l0.323 3.228h-0.971c0.214-1.076 0.429-2.152 0.648-3.228z" fill="#000000" />
</svg>
