<?xml version="1.0" encoding="utf-8"?>
<!-- Generated by IcoMoon.io -->
<!DOCTYPE svg PUBLIC "-//W3C//DTD SVG 1.1//EN" "http://www.w3.org/Graphics/SVG/1.1/DTD/svg11.dtd">
<svg version="1.1" xmlns="http://www.w3.org/2000/svg" xmlns:xlink="http://www.w3.org/1999/xlink" width="64" height="64" viewBox="0 0 64 64">
	<path d="M16 48h4.070l-4.070-5.053h3.368v-21.895h-3.368l4.070-5.053h-4.070v-2.526h10.105v2.526h-4.070l4.070 5.053h-3.368v21.895h3.368l-4.070 5.053h4.070v2.526h-10.105v-2.526zM29.474 13.474h18.526v37.053h-18.526v-37.053zM44.632 16.842h-11.79v30.316h11.79v-30.316z" fill="#000000" />
</svg>
