<?xml version="1.0" encoding="utf-8"?>
<!-- Generated by IcoMoon.io -->
<!DOCTYPE svg PUBLIC "-//W3C//DTD SVG 1.1//EN" "http://www.w3.org/Graphics/SVG/1.1/DTD/svg11.dtd">
<svg version="1.1" xmlns="http://www.w3.org/2000/svg" xmlns:xlink="http://www.w3.org/1999/xlink" width="64" height="64" viewBox="0 0 64 64">
	<path d="M31.667 12h0.667l6.667 17.667-4.667-3.333v13.889l4 2.778v9l-5.833-3.667h-1l-5.833 3.667v-9l4-2.778v-13.889l-4.667 3.333 6.667-17.667z" fill="#000000" />
</svg>
