<?xml version="1.0" encoding="utf-8"?>
<!-- Generated by IcoMoon.io -->
<!DOCTYPE svg PUBLIC "-//W3C//DTD SVG 1.1//EN" "http://www.w3.org/Graphics/SVG/1.1/DTD/svg11.dtd">
<svg version="1.1" xmlns="http://www.w3.org/2000/svg" xmlns:xlink="http://www.w3.org/1999/xlink" width="64" height="64" viewBox="0 0 64 64">
	<path d="M18.526 16h26.947v32h-2.526v-29.474h-21.895v29.474h-2.526v-32zM32 26.947c2.325 0 4.21 1.885 4.21 4.21 0 1.743-1.059 3.238-2.568 3.878l0.884 7.069h-5.053l0.884-7.069c-1.509-0.64-2.568-2.135-2.568-3.878 0-2.325 1.885-4.21 4.21-4.21zM39.579 32c0.93 0 1.684 0.754 1.684 1.684s-0.754 1.684-1.684 1.684c-0.93 0-1.684-0.754-1.684-1.684 0-0.93 0.754-1.684 1.684-1.684z" fill="#000000" />
</svg>
