<?xml version="1.0" encoding="utf-8"?>
<!-- Generated by IcoMoon.io -->
<!DOCTYPE svg PUBLIC "-//W3C//DTD SVG 1.1//EN" "http://www.w3.org/Graphics/SVG/1.1/DTD/svg11.dtd">
<svg version="1.1" xmlns="http://www.w3.org/2000/svg" xmlns:xlink="http://www.w3.org/1999/xlink" width="64" height="64" viewBox="0 0 64 64">
	<path d="M38.45 31.283l3.2 0.765c-0.623 2.483-1.743 4.377-3.36 5.682-1.335 1.078-2.915 1.71-4.741 1.898v5.811h11.2v2.56h-14.4v-8.441c-1.523-0.208-2.82-0.668-3.891-1.378-1.515-1.005-2.668-2.46-3.46-4.365-0.792-1.905-1.188-3.951-1.188-6.137 0-2.387 0.441-4.467 1.323-6.242 0.882-1.775 2.136-3.123 3.762-4.045 1.627-0.922 3.417-1.383 5.37-1.383 2.213 0 4.076 0.582 5.588 1.745 1.512 1.163 2.564 2.798 3.157 4.905l-3.2 0.705c-0.493-1.67-1.211-2.887-2.152-3.65-0.942-0.763-2.124-1.145-3.548-1.145-1.64 0-3.010 0.423-4.11 1.27-1.1 0.847-1.873 1.983-2.32 3.41-0.447 1.427-0.67 2.897-0.67 4.41 0 1.957 0.271 3.663 0.812 5.12 0.542 1.457 1.383 2.546 2.525 3.267 0.637 0.403 1.304 0.693 2.001 0.871v-11.957h3.2v12.015c0.987-0.215 1.86-0.654 2.621-1.319 1.123-0.982 1.883-2.439 2.28-4.372z" fill="#000000" />
</svg>
