<?xml version="1.0" encoding="utf-8"?>
<!-- Generated by IcoMoon.io -->
<!DOCTYPE svg PUBLIC "-//W3C//DTD SVG 1.1//EN" "http://www.w3.org/Graphics/SVG/1.1/DTD/svg11.dtd">
<svg version="1.1" xmlns="http://www.w3.org/2000/svg" xmlns:xlink="http://www.w3.org/1999/xlink" width="64" height="64" viewBox="0 0 64 64">
	<path d="M17.333 46.667c-4 0 1.333-4.667 1.333-4.667l2.667-6 5.333 5.333-5.333 2.667h17.333l2.667 2.667h-24zM30.667 40h-2.667l-5.333-5.333v-2.667l8 8zM28.457 28.457c-1.721 1.965-2.302 3.567-2.79 4.543l-1.333-1.333c0 0-1.667-1 2.333-5l1.79 1.79zM31 38.333l-4.333-4.333c0.773-1.352 1.271-2.929 2.698-4.636l6.636 6.636c0 0-3.667 3.667-5 2.333zM30.597 27.93c5.647-6.409 14.59-13.859 20.019-18.6 1.789 1.47 3.4 3.148 4.798 4.997l-18.080 20.34-6.737-6.737zM48.094 7.472l1.243 0.864c-5.497 4.966-14.292 12.838-19.623 18.712l-1.714-1.714 20.094-17.861z" fill="#000000" />
</svg>
