<?xml version="1.0" encoding="utf-8"?>
<!-- Generated by IcoMoon.io -->
<!DOCTYPE svg PUBLIC "-//W3C//DTD SVG 1.1//EN" "http://www.w3.org/Graphics/SVG/1.1/DTD/svg11.dtd">
<svg version="1.1" xmlns="http://www.w3.org/2000/svg" xmlns:xlink="http://www.w3.org/1999/xlink" width="64" height="64" viewBox="0 0 64 64">
	<path d="M52.41 16.694c-5.657 5.657-0.667 10.647-2.552 12.533l-7.542 7.542-0.943-0.943-11.314 15.085c-3.143-2.514-3.771-1.886-9.428-7.543-5.657-5.657-5.028-6.285-7.543-9.428l15.085-11.314-0.943-0.943 7.542-7.543c1.886-1.886 7.209 3.105 12.866-2.552 0.657-0.657 1.485-1.634 2.368-2.747 1.981 1.543 3.759 3.334 5.287 5.327-1.169 0.953-2.2 1.841-2.884 2.525zM29.587 24.042l-13.671 10.371c0 0 4.714-1.414 4.714 0.471s-0.943 2.828 0.943 2.828c1.886 0 4.243-1.414 4.243 0.471 0 1.886-2.121 2.121-0.236 4.007 1.886 1.886 5.421-3.536 5.657-1.886 0 1.886-0.943 4.714 0 5.657l8.721-11.549-0.471-0.471-3.771 3.771 2.828-4.714-0.943-0.943-5.421 3.536 4.478-4.478-1.886-1.886-6.128 6.128 5.185-7.071-0.943-0.943-3.536 4.007 2.593-4.95-0.943-0.943-3.771 1.886 2.828-2.828-0.471-0.471zM31 21.667l1-0.333c0 0 2.333-2.667 5-4s2.333-0.333 6.333-0.333c4 0 8.667-6.333 8.667-6.333h-1c0 0-3 4-5.667 5.333s-4.667 0-7.333 0c-2.667 0-7 5.667-7 5.667z" fill="#000000" />
</svg>
