<?xml version="1.0" encoding="utf-8"?>
<!-- Generated by IcoMoon.io -->
<!DOCTYPE svg PUBLIC "-//W3C//DTD SVG 1.1//EN" "http://www.w3.org/Graphics/SVG/1.1/DTD/svg11.dtd">
<svg version="1.1" xmlns="http://www.w3.org/2000/svg" xmlns:xlink="http://www.w3.org/1999/xlink" width="64" height="64" viewBox="0 0 64 64">
	<path d="M6.914 22.077h43.412v24.807h-43.412v-24.807zM45.365 19.597h-18.605c1.24-3.721 3.101-4.961 3.101-4.961h13.954c0.685 0 1.551 0.865 1.551 1.551v3.411zM47.225 49.365c1.712 0 3.101 1.388 3.101 3.101s-1.388 3.101-3.101 3.101c-1.712 0-3.101-1.388-3.101-3.101 0-1.712 1.388-3.101 3.101-3.101zM38.543 49.365c1.712 0 3.101 1.388 3.101 3.101s-1.388 3.101-3.101 3.101c-1.712 0-3.101-1.388-3.101-3.101 0-1.712 1.388-3.101 3.101-3.101zM29.86 49.365c1.712 0 3.101 1.388 3.101 3.101s-1.388 3.101-3.101 3.101c-1.712 0-3.101-1.388-3.101-3.101 0-1.712 1.388-3.101 3.101-3.101z" fill="#000000" />
</svg>
