<?xml version="1.0" encoding="utf-8"?>
<!-- Generated by IcoMoon.io -->
<!DOCTYPE svg PUBLIC "-//W3C//DTD SVG 1.1//EN" "http://www.w3.org/Graphics/SVG/1.1/DTD/svg11.dtd">
<svg version="1.1" xmlns="http://www.w3.org/2000/svg" xmlns:xlink="http://www.w3.org/1999/xlink" width="64" height="64" viewBox="0 0 64 64">
	<path d="M37.227 44.282c-1.976 0.962-4.557 1.442-7.743 1.442-4.16 0-7.429-1.228-9.808-3.685-2.379-2.457-3.569-5.728-3.569-9.814 0-4.355 1.338-7.887 4.015-10.597 2.677-2.709 6.15-4.064 10.419-4.064 2.644 0 4.873 0.342 6.686 1.027v6.013c-1.785-1.043-3.817-1.564-6.099-1.564-2.506 0-4.527 0.786-6.065 2.359-1.538 1.573-2.307 3.703-2.307 6.392 0 2.579 0.725 4.633 2.176 6.163 1.45 1.53 3.404 2.295 5.861 2.295 2.343 0 4.488-0.522 6.435-1.564v5.598zM39 29.333h5v-5h5.333v5h5v5.333h-5v5h-5.333v-5h-5v-5.333z" fill="#000000" />
</svg>
