<?xml version="1.0" encoding="utf-8"?>
<!-- Generated by IcoMoon.io -->
<!DOCTYPE svg PUBLIC "-//W3C//DTD SVG 1.1//EN" "http://www.w3.org/Graphics/SVG/1.1/DTD/svg11.dtd">
<svg version="1.1" xmlns="http://www.w3.org/2000/svg" xmlns:xlink="http://www.w3.org/1999/xlink" width="64" height="64" viewBox="0 0 64 64">
	<path d="M5.953 8.434h3.721v43.412h48.373v3.721h-52.094v-47.133zM12.155 49.365v-5.892l12.403-12.713 16.124 8.372 14.884-23.256 2.481 2.481-16.124 26.047-17.055-8.682-12.713 13.644z" fill="#000000" />
</svg>
