<?xml version="1.0" encoding="utf-8"?>
<!-- Generated by IcoMoon.io -->
<!DOCTYPE svg PUBLIC "-//W3C//DTD SVG 1.1//EN" "http://www.w3.org/Graphics/SVG/1.1/DTD/svg11.dtd">
<svg version="1.1" xmlns="http://www.w3.org/2000/svg" xmlns:xlink="http://www.w3.org/1999/xlink" width="64" height="64" viewBox="0 0 64 64">
	<path d="M5.953 8.434h3.721v43.412h48.373v3.721h-52.094v-47.133zM12.155 49.365v-6.202l11.99-13.127 17.675 7.855 9.017-15.78-6.435 1.845-2.97-3.234 15.102-4.33 4.33 15.102-4.317-0.805-1.985-6.924-10.779 20.018-18.708-8.476-12.92 14.057z" fill="#000000" />
</svg>
