<?xml version="1.0" encoding="utf-8"?>
<!-- Generated by IcoMoon.io -->
<!DOCTYPE svg PUBLIC "-//W3C//DTD SVG 1.1//EN" "http://www.w3.org/Graphics/SVG/1.1/DTD/svg11.dtd">
<svg version="1.1" xmlns="http://www.w3.org/2000/svg" xmlns:xlink="http://www.w3.org/1999/xlink" width="64" height="64" viewBox="0 0 64 64">
	<path d="M29.333 24h2.667v2.667h-2.667v-2.667zM25.333 30.667v-2.667h2.667v2.667h-2.667zM25.333 24h2.667v2.667h-2.667v-2.667zM33.333 24h2.667v2.667h-2.667v-2.667zM25.333 32h2.667v2.667h-2.667v-2.667zM25.333 36h2.667v2.666h-2.667v-2.666zM29.333 36h2.667v2.666h-2.667v-2.666zM33.333 36h2.667v2.666h-2.667v-2.666zM37.333 36h2.667v2.667h-2.667v-2.666zM37.333 32h2.667v2.667h-2.667v-2.667zM37.333 28h2.667v2.667h-2.667v-2.667zM37.333 24h2.667v2.667h-2.667v-2.667zM21.333 24h2.667v2.667h-2.667v-2.667zM17.333 24h2.667v2.667h-2.667v-2.667zM13.333 24h2.667v2.667h-2.667v-2.667zM21.333 36h2.667v2.667h-2.667v-2.667zM17.333 36h2.667v2.667h-2.667v-2.667zM13.333 36h2.667v2.667h-2.667v-2.667zM13.333 28h2.667v2.667h-2.667v-2.667zM13.333 32h2.667v2.667h-2.667v-2.667zM41.333 24h2.667v2.667h-2.667v-2.667zM45.333 24h2.667v2.667h-2.667v-2.667zM41.333 36h2.667v2.667h-2.667v-2.667zM45.333 36h2.667v2.667h-2.667v-2.667zM49.333 36h2.667v2.667h-2.667v-2.667zM49.333 32h2.667v2.667h-2.667v-2.667zM49.333 28h2.667v2.667h-2.667v-2.667zM49.333 24h2.667v2.667h-2.667v-2.667zM9.333 24h2.667v2.667h-2.667v-2.667zM9.333 36h2.667v2.666h-2.667v-2.667zM29.333 48h2.667v2.667h-2.667v-2.667zM33.333 48h2.667v2.667h-2.667v-2.667zM37.333 48h2.667v2.667h-2.667v-2.667zM37.333 44h2.667v2.667h-2.667v-2.667zM37.333 40h2.667v2.667h-2.667v-2.667zM41.333 48h2.667v2.667h-2.667v-2.667zM45.333 48h2.667v2.667h-2.667v-2.667zM49.333 44h2.667v2.667h-2.667v-2.667zM49.333 40h2.667v2.667h-2.667v-2.667zM17.333 48h2.667v2.667h-2.667v-2.667zM21.333 48h2.667v2.667h-2.667v-2.667zM25.333 48h2.667v2.667h-2.667v-2.667zM25.333 44h2.667v2.667h-2.667v-2.667zM25.333 40h2.667v2.667h-2.667v-2.667zM29.333 12h2.667v2.667h-2.667v-2.667zM25.333 18.667v-2.667h2.667v2.667h-2.667zM25.333 12h2.667v2.667h-2.667v-2.667zM33.333 12h2.667v2.667h-2.667v-2.667zM25.333 20h2.667v2.667h-2.667v-2.667zM37.333 20h2.667v2.667h-2.667v-2.667zM37.333 16h2.667v2.667h-2.667v-2.667zM37.333 12h2.667v2.667h-2.667v-2.667zM21.333 12h2.667v2.667h-2.667v-2.667zM13.333 16h2.667v2.667h-2.667v-2.667zM13.333 20h2.667v2.667h-2.667v-2.667zM41.333 12h2.667v2.667h-2.667v-2.667zM49.333 20h2.667v2.667h-2.667v-2.667zM53.333 36h2.667v2.667h-2.667v-2.667zM37.333 8h2.667v2.667h-2.667v-2.667zM37.333 52h2.667v2.667h-2.667v-2.667zM25.333 8h2.667v2.667h-2.667v-2.667zM25.333 52h2.667v2.667h-2.667v-2.667zM13.333 44h2.667v2.667h-2.667v-2.667zM13.333 40h2.667v2.667h-2.667v-2.667zM53.333 24h2.667v2.667h-2.667v-2.667z" fill="#000000" />
</svg>
