<?xml version="1.0" encoding="utf-8"?>
<!-- Generated by IcoMoon.io -->
<!DOCTYPE svg PUBLIC "-//W3C//DTD SVG 1.1//EN" "http://www.w3.org/Graphics/SVG/1.1/DTD/svg11.dtd">
<svg version="1.1" xmlns="http://www.w3.org/2000/svg" xmlns:xlink="http://www.w3.org/1999/xlink" width="64" height="64" viewBox="0 0 64 64">
	<path d="M31.669 6.863h0.661c0 0 24.807 0 24.807 26.461 0 11.907-2.646 15.876-3.969 17.199 0 0-3.969 2.646-2.646-0.992 0-3.061 1.323-9.592 1.323-9.592 0 0 1.323 0 1.323-6.615 0-7.938-5.292-21.83-19.845-21.83h-2.646c-14.553 0-19.845 13.892-19.845 21.83 0 6.615 1.323 6.615 1.323 6.615 0 0 1.323 6.531 1.323 9.592 1.323 3.638-2.646 0.992-2.646 0.992-1.323-1.323-3.969-5.292-3.969-17.199 0-26.461 24.807-26.461 24.807-26.461zM16.856 33.542c2.171-0.305 4.178 1.207 4.483 3.378l2.025 14.412c0.305 2.171-1.207 4.178-3.378 4.483s-4.839-1.207-5.144-3.378l-2.025-14.412c-0.305-2.171 1.869-4.178 4.039-4.483zM47.144 33.542c2.171 0.305 4.345 2.312 4.039 4.483l-2.025 14.412c-0.305 2.171-2.974 3.683-5.144 3.378-2.171-0.305-3.683-2.312-3.378-4.483l2.025-14.412c0.305-2.171 2.312-3.683 4.483-3.378z" fill="#000000" />
</svg>
