<?xml version="1.0" encoding="utf-8"?>
<!-- Generated by IcoMoon.io -->
<!DOCTYPE svg PUBLIC "-//W3C//DTD SVG 1.1//EN" "http://www.w3.org/Graphics/SVG/1.1/DTD/svg11.dtd">
<svg version="1.1" xmlns="http://www.w3.org/2000/svg" xmlns:xlink="http://www.w3.org/1999/xlink" width="64" height="64" viewBox="0 0 64 64">
	<path d="M18.526 48c-0.93 0-1.684-0.754-1.684-1.684v-4.211c0-0.93 0.754-1.684 1.684-1.684h19.368c0.93 0 1.684 0.754 1.684 1.684v4.21c0 0.93-0.754 1.684-1.684 1.684h-19.368zM18.526 39.579l14.316-22.737 5.053 22.737h-19.368zM33.684 16.842l9.016 9.66c0.646-0.512 1.464-0.818 2.352-0.818 2.093 0 3.789 1.697 3.789 3.79 0 2.093-1.697 3.79-3.789 3.79-2.093 0-3.789-1.697-3.789-3.79 0-0.384 0.057-0.755 0.163-1.104l-5.216-1.423-2.526-10.105z" fill="#000000" />
</svg>
