<?xml version="1.0" encoding="utf-8"?>
<!-- Generated by IcoMoon.io -->
<!DOCTYPE svg PUBLIC "-//W3C//DTD SVG 1.1//EN" "http://www.w3.org/Graphics/SVG/1.1/DTD/svg11.dtd">
<svg version="1.1" xmlns="http://www.w3.org/2000/svg" xmlns:xlink="http://www.w3.org/1999/xlink" width="64" height="64" viewBox="0 0 64 64">
	<path d="M38.737 38.737h5.895v-2.526l4.211 4.21-4.211 4.21v-2.526h-5.895v-3.368zM19.369 47.158v-15.158l-1.684 1.684-2.526-4.21 16-12.632 5.895 4.654v-3.18l3.368-0.632v6.471l6.737 5.319-2.526 4.21-1.684-1.684v5.895h-2.526v-7.579l-9.263-7.649-9.263 7.649v14.316h9.262v-10.105h6.737v10.105h2.527v-1.684h2.526v4.21h-23.579zM24.421 34.526h4.211v5.053h-4.211v-5.053z" fill="#000000" />
</svg>
