<?xml version="1.0" encoding="utf-8"?>
<!-- Generated by IcoMoon.io -->
<!DOCTYPE svg PUBLIC "-//W3C//DTD SVG 1.1//EN" "http://www.w3.org/Graphics/SVG/1.1/DTD/svg11.dtd">
<svg version="1.1" xmlns="http://www.w3.org/2000/svg" xmlns:xlink="http://www.w3.org/1999/xlink" width="64" height="64" viewBox="0 0 64 64">
	<path d="M20.21 47.158v-15.158l-1.684 1.684-2.526-4.21 16-12.632 16 12.632-2.526 4.211-1.684-1.684v15.158h-23.579zM32 22.667l-9.263 7.649v14.316h18.526v-14.316l-9.263-7.649z" fill="#000000" />
</svg>
