<?xml version="1.0" encoding="utf-8"?>
<!-- Generated by IcoMoon.io -->
<!DOCTYPE svg PUBLIC "-//W3C//DTD SVG 1.1//EN" "http://www.w3.org/Graphics/SVG/1.1/DTD/svg11.dtd">
<svg version="1.1" xmlns="http://www.w3.org/2000/svg" xmlns:xlink="http://www.w3.org/1999/xlink" width="64" height="64" viewBox="0 0 64 64">
	<path d="M20.21 47.158v-15.158l-1.895 1.474-2.737-4.105 16.421-12.316 6.737 5.053v-3.789l3.368-0.632v6.737l6.316 4.947-2.737 4.105-1.895-1.474v15.158h-23.579zM31.968 27.453c-2.093 0-3.79 1.979-3.79 4.421s1.697 4.421 3.79 4.421c2.093 0 3.789-1.979 3.789-4.421 0-2.442-1.697-4.421-3.789-4.421zM24.421 44.632h15.158c0 0-0.253-5.558-1.263-7.074-0.897-1.346-2.274-1.516-2.779-1.516-0.505 0-2.274 1.768-3.537 1.768-1.263 0-3.221-1.768-3.726-1.768-0.505 0-3.853-0.253-3.853 8.59zM51.297 9.726c1.062 0.92 2.056 1.915 2.977 2.977l-11.326 11.326v-5.954l8.349-8.35zM12.703 54.274c-1.062-0.92-2.056-1.915-2.977-2.977l9.642-9.642v5.954l-6.665 6.665z" fill="#000000" />
</svg>
