<?xml version="1.0" encoding="utf-8"?>
<!-- Generated by IcoMoon.io -->
<!DOCTYPE svg PUBLIC "-//W3C//DTD SVG 1.1//EN" "http://www.w3.org/Graphics/SVG/1.1/DTD/svg11.dtd">
<svg version="1.1" xmlns="http://www.w3.org/2000/svg" xmlns:xlink="http://www.w3.org/1999/xlink" width="64" height="64" viewBox="0 0 64 64">
	<path d="M14.316 16.842h35.368v30.316h-35.368v-30.316zM16.842 19.368v25.263h30.316v-25.263h-30.316zM22.737 31.579l5.895 5.474v5.895c-1.965 0-3.93 0-4.912-1.895-0.983-1.895-0.983-5.684-0.983-9.474zM41.263 31.579c0 3.79 0 7.579-0.982 9.474-0.983 1.895-2.947 1.895-4.912 1.895h-5.053v-8.421l-4.21-4.21v-5.053l1.684-4.21 1.895 3.79 2.316-3.79 2.316 3.79 1.895-3.79 1.684 4.21v5.053l-4.21 4.21v2.526h1.684l5.895-5.474z" fill="#000000" />
</svg>
