<?xml version="1.0" encoding="utf-8"?>
<!-- Generated by IcoMoon.io -->
<!DOCTYPE svg PUBLIC "-//W3C//DTD SVG 1.1//EN" "http://www.w3.org/Graphics/SVG/1.1/DTD/svg11.dtd">
<svg version="1.1" xmlns="http://www.w3.org/2000/svg" xmlns:xlink="http://www.w3.org/1999/xlink" width="64" height="64" viewBox="0 0 64 64">
	<path d="M14.316 16.842h35.368v30.316h-35.368v-30.316zM16.842 19.368v25.263h30.316v-25.263h-30.316zM30.316 21.053h3.368v1.837c3.766 0.692 6.734 3.661 7.426 7.426h1.837v3.368h-1.837c-0.692 3.766-3.661 6.734-7.426 7.426v1.837h-3.368v-1.837c-3.766-0.692-6.735-3.661-7.426-7.426h-1.837v-3.368h1.837c0.692-3.766 3.661-6.735 7.426-7.426v-1.837zM33.684 27.79h-3.368v-2.314c-2.367 0.609-4.231 2.473-4.84 4.84h2.314v3.368h-2.314c0.609 2.367 2.473 4.231 4.84 4.84v-2.314h3.368v2.314c2.367-0.609 4.231-2.473 4.84-4.84h-2.314v-3.368h2.314c-0.609-2.367-2.473-4.231-4.84-4.84v2.314z" fill="#000000" />
</svg>
