<?xml version="1.0" encoding="utf-8"?>
<!-- Generated by IcoMoon.io -->
<!DOCTYPE svg PUBLIC "-//W3C//DTD SVG 1.1//EN" "http://www.w3.org/Graphics/SVG/1.1/DTD/svg11.dtd">
<svg version="1.1" xmlns="http://www.w3.org/2000/svg" xmlns:xlink="http://www.w3.org/1999/xlink" width="64" height="64" viewBox="0 0 64 64">
	<path d="M4.217 8.186h55.567v47.629h-55.567v-47.629zM8.186 12.155v39.691h47.629v-39.691h-47.629zM13.478 49.199l8.048-8.82 4.19 4.19 16.758-16.758 6.284 6.284 4.41-4.741v19.845h-39.691zM21.526 17.337c0 4.628-3.751 8.379-8.379 8.379-0.723 0-1.646-0.159-2.315-0.331v-10.584h10.143c0.172 0.67 0.551 1.812 0.551 2.536z" fill="#000000" />
</svg>
