<?xml version="1.0" encoding="utf-8"?>
<!-- Generated by IcoMoon.io -->
<!DOCTYPE svg PUBLIC "-//W3C//DTD SVG 1.1//EN" "http://www.w3.org/Graphics/SVG/1.1/DTD/svg11.dtd">
<svg version="1.1" xmlns="http://www.w3.org/2000/svg" xmlns:xlink="http://www.w3.org/1999/xlink" width="64" height="64" viewBox="0 0 64 64">
	<path d="M4.768 4.768h54.464v50.275h-54.464v-50.275zM8.957 8.958v23.042h46.085v-23.042h-46.085zM8.957 50.853h46.085v-4.19h-46.085v4.19zM55.042 40.379h-46.085v4.19h46.085v-4.19zM55.042 34.095h-46.085v4.19h46.085v-4.19zM17.448 27.81h-2.933v-14.468h2.933v14.468zM21.456 16.471c-0.487 0-0.885-0.152-1.196-0.457-0.311-0.304-0.466-0.679-0.466-1.123 0-0.454 0.155-0.826 0.466-1.115 0.311-0.289 0.709-0.434 1.196-0.434 0.493 0 0.893 0.145 1.2 0.434 0.307 0.289 0.461 0.661 0.461 1.115 0 0.462-0.154 0.841-0.461 1.136-0.307 0.295-0.708 0.443-1.2 0.443zM22.923 27.81h-2.933v-9.776h2.933v9.776zM24.682 27.478v-2.6l1.511 0.736 1.422 0.241 1.289-0.189c0.314-0.126 0.47-0.318 0.47-0.574l-0.214-0.473-0.548-0.331-0.733-0.255-0.768-0.257-1.045-0.469-0.758-0.584-0.466-0.767-0.16-1.031c0-0.542 0.122-1.009 0.365-1.401s0.567-0.712 0.972-0.961l1.39-0.548 1.63-0.176 1.341 0.101 1.341 0.293v2.343l-1.271-0.44-1.332-0.147-0.577 0.044-0.48 0.13-0.327 0.22-0.119 0.305 0.177 0.455 0.463 0.327 0.634 0.246 0.694 0.221 1.121 0.454 0.86 0.577 0.551 0.777 0.192 1.060c0 0.574-0.128 1.065-0.383 1.471-0.256 0.406-0.595 0.737-1.019 0.993l-1.465 0.559-1.721 0.176c-1.094 0-2.106-0.176-3.037-0.528zM39.737 27.615c-0.436 0.261-1.092 0.391-1.967 0.391-2.077 0-3.116-1.109-3.116-3.327v-4.494h-1.564v-2.151h1.564v-2.083l2.933-0.849v2.933h2.151v2.151h-2.151v3.947c0 1.018 0.396 1.527 1.188 1.527l0.962-0.196v2.151z" fill="#000000" />
</svg>
