<?xml version="1.0" encoding="utf-8"?>
<!-- Generated by IcoMoon.io -->
<!DOCTYPE svg PUBLIC "-//W3C//DTD SVG 1.1//EN" "http://www.w3.org/Graphics/SVG/1.1/DTD/svg11.dtd">
<svg version="1.1" xmlns="http://www.w3.org/2000/svg" xmlns:xlink="http://www.w3.org/1999/xlink" width="64" height="64" viewBox="0 0 64 64">
	<path d="M37.895 43.789c1.395 0 2.526 1.131 2.526 2.526v1.684h-16.842v-1.684c0-1.395 1.131-2.526 2.526-2.526h4.21v-16.842h-8.421l5.053-10.947h10.105l5.053 10.947h-8.421v16.842h4.211z" fill="#000000" />
</svg>
