<?xml version="1.0" encoding="utf-8"?>
<!-- Generated by IcoMoon.io -->
<!DOCTYPE svg PUBLIC "-//W3C//DTD SVG 1.1//EN" "http://www.w3.org/Graphics/SVG/1.1/DTD/svg11.dtd">
<svg version="1.1" xmlns="http://www.w3.org/2000/svg" xmlns:xlink="http://www.w3.org/1999/xlink" width="64" height="64" viewBox="0 0 64 64">
	<path d="M48 32l-16 8-16-8 5.333-2.667 10.667 5.333 10.667-5.333 5.333 2.667zM32 16l16 8-16 8-16-8 16-8zM48 40l-16 8-16-8 5.333-2.667 10.667 5.333 10.667-5.333 5.333 2.667z" fill="#000000" />
</svg>
