<?xml version="1.0" encoding="utf-8"?>
<!-- Generated by IcoMoon.io -->
<!DOCTYPE svg PUBLIC "-//W3C//DTD SVG 1.1//EN" "http://www.w3.org/Graphics/SVG/1.1/DTD/svg11.dtd">
<svg version="1.1" xmlns="http://www.w3.org/2000/svg" xmlns:xlink="http://www.w3.org/1999/xlink" width="64" height="64" viewBox="0 0 64 64">
	<path d="M16 16v32h32v-32h-32zM45.474 45.474h-26.947v-26.947h26.947v26.947zM43.789 20.211h-9.263v23.579h9.263v-23.579zM20.21 30.316h8.14l-3.088-4.21h3.368l4.21 5.895-4.21 5.895h-3.368l3.088-4.21h-8.14v-3.368z" fill="#000000" />
</svg>
