<?xml version="1.0" encoding="utf-8"?>
<!-- Generated by IcoMoon.io -->
<!DOCTYPE svg PUBLIC "-//W3C//DTD SVG 1.1//EN" "http://www.w3.org/Graphics/SVG/1.1/DTD/svg11.dtd">
<svg version="1.1" xmlns="http://www.w3.org/2000/svg" xmlns:xlink="http://www.w3.org/1999/xlink" width="64" height="64" viewBox="0 0 64 64">
	<path d="M19.786 38.845l1.333 2.309 3.643 0.976 6.928-4 0.667 1.155-0.976 3.643-5.774 3.333-7.285-1.952-2.667-4.619 1.952-7.285 5.774-3.333 3.643 0.976 0.667 1.155-6.928 4-0.976 3.643zM32.619 23.738l5.773-3.333 7.285 1.952 2.667 4.619-1.952 7.285-5.773 3.333-3.643-0.976-0.667-1.155 6.928-4 0.976-3.643-1.333-2.309-3.643-0.976-6.928 4-0.667-1.155 0.976-3.643zM28.548 38.021l-1.821-0.488-1-1.732 0.488-1.821 9.238-5.333 1.821 0.488 1 1.732-0.488 1.821-9.238 5.333z" fill="#000000" />
</svg>
