<?xml version="1.0" encoding="utf-8"?>
<!-- Generated by IcoMoon.io -->
<!DOCTYPE svg PUBLIC "-//W3C//DTD SVG 1.1//EN" "http://www.w3.org/Graphics/SVG/1.1/DTD/svg11.dtd">
<svg version="1.1" xmlns="http://www.w3.org/2000/svg" xmlns:xlink="http://www.w3.org/1999/xlink" width="64" height="64" viewBox="0 0 64 64">
	<path d="M16 37.895h6.737v6.737h-6.737v-6.737zM26.105 37.895h21.895v6.737h-21.895v-6.737zM26.105 35.368v-6.737h3.368v0.842h-2.526v5.053h7.579v0.842h-8.421zM48 28.632v6.737h-8.421v-0.842h7.579v-5.053h-2.526v-0.842h3.368zM30.316 32.211v-4.632l6.737-6.737 6.737 6.737v4.632l-5.053-5.053v8.21h-3.368v-8.21l-5.053 5.053zM26.105 19.368h21.895v6.737h-4l-0.842-0.842h4v-5.053h-20.21v5.053h4l-0.842 0.842h-4v-6.737zM16 19.368h6.737v6.737h-6.737v-6.737zM16.842 20.21v5.053h5.053v-5.053h-5.053zM16 28.632h6.737v6.737h-6.737v-6.737zM21.895 29.474h-5.053v5.053h5.053v-5.053z" fill="#000000" />
</svg>
