<?xml version="1.0" encoding="utf-8"?>
<!-- Generated by IcoMoon.io -->
<!DOCTYPE svg PUBLIC "-//W3C//DTD SVG 1.1//EN" "http://www.w3.org/Graphics/SVG/1.1/DTD/svg11.dtd">
<svg version="1.1" xmlns="http://www.w3.org/2000/svg" xmlns:xlink="http://www.w3.org/1999/xlink" width="64" height="64" viewBox="0 0 64 64">
	<path d="M26.105 25.684v-6.316h21.895v6.737h-21.895v-0.421zM32.884 34.803l2.803-2.803-2.803-2.803 1.786-1.786 2.803 2.803 2.803-2.803 1.786 1.786-3.013 2.803 3.013 2.803-1.786 1.786-2.803-2.803-2.803 2.803-1.786-1.786zM16 19.368h6.737v6.737h-6.737v-6.737zM16 28.632h6.737v6.737h-6.737v-6.737zM16 37.895h6.737v6.737h-6.737v-6.737zM26.105 28.632h5.6l2.19 3.368-2.189 3.368h-5.6v-6.737zM48 28.632v6.737h-4.758l-2.19-3.368 2.19-3.368h4.758zM26.105 37.895h21.895v6.737h-21.895v-6.737z" fill="#000000" />
</svg>
