<?xml version="1.0" encoding="utf-8"?>
<!-- Generated by IcoMoon.io -->
<!DOCTYPE svg PUBLIC "-//W3C//DTD SVG 1.1//EN" "http://www.w3.org/Graphics/SVG/1.1/DTD/svg11.dtd">
<svg version="1.1" xmlns="http://www.w3.org/2000/svg" xmlns:xlink="http://www.w3.org/1999/xlink" width="64" height="64" viewBox="0 0 64 64">
	<path d="M33.524 51.94c-0.357 1.678-2.467 3.21-4.145 2.853s-2.29-2.467-1.933-4.145l2.089-9.826-3.226-3.812-3.448 6.397c-0.213 0.399-1.49 0.943-1.908 1.022-0.306 0.183-0.648 0.316-1.019 0.386l-8.844 1.099c-1.686 0.319-3.311-0.79-3.63-2.476s0.79-2.851 2.476-3.169l8.864-1.563 3.682-7.252 0.101-1.115 2.261-10.636c0.535-2.518 3.010-4.125 5.527-3.59 1.745 0.371 3.053 1.674 3.513 3.277l4.219 6.231 6.485 3.152c1.157 0.563 1.64 1.957 1.077 3.114s-1.957 1.64-3.114 1.077l-6.605-3.21c-0.394-0.192-0.71-0.48-0.933-0.822-0.305-0.171-0.577-0.415-0.786-0.725l-1.264-1.867-1.262 5.937-0.29 0.904 4.272 6.185c0.34 0.804 0.315 1.671 0.001 2.417l-2.159 10.158zM31.077 5.321c2.518 0.535 4.125 3.010 3.59 5.527s-3.010 4.125-5.527 3.59c-2.518-0.535-4.125-3.010-3.59-5.527 0.535-2.518 3.010-4.125 5.527-3.59zM49.438 32.785l3.529 11.916-7.448 2.205-3.529-11.916 7.448-2.205zM44.029 47.347c-1.645 0.487-3.374-0.452-3.861-2.097l-1.764-5.958c-0.487-1.645 0.452-3.374 2.097-3.861l3.529 11.916zM50.927 32.343c1.645-0.487 3.374 0.452 3.861 2.097l1.764 5.958c0.487 1.645-0.452 3.374-2.097 3.861l-3.529-11.916z" fill="#000000" />
</svg>
