<?xml version="1.0" encoding="utf-8"?>
<!-- Generated by IcoMoon.io -->
<!DOCTYPE svg PUBLIC "-//W3C//DTD SVG 1.1//EN" "http://www.w3.org/Graphics/SVG/1.1/DTD/svg11.dtd">
<svg version="1.1" xmlns="http://www.w3.org/2000/svg" xmlns:xlink="http://www.w3.org/1999/xlink" width="64" height="64" viewBox="0 0 64 64">
	<path d="M23.333 19.158l9.333 2.667 8-5.333 11.544 2.877v24.421l-11.544-2.947-8 5.333-9.333-2.667-9.86 4.070v-24.421l9.86-4zM23.333 39.509l9.544 2.456 8-5.333 7.965 2.316v-16.21l-8.175-2.246-8 5.544-9.333-2.667-6.491 2.526v16.21l6.491-2.596zM46.947 34.526h-2.289l-1.648-3.306h-0.024c-0.028 0.129-0.093 0.325-1.679 3.306h-2.299l2.729-4.21-2.489-4.21h2.344l1.477 3.235h0.024c0.048-0.164 0.136-0.409 1.611-3.235h2.122l-2.521 4.175 2.641 4.246zM19.79 33.684c0.698 0 1.263 0.566 1.263 1.263s-0.566 1.263-1.263 1.263c-0.698 0-1.263-0.566-1.263-1.263 0-0.698 0.566-1.263 1.263-1.263zM21.474 29.474c0.698 0 1.263 0.566 1.263 1.263s-0.566 1.263-1.263 1.263c-0.698 0-1.263-0.566-1.263-1.263 0-0.698 0.566-1.263 1.263-1.263zM25.684 28.632c0.698 0 1.263 0.566 1.263 1.263s-0.566 1.263-1.263 1.263c-0.698 0-1.263-0.566-1.263-1.263 0-0.698 0.566-1.263 1.263-1.263zM28.21 32c0.698 0 1.263 0.566 1.263 1.263s-0.566 1.263-1.263 1.263c-0.698 0-1.263-0.566-1.263-1.263 0-0.698 0.566-1.263 1.263-1.263zM31.579 34.526c0.698 0 1.263 0.566 1.263 1.263s-0.566 1.263-1.263 1.263c-0.698 0-1.263-0.566-1.263-1.263 0-0.698 0.566-1.263 1.263-1.263zM37.474 29.474c0.698 0 1.263 0.566 1.263 1.263s-0.566 1.263-1.263 1.263c-0.698 0-1.263-0.566-1.263-1.263 0-0.698 0.566-1.263 1.263-1.263zM34.105 31.158c0.698 0 1.263 0.566 1.263 1.263s-0.566 1.263-1.263 1.263c-0.698 0-1.263-0.566-1.263-1.263 0-0.698 0.566-1.263 1.263-1.263z" fill="#000000" />
</svg>
