<?xml version="1.0" encoding="utf-8"?>
<!-- Generated by IcoMoon.io -->
<!DOCTYPE svg PUBLIC "-//W3C//DTD SVG 1.1//EN" "http://www.w3.org/Graphics/SVG/1.1/DTD/svg11.dtd">
<svg version="1.1" xmlns="http://www.w3.org/2000/svg" xmlns:xlink="http://www.w3.org/1999/xlink" width="64" height="64" viewBox="0 0 64 64">
	<path d="M32 16c8.837 0 16 7.163 16 16s-7.163 16-16 16c-8.837 0-16-7.163-16-16 0-8.837 7.163-16 16-16zM32 19.368c-6.976 0-12.632 5.655-12.632 12.632s5.655 12.632 12.632 12.632c6.976 0 12.632-5.655 12.632-12.632 0-6.976-5.655-12.632-12.632-12.632zM32 21.895c5.581 0 10.105 4.524 10.105 10.105s-4.524 10.105-10.105 10.105c-5.581 0-10.105-4.524-10.105-10.105 0-5.581 4.524-10.105 10.105-10.105zM25.263 32c0 2.229 1.082 4.205 2.75 5.431l1.461-4.799-3.843-2.832c-0.238 0.689-0.367 1.43-0.367 2.2zM32 38.737c1.481 0 2.851-0.478 3.963-1.288l-3.963-2.712-3.963 2.712c1.112 0.81 2.482 1.288 3.963 1.288zM38.737 32c0-0.728-0.115-1.429-0.329-2.085l-3.882 2.717 1.461 4.799c1.668-1.226 2.75-3.202 2.75-5.431zM33.684 29.684h4.644c-0.936-2.557-3.378-4.389-6.252-4.421l1.608 4.421zM30.316 29.684l1.608-4.421c-2.874 0.032-5.316 1.863-6.252 4.421h4.644z" fill="#000000" />
</svg>
