<?xml version="1.0" encoding="utf-8"?>
<!-- Generated by IcoMoon.io -->
<!DOCTYPE svg PUBLIC "-//W3C//DTD SVG 1.1//EN" "http://www.w3.org/Graphics/SVG/1.1/DTD/svg11.dtd">
<svg version="1.1" xmlns="http://www.w3.org/2000/svg" xmlns:xlink="http://www.w3.org/1999/xlink" width="64" height="64" viewBox="0 0 64 64">
	<path d="M16 40h2.667v4h26.667v-4h2.667v6.667h-32v-6.667zM28.042 35.984h-3.702v-9.209h-1.618v-2.707h1.618v-0.512c-0.004-0.811 0.113-1.596 0.35-2.354 0.237-0.758 0.616-1.392 1.136-1.9 0.485-0.438 1.019-0.75 1.604-0.936 0.585-0.186 1.162-0.276 1.732-0.271 0.813 0.020 1.477 0.103 1.991 0.249l-0.149 2.895c-0.32-0.117-0.726-0.18-1.22-0.189-0.618 0.017-1.068 0.246-1.35 0.687-0.282 0.441-0.421 0.994-0.417 1.657v0.674h2.439v2.707h-2.414v9.209zM33.424 21.804l3.702-1.020v3.285h2.713v2.707h-2.713v4.376c-0.008 0.727 0.101 1.264 0.327 1.61 0.226 0.347 0.614 0.519 1.167 0.516l0.625-0.022 0.495-0.077 0.025 2.745-1.005 0.218-1.434 0.092c-1.251-0.036-2.203-0.369-2.858-1.001-0.696-0.666-1.044-1.837-1.044-3.512v-4.945h-1.618v-2.707h1.618v-2.265z" fill="#000000" />
</svg>
