<?xml version="1.0" encoding="utf-8"?>
<!-- Generated by IcoMoon.io -->
<!DOCTYPE svg PUBLIC "-//W3C//DTD SVG 1.1//EN" "http://www.w3.org/Graphics/SVG/1.1/DTD/svg11.dtd">
<svg version="1.1" xmlns="http://www.w3.org/2000/svg" xmlns:xlink="http://www.w3.org/1999/xlink" width="64" height="64" viewBox="0 0 64 64">
	<path d="M48.333 41.333h-8.333l-4 12h-2l-2.333-31-2.667 19h-5l-4.667-3-3.333 3h-6.667v-2.333h6.667l3.333-3 4.667 3h2.601l4.066-29.333 2.333 0.333 3 36.333 3-7.333h9l5.333-4.333h2.667v2.333h-2.667l-5 4.333z" fill="#000000" />
</svg>
