<?xml version="1.0" encoding="utf-8"?>
<!-- Generated by IcoMoon.io -->
<!DOCTYPE svg PUBLIC "-//W3C//DTD SVG 1.1//EN" "http://www.w3.org/Graphics/SVG/1.1/DTD/svg11.dtd">
<svg version="1.1" xmlns="http://www.w3.org/2000/svg" xmlns:xlink="http://www.w3.org/1999/xlink" width="64" height="64" viewBox="0 0 64 64">
	<path d="M32 37.053l4.21-1.684v-4.632l-4.21 1.684-4.21-1.684v4.632l4.21 1.684z" fill="#000000" />
	<path d="M36.211 30.737v-1.263l-4.211-2.526-4.21 2.526v1.263l4.21 1.684 4.21-1.684z" fill="#000000" />
	<path d="M16 32l11.181-4.708c-1.187 1.215-1.918 2.876-1.918 4.708h-9.263z" fill="#000000" />
	<path d="M32 16v9.263c-1.832 0-3.493 0.731-4.708 1.918l4.708-11.181z" fill="#000000" />
	<path d="M32 16l4.708 11.181c-1.215-1.187-2.876-1.918-4.708-1.918v-9.263z" fill="#000000" />
	<path d="M16 32h9.263c0 1.832 0.731 3.493 1.918 4.708l-11.181-4.708z" fill="#000000" />
	<path d="M32 48l-4.708-11.181c1.215 1.187 2.876 1.918 4.708 1.918v9.263z" fill="#000000" />
	<path d="M32 48v-9.263c1.832 0 3.493-0.731 4.708-1.918l-4.708 11.181z" fill="#000000" />
	<path d="M48 32l-11.181 4.708c1.187-1.215 1.918-2.876 1.918-4.708h9.263z" fill="#000000" />
	<path d="M48 32h-9.263c0-1.832-0.731-3.493-1.918-4.708l11.181 4.708z" fill="#000000" />
</svg>
