<?xml version="1.0" encoding="utf-8"?>
<!-- Generated by IcoMoon.io -->
<!DOCTYPE svg PUBLIC "-//W3C//DTD SVG 1.1//EN" "http://www.w3.org/Graphics/SVG/1.1/DTD/svg11.dtd">
<svg version="1.1" xmlns="http://www.w3.org/2000/svg" xmlns:xlink="http://www.w3.org/1999/xlink" width="64" height="64" viewBox="0 0 64 64">
	<path d="M6.883 43.606l1.931-1.381 8.655 14.531 35.875-21.633 1.931 2.301-37.807 22.554-10.587-16.372zM7.612 35.727l1.471-0.921 8.655 14.991 35.875-21.173 1.471 2.762-37.346 22.093-10.126-17.753zM7.145 27.397l38.267-22.093 11.047 19.134-38.267 22.093-11.047-19.134zM32 17.271c-4.576 0-8.285 3.709-8.285 8.285s3.709 8.285 8.285 8.285c4.576 0 8.285-3.709 8.285-8.285 0-4.576-3.709-8.285-8.285-8.285zM35.811 30.788l-1.26 0.727-0.692-1.199-1.324 0.516-1.107 0.163-0.486-1.706 1.153-0.138 1.25-0.491c0.377-0.22 0.65-0.472 0.818-0.755s0.184-0.554 0.047-0.813c-0.14-0.241-0.384-0.378-0.73-0.412l-1.373 0.127c-0.809 0.169-1.521 0.186-2.136 0.051-0.616-0.134-1.107-0.508-1.473-1.12-0.333-0.583-0.43-1.182-0.292-1.799 0.138-0.616 0.521-1.195 1.148-1.737l-0.699-1.21 1.25-0.722 0.647 1.121 1.159-0.478 0.922-0.163 0.463 1.661-0.852 0.113-1.304 0.528c-0.403 0.243-0.644 0.486-0.725 0.729s-0.063 0.456 0.052 0.642c0.111 0.204 0.34 0.318 0.686 0.342l1.534-0.16c0.911-0.172 1.642-0.16 2.195 0.035 0.552 0.196 0.993 0.587 1.321 1.173 0.337 0.584 0.436 1.199 0.298 1.844-0.139 0.645-0.552 1.254-1.24 1.826l0.751 1.3z" fill="#000000" />
</svg>
