<?xml version="1.0" encoding="utf-8"?>
<!-- Generated by IcoMoon.io -->
<!DOCTYPE svg PUBLIC "-//W3C//DTD SVG 1.1//EN" "http://www.w3.org/Graphics/SVG/1.1/DTD/svg11.dtd">
<svg version="1.1" xmlns="http://www.w3.org/2000/svg" xmlns:xlink="http://www.w3.org/1999/xlink" width="64" height="64" viewBox="0 0 64 64">
	<path d="M6.598 10.832h50.804c1.559 0 2.822 1.264 2.822 2.822v31.047c0 1.559-1.264 2.822-2.822 2.822h-21.168v5.645h5.645c1.559 0 2.822 1.264 2.822 2.822v2.822h-25.402v-2.822c0-1.559 1.264-2.822 2.822-2.822h5.645v-5.645h-21.168c-1.559 0-2.822-1.264-2.822-2.822v-31.047c0-1.559 1.264-2.822 2.822-2.822zM8.009 15.066v28.224h47.981v-28.224h-47.981zM22.121 32v-5.645h19.757v5.645h-19.757z" fill="#000000" />
</svg>
