<?xml version="1.0" encoding="utf-8"?>
<!-- Generated by IcoMoon.io -->
<!DOCTYPE svg PUBLIC "-//W3C//DTD SVG 1.1//EN" "http://www.w3.org/Graphics/SVG/1.1/DTD/svg11.dtd">
<svg version="1.1" xmlns="http://www.w3.org/2000/svg" xmlns:xlink="http://www.w3.org/1999/xlink" width="64" height="64" viewBox="0 0 64 64">
	<path d="M13.333 32c0 9.787 7.532 17.815 17.116 18.603 6.496-3.657 10.884-10.618 10.884-18.603 0-7.986-4.388-14.946-10.884-18.603-9.584 0.788-17.116 8.816-17.116 18.603z" fill="#000000" />
</svg>
