<?xml version="1.0" encoding="utf-8"?>
<!-- Generated by IcoMoon.io -->
<!DOCTYPE svg PUBLIC "-//W3C//DTD SVG 1.1//EN" "http://www.w3.org/Graphics/SVG/1.1/DTD/svg11.dtd">
<svg version="1.1" xmlns="http://www.w3.org/2000/svg" xmlns:xlink="http://www.w3.org/1999/xlink" width="64" height="64" viewBox="0 0 64 64">
	<path d="M32 4.506c15.185 0 27.494 12.309 27.494 27.494s-12.309 27.494-27.494 27.494c-15.185 0-27.494-12.309-27.494-27.494 0-15.185 12.309-27.494 27.494-27.494zM32 7.452c-13.558 0-24.548 10.991-24.548 24.548 0 13.558 10.991 24.548 24.548 24.548 13.558 0 24.548-10.991 24.548-24.548 0-13.558-10.991-24.548-24.548-24.548z" fill="#000000" />
</svg>
