<?xml version="1.0" encoding="utf-8"?>
<!-- Generated by IcoMoon.io -->
<!DOCTYPE svg PUBLIC "-//W3C//DTD SVG 1.1//EN" "http://www.w3.org/Graphics/SVG/1.1/DTD/svg11.dtd">
<svg version="1.1" xmlns="http://www.w3.org/2000/svg" xmlns:xlink="http://www.w3.org/1999/xlink" width="64" height="64" viewBox="0 0 64 64">
	<path d="M42.482 14.974c1.435-0.331 2.867 0.563 3.198 1.999l1.5 6.496-31.181 7.199-1.5-6.496c-0.331-1.435 0.563-2.867 1.998-3.198l25.984-5.999zM45.334 48h-26.667c-1.473 0-2.667-1.194-2.667-2.667v-14.667h32v14.667c0 1.473-1.194 2.667-2.667 2.667z" fill="#000000" />
</svg>
