<?xml version="1.0" encoding="utf-8"?>
<!-- Generated by IcoMoon.io -->
<!DOCTYPE svg PUBLIC "-//W3C//DTD SVG 1.1//EN" "http://www.w3.org/Graphics/SVG/1.1/DTD/svg11.dtd">
<svg version="1.1" xmlns="http://www.w3.org/2000/svg" xmlns:xlink="http://www.w3.org/1999/xlink" width="64" height="64" viewBox="0 0 64 64">
	<path d="M17.289 42.316h-4.231v-13.618h4.231v13.618zM15.33 22.44c0.693 0.013 1.235 0.216 1.627 0.609 0.392 0.393 0.597 0.895 0.617 1.507-0.006 0.6-0.211 1.098-0.613 1.496-0.403 0.398-0.965 0.604-1.686 0.619-0.681-0.015-1.219-0.222-1.613-0.619-0.394-0.398-0.595-0.896-0.603-1.496 0.009-0.612 0.216-1.114 0.621-1.507 0.405-0.393 0.955-0.596 1.651-0.609zM28.365 23.009c2.913 0.071 4.8 1.013 6.329 2.828 1.529 1.814 2.299 4.076 2.31 6.784-0.040 3.156-0.893 5.602-2.559 7.338-1.666 1.736-3.573 2.617-6.388 2.641-2.811-0.063-4.656-0.993-6.203-2.793-1.546-1.799-2.33-4.091-2.352-6.876 0.036-2.907 0.875-5.273 2.517-7.098 1.642-1.825 3.535-2.767 6.346-2.824zM28.281 26.387c-1.467 0.038-2.264 0.653-3.058 1.844-0.794 1.191-1.196 2.73-1.205 4.616 0.013 1.907 0.422 3.439 1.226 4.595 0.805 1.156 1.595 1.75 3.037 1.781 1.452-0.038 2.237-0.653 3.020-1.844 0.783-1.191 1.179-2.73 1.188-4.616-0.005-1.771-0.394-3.264-1.167-4.478-0.773-1.214-1.564-1.846-3.041-1.897zM38.372 40.361l2.918-2.767c0 0 1.7 1.359 2.646 1.371 1.048-0.008 1.842-0.197 2.383-0.565 0.54-0.369 0.812-0.868 0.814-1.498 0.011-0.581-0.249-1.073-0.78-1.477-0.531-0.404-1.396-0.797-2.596-1.18-1.587-0.557-2.839-1.294-3.755-2.212-0.916-0.917-1.383-2.064-1.402-3.441 0.015-1.638 0.647-2.97 1.895-3.996 1.248-1.026 3.023-1.555 5.324-1.587 1.101 0.008 2.043 0.428 2.825 0.593 0.782 0.166 1.983 1.593 1.983 1.593l-2.454 2.172c0 0-1.466-0.966-2.414-0.981-0.985 0.017-1.719 0.203-2.204 0.558-0.484 0.356-0.726 0.782-0.725 1.279-0.009 0.585 0.285 1.068 0.881 1.448 0.596 0.38 1.547 0.793 2.853 1.237 1.642 0.613 2.854 1.38 3.636 2.3 0.781 0.92 1.169 2.047 1.163 3.381 0.014 1.654-0.601 3.053-1.843 4.196-1.242 1.143-3.193 1.739-5.854 1.787-1.106-0.013-2.13-0.472-3.071-0.712-0.941-0.24-2.225-1.5-2.225-1.5z" fill="#000000" />
</svg>
