<?xml version="1.0" encoding="utf-8"?>
<!-- Generated by IcoMoon.io -->
<!DOCTYPE svg PUBLIC "-//W3C//DTD SVG 1.1//EN" "http://www.w3.org/Graphics/SVG/1.1/DTD/svg11.dtd">
<svg version="1.1" xmlns="http://www.w3.org/2000/svg" xmlns:xlink="http://www.w3.org/1999/xlink" width="64" height="64" viewBox="0 0 64 64">
	<path d="M43.789 28.632h-10.947v-10.947h-12.632v28.632h23.579v-17.684zM47.158 49.684h-30.316v-35.368h19.579l10.737 10.737v24.632zM36.211 18.737v6.526h6.526l-6.526-6.526zM26.105 44.632v-6.737h2.526c1.395 0 2.526 0.71 2.526 2.105 0 1.395-1.131 2.105-2.526 2.105h-0.842v2.526h-1.684zM28.632 40.421c0.465 0 0.842 0.044 0.842-0.421s-0.377-0.421-0.842-0.421h-0.842v0.842h0.842zM37.895 44.632v-6.737h4.21v1.684h-2.526v0.842h1.684v1.684h-1.684v2.526h-1.684zM32 37.895h2.526c1.395 0 2.526 1.131 2.526 2.526v1.684c0 1.395-1.131 2.526-2.526 2.526h-2.526v-6.737zM35.368 42.105v-1.684c0-0.465-0.377-0.842-0.842-0.842h-0.842v3.368h0.842c0.465 0 0.842-0.377 0.842-0.842z" fill="#000000" />
</svg>
