<?xml version="1.0" encoding="utf-8"?>
<!-- Generated by IcoMoon.io -->
<!DOCTYPE svg PUBLIC "-//W3C//DTD SVG 1.1//EN" "http://www.w3.org/Graphics/SVG/1.1/DTD/svg11.dtd">
<svg version="1.1" xmlns="http://www.w3.org/2000/svg" xmlns:xlink="http://www.w3.org/1999/xlink" width="64" height="64" viewBox="0 0 64 64">
	<path d="M34.646 47.876h16.538l-6.615-6.615h6.615l9.261 9.261-9.261 9.261h-6.615l6.615-6.615h-16.538v-5.292zM13.478 6.863h21.168v15.876h15.876v17.199h-8.6l6.615 6.615h-15.215v7.938h15.215l-2.646 2.646h-32.414v-50.275zM35.969 21.416v-14.553l14.553 14.553h-14.553z" fill="#000000" />
</svg>
