<?xml version="1.0" encoding="utf-8"?>
<!-- Generated by IcoMoon.io -->
<!DOCTYPE svg PUBLIC "-//W3C//DTD SVG 1.1//EN" "http://www.w3.org/Graphics/SVG/1.1/DTD/svg11.dtd">
<svg version="1.1" xmlns="http://www.w3.org/2000/svg" xmlns:xlink="http://www.w3.org/1999/xlink" width="64" height="64" viewBox="0 0 64 64">
	<path d="M47.755 31.978l6.123 3.572-7.53 8.966v0.14l11.259-2.241v7.074l-11.329-1.891v0.14l7.6 8.685-6.193 3.572-4.082-10.787h-0.141l-4.011 10.787-6.052-3.572 7.53-8.755-0.070-0.14-11.049 1.961v-7.074l10.978 2.241v-0.14l-7.389-8.895 6.263-3.642 3.871 10.857h0.141l4.082-10.857zM11.069 7.581h27.035l14.826 14.826v10.756l-4.651-2.616v-3.198h-15.117v-15.117h-17.442v39.536h19.768l-4.070 4.651h-20.349v-48.838zM37.814 13.686v9.012h9.012l-9.012-9.012z" fill="#000000" />
</svg>
