<?xml version="1.0" encoding="utf-8"?>
<!-- Generated by IcoMoon.io -->
<!DOCTYPE svg PUBLIC "-//W3C//DTD SVG 1.1//EN" "http://www.w3.org/Graphics/SVG/1.1/DTD/svg11.dtd">
<svg version="1.1" xmlns="http://www.w3.org/2000/svg" xmlns:xlink="http://www.w3.org/1999/xlink" width="64" height="64" viewBox="0 0 64 64">
	<path d="M9.509 5.539h44.983v52.921h-44.983v-52.921zM13.478 9.509v7.938h7.938v-7.938h-7.938zM13.478 22.739h7.938v-3.969h-7.938v3.969zM13.478 54.491h7.938v-3.969h-7.938v3.969zM21.416 45.23h-7.938v3.969h7.938v-3.969zM21.416 39.938h-7.938v3.969h7.938v-3.969zM21.416 34.646h-7.938v3.969h7.938v-3.969zM21.416 29.354h-7.938v3.969h7.938v-3.969zM21.416 24.062h-7.938v3.969h7.938v-3.969zM50.522 54.491v-3.969h-27.783v3.969h27.783zM50.522 45.23h-27.783v3.969h27.783v-3.969zM50.522 39.938h-27.783v3.969h27.783v-3.969zM50.522 34.646h-27.783v3.969h27.783v-3.969zM50.522 29.354h-27.783v3.969h27.783v-3.969zM50.522 24.062h-27.783v3.969h27.783v-3.969zM50.522 9.509h-27.783v7.938h27.783v-7.938zM22.739 22.739h27.783v-3.969h-27.783v3.969z" fill="#000000" />
</svg>
