<?xml version="1.0" encoding="utf-8"?>
<!-- Generated by IcoMoon.io -->
<!DOCTYPE svg PUBLIC "-//W3C//DTD SVG 1.1//EN" "http://www.w3.org/Graphics/SVG/1.1/DTD/svg11.dtd">
<svg version="1.1" xmlns="http://www.w3.org/2000/svg" xmlns:xlink="http://www.w3.org/1999/xlink" width="64" height="64" viewBox="0 0 64 64">
	<path d="M9.346 23.909h6.473v11.732l4.855-4.855v6.473l-8.091 8.495-8.091-8.495v-6.473l4.855 4.855v-11.732zM32 59.509l-3.010-0.163 1.392-20.873c-1.079 0.539-3.236 4.854-3.236 4.854s-1.079 1.618-1.618 8.091l-4.855-1.618 1.618-8.091c0 0 3.236-11.327 9.709-11.327h12.945c6.473 0 9.709 11.327 9.709 11.327l0.819 4.642c-1.17 1.909-2.566 3.664-4.151 5.229-0.561-5.729-1.523-8.253-1.523-8.253 0 0-2.158-4.315-3.236-4.855l0.919 16.269c-4.41 3.008-9.741 4.767-15.482 4.767zM38.473 10.964c4.468 0 8.091 3.622 8.091 8.091s-3.622 8.091-8.091 8.091c-4.468 0-8.091-3.622-8.091-8.091 0-4.468 3.622-8.091 8.091-8.091z" fill="#000000" />
</svg>
