<?xml version="1.0" encoding="utf-8"?>
<!-- Generated by IcoMoon.io -->
<!DOCTYPE svg PUBLIC "-//W3C//DTD SVG 1.1//EN" "http://www.w3.org/Graphics/SVG/1.1/DTD/svg11.dtd">
<svg version="1.1" xmlns="http://www.w3.org/2000/svg" xmlns:xlink="http://www.w3.org/1999/xlink" width="64" height="64" viewBox="0 0 64 64">
	<path d="M53.602 39.855l6.874 8.837-6.874 8.837h-7.856l5.073-5.892h-9.001v-5.892h9.001l-5.073-5.892h7.856zM26.108 4.506c5.423 0 9.819 4.396 9.819 9.819s-4.396 9.819-9.819 9.819c-5.423 0-9.819-4.396-9.819-9.819 0-5.423 4.396-9.819 9.819-9.819zM16.289 37.892c-1.309 0.655-3.928 5.891-3.928 5.891s-1.309 1.964-1.964 9.819l-5.892-1.964 1.964-9.819c0 0 3.928-13.747 11.783-13.747h15.711c5.083 0 8.522 5.756 10.316 9.819h-2.46l3.928 5.892h-5.891c0 0-2.619-5.237-3.928-5.892l0.794 17.835c-2.985 1.164-6.233 1.803-9.631 1.803-4.141 0-8.061-0.949-11.553-2.643l0.752-16.996z" fill="#000000" />
</svg>
