<?xml version="1.0" encoding="utf-8"?>
<!-- Generated by IcoMoon.io -->
<!DOCTYPE svg PUBLIC "-//W3C//DTD SVG 1.1//EN" "http://www.w3.org/Graphics/SVG/1.1/DTD/svg11.dtd">
<svg version="1.1" xmlns="http://www.w3.org/2000/svg" xmlns:xlink="http://www.w3.org/1999/xlink" width="64" height="64" viewBox="0 0 64 64">
	<path d="M6.652 33.84l-0.911-0.2-0.707-0.556-0.473-0.828-0.178-0.994v-2.859c0-2.002 0.41-3.837 1.229-5.506s1.934-3.13 3.343-4.383c1.409-1.253 3.056-2.278 4.939-3.074 1.883-0.797 3.889-1.313 6.016-1.551l4.303-0.401 4.288-0.295 4.788-0.129 4.485 0.151 3.645 0.295 3.328 0.454c2.052 0.282 3.983 0.826 5.793 1.63 1.81 0.804 3.386 1.828 4.727 3.071 1.341 1.243 2.401 2.692 3.18 4.349 0.779 1.656 1.169 3.475 1.169 5.457v2.889l-0.189 0.953-0.522 0.794-0.768 0.533-0.934 0.2h-9.053l-0.919-0.2-0.745-0.545-0.495-0.794-0.178-0.972v-6.164l-0.2-1.112-0.556-0.911-0.84-0.624c-0.323-0.156-0.673-0.234-1.051-0.234h-21.933c-0.378 0-0.749 0.078-1.112 0.234l-0.945 0.624-0.65 0.934c-0.166 0.363-0.25 0.741-0.25 1.134v6.050l-0.189 0.994-0.529 0.828-0.779 0.556-0.938 0.2h-9.189zM28.318 35.682h7.364v13.348l5.523-5.523v7.365l-9.206 9.666-9.206-9.666v-7.365l5.523 5.523v-13.348z" fill="#000000" />
</svg>
