<?xml version="1.0" encoding="utf-8"?>
<!-- Generated by IcoMoon.io -->
<!DOCTYPE svg PUBLIC "-//W3C//DTD SVG 1.1//EN" "http://www.w3.org/Graphics/SVG/1.1/DTD/svg11.dtd">
<svg version="1.1" xmlns="http://www.w3.org/2000/svg" xmlns:xlink="http://www.w3.org/1999/xlink" width="64" height="64" viewBox="0 0 64 64">
	<path d="M49.097 53.476c0.152 0.357 0.227 0.72 0.227 1.088 0 0.509-0.135 0.984-0.406 1.425-0.271 0.441-0.649 0.778-1.136 1.011l-2.289 1.072c-0.893 0.406-1.787 0.701-2.683 0.885s-1.801 0.276-2.716 0.276c-1.472 0-2.927-0.245-4.364-0.735-1.437-0.49-2.812-1.191-4.124-2.102-1.312-0.912-2.544-2.015-3.694-3.308-1.15-1.294-2.18-2.736-3.089-4.327-0.579-0.882-1.188-1.889-1.827-3.020-0.541-0.963-1.159-2.117-1.855-3.462-0.695-1.345-1.398-2.837-2.107-4.477-0.725-1.64-1.3-3.073-1.725-4.298-0.425-1.226-0.754-2.245-0.986-3.056-0.271-0.947-0.457-1.759-0.56-2.436-0.373-1.256-0.648-2.504-0.824-3.746-0.176-1.242-0.264-2.472-0.264-3.69 0-1.591 0.16-3.123 0.479-4.595 0.319-1.472 0.809-2.841 1.469-4.108 0.66-1.266 1.498-2.399 2.513-3.397 1.015-0.999 2.215-1.812 3.6-2.439l2.257-1.039c0.357-0.152 0.714-0.227 1.072-0.227 0.503 0 0.971 0.139 1.404 0.418 0.433 0.279 0.758 0.664 0.974 1.157l4.343 9.863c0.152 0.357 0.227 0.714 0.227 1.072 0 0.525-0.135 1.011-0.406 1.457-0.271 0.446-0.652 0.781-1.145 1.003l-4.465 2.053c-0.59 0.271-1.042 0.668-1.356 1.193-0.314 0.525-0.471 1.090-0.471 1.697 0 0.46 0.087 0.893 0.26 1.299l7.331 16.74c0.287 0.644 0.683 1.118 1.189 1.421s1.057 0.455 1.652 0.455c0.406 0 0.82-0.092 1.242-0.276l4.465-2.054c0.352-0.152 0.706-0.227 1.064-0.227 0.492 0 0.958 0.139 1.396 0.418 0.438 0.279 0.768 0.662 0.99 1.149l4.335 9.872z" fill="#000000" />
</svg>
