<?xml version="1.0" encoding="utf-8"?>
<!-- Generated by IcoMoon.io -->
<!DOCTYPE svg PUBLIC "-//W3C//DTD SVG 1.1//EN" "http://www.w3.org/Graphics/SVG/1.1/DTD/svg11.dtd">
<svg version="1.1" xmlns="http://www.w3.org/2000/svg" xmlns:xlink="http://www.w3.org/1999/xlink" width="64" height="64" viewBox="0 0 64 64">
	<path d="M41.263 28.21c-2.093 0-3.789 1.697-3.789 3.79s1.697 3.789 3.789 3.789c2.093 0 3.789-1.697 3.789-3.79 0-2.093-1.697-3.79-3.789-3.79zM41.263 25.263c3.721 0 6.737 3.016 6.737 6.737s-3.016 6.737-6.737 6.737c-3.721 0-6.737-3.016-6.737-6.737 0-1.227 0.328-2.378 0.901-3.368h-6.855c0.573 0.991 0.901 2.141 0.901 3.368 0 3.721-3.016 6.737-6.737 6.737-3.721 0-6.737-3.016-6.737-6.737 0-3.721 3.016-6.737 6.737-6.737h18.526zM22.737 28.21c-2.093 0-3.79 1.697-3.79 3.79s1.697 3.789 3.79 3.789c2.093 0 3.79-1.697 3.79-3.79 0-2.093-1.697-3.79-3.79-3.79z" fill="#000000" />
</svg>
