<?xml version="1.0" encoding="utf-8"?>
<!-- Generated by IcoMoon.io -->
<!DOCTYPE svg PUBLIC "-//W3C//DTD SVG 1.1//EN" "http://www.w3.org/Graphics/SVG/1.1/DTD/svg11.dtd">
<svg version="1.1" xmlns="http://www.w3.org/2000/svg" xmlns:xlink="http://www.w3.org/1999/xlink" width="64" height="64" viewBox="0 0 64 64">
	<path d="M32 16c0 0 2.526 1.684 1.684 2.526 0 0 1.684-2.526 0.632 1.895 0 0 1.895-2.737 0.632 1.263 0 0 2.105-3.158 0.632 1.263 0 0 1.474-1.895 0.632 1.474 0 0 1.684-0.842 0 2.526 0 0 1.684-0.842 0 2.526 0 0 1.684 0-0.842 3.368 0 0 1.684-1.684 1.684 0 0 0 1.684-4.21 1.684-1.684 0 0 1.684-5.053 1.684-1.684 0 0 2.526-4.21 1.684-0.842 0 0 1.684-4.21 1.684-1.684 0 0 3.368-3.368 1.684 0 0 0 1.474-1.474 2.316-1.474 0.842 0 0.211 1.474-1.474 2.316 0 0 3.368-0.842 0 1.684 0 0 1.684 0-0.842 1.684 0 0 1.684 0.842-1.684 1.684 0 0 3.368 0.842-0.842 1.684 0 0 1.684 0.842-0.842 1.684 0 0 1.684 0.842-1.684 1.684 0 0 2.526 0-0.842 0.842 0 0 4.211 0 1.684 0.842 0 0 5.053 0 1.684 0.842 0 0 5.053 0 1.684 0.842 0.561 0 4.21 0 0 0.842 0 0 1.684 0.842-2.526 0.842 0 0 3.368 1.684-1.684 0 0 0 3.368 2.526-1.684 0 0 0 3.368 2.316-1.684 0.632 0 0 1.684 1.053-1.684 0.211 0 0 2.526 0.842 3.579 2.947-2.526 0.842-5.263-2.105-6.105-2.947v4.211h-1.684v-4.21c-0.842 0.842-3.579 3.789-6.105 2.947 1.053-2.105 3.579-2.947 3.579-2.947-3.368 0.842-1.684-0.211-1.684-0.211-5.053 1.684-1.684-0.632-1.684-0.632-5.053 2.526-1.684 0-1.684 0-5.053 1.684-1.684 0-1.684 0-4.21 0-2.526-0.842-2.526-0.842-0.842 0-0.842 0-1.895-0.421 1.053-0.421 1.333-0.421 1.895-0.421-3.368-0.842 1.684-0.842 1.684-0.842-4.21-0.842 1.684-0.842 1.684-0.842-2.526-0.842 3.368-0.842 3.368-0.842-5.895 0-2.526-0.842-2.526-0.842-3.368-0.842-1.684-1.684-1.684-1.684-2.526-0.842-1.263-1.684-1.263-1.684-4.21-0.842-0.842-1.684-0.842-1.684-3.368-0.842-1.684-1.684-1.684-1.684-2.526-1.684-0.421-1.684-0.421-1.684-2.526-1.684-0.21-1.263-0.21-1.263-1.684-0.842-2.316-2.105-1.474-2.105 0.842 0 2.526 1.263 2.526 1.263-1.684-2.947 1.684 0.421 1.684 0.421-0.842-3.368 1.684 0.842 1.684 0.842-0.842-3.368 1.684 0.842 1.684 0.842 0-3.368 1.684 1.684 1.684 1.684 0-2.526 1.684 1.684 1.684 1.684 0-1.684 1.684 0 1.684 0-2.526-3.368-0.842-3.368-0.842-3.368-1.684-3.368 0-2.526 0-2.526-1.684-3.368 0-2.526 0-2.526-0.842-3.368 0.842-1.684 0.842-1.684-0.842-2.526 0-1.684 0-1.684 0-3.368 0.842-0.842 0.842-0.842-0.842-3.368 0.842-1.684 0.842-1.684-0.842-0.842 1.684-2.526 1.684-2.526z" fill="#000000" />
</svg>
