<?xml version="1.0" encoding="utf-8"?>
<!-- Generated by IcoMoon.io -->
<!DOCTYPE svg PUBLIC "-//W3C//DTD SVG 1.1//EN" "http://www.w3.org/Graphics/SVG/1.1/DTD/svg11.dtd">
<svg version="1.1" xmlns="http://www.w3.org/2000/svg" xmlns:xlink="http://www.w3.org/1999/xlink" width="64" height="64" viewBox="0 0 64 64">
	<path d="M18.541 18.579l0.053 0.053c0 0 0.431-1.832 9.178 6.069l5.313-1.006-0.349-0.349c-0.521-0.521-0.521-1.365 0-1.886s1.365-0.521 1.886 0l1.685 1.685 2.451-0.377-0.129-0.129c-0.521-0.521-0.521-1.365 0-1.886s1.365-0.521 1.886 0l1.58 1.58c2.751-0.309 5.127-0.428 6.433-0.166 0 0 1.65 1.65 0.707 2.593 0 0-10.86 3.194-15.753 5.376 8.559 8.418 7.975 9.002 7.975 9.002 0 0 5.421-1.65 7.307 0.236l-6.128 3.3-0.053-0.053-3.3 6.128c-1.886-1.886-0.236-7.307-0.236-7.307s-0.584 0.584-9.002-7.975c-2.181 4.893-5.376 15.753-5.376 15.753-0.943 0.943-2.593-0.707-2.593-0.707-0.261-1.307-0.142-3.682 0.166-6.433l-1.58-1.58c-0.521-0.521-0.521-1.365 0-1.886s1.365-0.521 1.886 0l0.129 0.129 0.377-2.451-1.685-1.685c-0.521-0.521-0.521-1.365 0-1.886s1.365-0.521 1.886 0l0.349 0.349 1.006-5.313c-7.901-8.747-6.069-9.178-6.069-9.178z" fill="#000000" />
</svg>
