<?xml version="1.0" encoding="utf-8"?>
<!-- Generated by IcoMoon.io -->
<!DOCTYPE svg PUBLIC "-//W3C//DTD SVG 1.1//EN" "http://www.w3.org/Graphics/SVG/1.1/DTD/svg11.dtd">
<svg version="1.1" xmlns="http://www.w3.org/2000/svg" xmlns:xlink="http://www.w3.org/1999/xlink" width="64" height="64" viewBox="0 0 64 64">
	<path d="M26.953 2.673c12.569 4.189-2.095 6.284 5.237 12.569h14.663v14.663c6.284 7.332 8.379-7.332 12.569 5.237-4.19 12.569-6.284-2.095-12.569 5.237v16.758h-14.663c-7.332-6.284 7.332-8.379-5.237-12.569-12.569 4.19 2.095 6.284-5.237 12.569h-16.758v-16.758c6.284-7.332 8.379 7.332 12.569-5.237-4.189-12.569-6.284 2.095-12.569-5.237v-14.664h16.758c7.332-6.284-7.332-8.379 5.237-12.569z" fill="#000000" />
</svg>
