<?xml version="1.0" encoding="utf-8"?>
<!-- Generated by IcoMoon.io -->
<!DOCTYPE svg PUBLIC "-//W3C//DTD SVG 1.1//EN" "http://www.w3.org/Graphics/SVG/1.1/DTD/svg11.dtd">
<svg version="1.1" xmlns="http://www.w3.org/2000/svg" xmlns:xlink="http://www.w3.org/1999/xlink" width="64" height="64" viewBox="0 0 64 64">
	<path d="M34.284 13.147h14.663v14.663h8.379v12.569h-8.379v16.758h-14.663v-8.379h-12.569v8.379h-16.758v-16.758h8.379v-12.569h-8.379v-14.663h16.758v-8.379h12.569v8.379z" fill="#000000" />
</svg>
