<?xml version="1.0" encoding="utf-8"?>
<!-- Generated by IcoMoon.io -->
<!DOCTYPE svg PUBLIC "-//W3C//DTD SVG 1.1//EN" "http://www.w3.org/Graphics/SVG/1.1/DTD/svg11.dtd">
<svg version="1.1" xmlns="http://www.w3.org/2000/svg" xmlns:xlink="http://www.w3.org/1999/xlink" width="64" height="64" viewBox="0 0 64 64">
	<path d="M32 27.531c2.468 0 4.469 2.001 4.469 4.469s-2.001 4.469-4.469 4.469c-2.468 0-4.469-2.001-4.469-4.469 0-2.468 2.001-4.469 4.469-4.469zM58.813 32h-17.875c0-3.415-1.916-6.383-4.731-7.888l8.414-15.776c8.446 4.514 14.193 13.418 14.193 23.663zM23.062 32h-17.875c0-10.246 5.747-19.15 14.193-23.663l8.414 15.776c-2.815 1.505-4.731 4.473-4.731 7.888zM32 58.813c-4.563 0-8.859-1.14-12.62-3.15l8.414-15.776c1.254 0.67 2.686 1.050 4.207 1.050s2.953-0.38 4.207-1.050l8.414 15.776c-3.761 2.010-8.058 3.15-12.62 3.15z" fill="#000000" />
</svg>
