<?xml version="1.0" encoding="utf-8"?>
<!-- Generated by IcoMoon.io -->
<!DOCTYPE svg PUBLIC "-//W3C//DTD SVG 1.1//EN" "http://www.w3.org/Graphics/SVG/1.1/DTD/svg11.dtd">
<svg version="1.1" xmlns="http://www.w3.org/2000/svg" xmlns:xlink="http://www.w3.org/1999/xlink" width="64" height="64" viewBox="0 0 64 64">
	<path d="M60.923 25.492v-9.4l-13.016-11.569-13.016 12.293v8.677l8.677-7.651v17.774c0 8.386-6.798 15.185-15.185 15.185s-15.185-6.798-15.185-15.185c0-8.144 6.411-14.79 14.462-15.168v-8.683c-12.844 0.382-23.139 10.914-23.139 23.851 0 13.178 10.683 23.862 23.862 23.862 13.178 0 23.862-10.683 23.862-23.862v-17.896l8.677 7.773z" fill="#000000" />
</svg>
