<?xml version="1.0" encoding="utf-8"?>
<!-- Generated by IcoMoon.io -->
<!DOCTYPE svg PUBLIC "-//W3C//DTD SVG 1.1//EN" "http://www.w3.org/Graphics/SVG/1.1/DTD/svg11.dtd">
<svg version="1.1" xmlns="http://www.w3.org/2000/svg" xmlns:xlink="http://www.w3.org/1999/xlink" width="64" height="64" viewBox="0 0 64 64">
	<path d="M40.818 32h-7.585l-9.102-9.102 9.102-9.102h7.585l-6.068 6.068h9.861c7.122 0 12.895 5.773 12.895 12.895s-5.773 12.895-12.895 12.895v-6.068c3.77 0 6.827-3.056 6.827-6.827 0-3.77-3.056-6.827-6.827-6.827h-9.861l6.068 6.068zM4.409 41.102h24.273v-9.102l4.551 4.551v9.102h-27.307l-1.517-4.551zM22.613 19.864h-16.687l1.517-4.551h19.722l-4.551 4.551zM24.889 28.207l-10.619 8.344-11.378-9.102 1.896-4.551 9.482 7.585 7.206-5.689 3.413 3.413z" fill="#000000" />
</svg>
