<?xml version="1.0" encoding="utf-8"?>
<!-- Generated by IcoMoon.io -->
<!DOCTYPE svg PUBLIC "-//W3C//DTD SVG 1.1//EN" "http://www.w3.org/Graphics/SVG/1.1/DTD/svg11.dtd">
<svg version="1.1" xmlns="http://www.w3.org/2000/svg" xmlns:xlink="http://www.w3.org/1999/xlink" width="64" height="64" viewBox="0 0 64 64">
	<path d="M40.818 32h-7.585l-9.102-9.102 9.102-9.102h7.585l-6.068 6.068h9.861c7.122 0 12.895 5.773 12.895 12.895s-5.773 12.895-12.895 12.895v-6.068c3.77 0 6.827-3.056 6.827-6.827 0-3.77-3.056-6.827-6.827-6.827h-9.861l6.068 6.068zM4.409 22.898l3.034-7.585h19.722l-7.585 7.585h-15.17zM8.96 25.932h3.034v3.034h-3.034v-3.034zM13.511 25.932h3.034v3.034h-3.034v-3.034zM18.062 25.932h3.034v3.034h-3.034v-3.034zM22.613 28.966v-3.034l3.034 3.034h-3.034zM21.096 42.619h-3.034v-3.034h3.034v3.034zM16.545 42.619h-3.034v-3.034h3.034v3.034zM11.994 42.619h-3.034v-3.034h3.034v3.034zM11.994 38.068h-3.034v-3.034h3.034v3.034zM7.443 33.517h-3.034v-3.034h3.034v3.034zM11.994 33.517h-3.034v-3.034h3.034v3.034zM13.511 30.483h3.034v3.034h-3.034v-3.034zM18.062 30.483h3.034v3.034h-3.034v-3.034zM22.613 30.483h3.034v3.034h-3.034v-3.034zM22.613 35.034h3.034v3.034h-3.034v-3.034zM18.062 35.034h3.034v3.034h-3.034v-3.034zM13.511 35.034h3.034v3.034h-3.034v-3.034zM30.199 47.17h-22.756v-1.517h21.238v-13.653l1.517 1.517v13.653z" fill="#000000" />
</svg>
