<?xml version="1.0" encoding="utf-8"?>
<!-- Generated by IcoMoon.io -->
<!DOCTYPE svg PUBLIC "-//W3C//DTD SVG 1.1//EN" "http://www.w3.org/Graphics/SVG/1.1/DTD/svg11.dtd">
<svg version="1.1" xmlns="http://www.w3.org/2000/svg" xmlns:xlink="http://www.w3.org/1999/xlink" width="64" height="64" viewBox="0 0 64 64">
	<path d="M18.526 14.316h26.947c2.209 0 4.21 2.001 4.21 4.21v26.947c0 2.209-2.001 4.21-4.21 4.21h-26.947c-2.209 0-4.21-2.001-4.21-4.21v-26.947c0-2.209 2.001-4.21 4.21-4.21zM41.556 40.222c-0.222 0.222-0.222 0.667-0.222 1.111v4c0 0.444 0 0.889 0.222 1.111s0.667 0.222 1.111 0.222h1.333c0.444 0 0.889 0 1.111-0.222 0.222-0.222 0.222-0.667 0.222-1.111v-4c0-0.444 0-0.889-0.222-1.111-0.222-0.222-0.667-0.222-1.111-0.222h-1.333c-0.444 0-0.889 0-1.111 0.222zM42.667 41.333h1.333v1.333h-1.333v-1.333zM42.667 45.333v-1.333h1.333v1.333h-1.333zM25.913 41.333h2.736l3.351-6.673 3.348 6.673h2.739l-4.717-9.399 4.274-8.521h-2.739l-2.905 5.791-2.908-5.791h-2.736l4.274 8.521-4.717 9.399z" fill="#000000" />
</svg>
