<?xml version="1.0" encoding="utf-8"?>
<!-- Generated by IcoMoon.io -->
<!DOCTYPE svg PUBLIC "-//W3C//DTD SVG 1.1//EN" "http://www.w3.org/Graphics/SVG/1.1/DTD/svg11.dtd">
<svg version="1.1" xmlns="http://www.w3.org/2000/svg" xmlns:xlink="http://www.w3.org/1999/xlink" width="64" height="64" viewBox="0 0 64 64">
	<path d="M18.526 14.316h26.947c2.209 0 4.21 2.001 4.21 4.21v26.947c0 2.209-2.001 4.21-4.21 4.21h-26.947c-2.209 0-4.21-2.001-4.21-4.21v-26.947c0-2.209 2.001-4.21 4.21-4.21zM26.8 41.333h10.624v-2.987h-7.881l7.66-12.164v-2.769h-9.517v2.987h6.481l-7.366 11.702v3.232zM44 40c-0.736 0-1.333 0.597-1.333 1.333v4c0 0.736 0.597 1.333 1.333 1.333h1.333c0.736 0 1.333-0.597 1.333-1.333v-4c0-0.736-0.597-1.333-1.333-1.333h-1.333zM44 41.333h1.333v4h-1.333v-4zM40.667 40c-0.368 0-0.667 0.298-0.667 0.667v6h1.333v-6c0-0.368-0.298-0.667-0.667-0.667z" fill="#000000" />
</svg>
