<?xml version="1.0" encoding="utf-8"?>
<!-- Generated by IcoMoon.io -->
<!DOCTYPE svg PUBLIC "-//W3C//DTD SVG 1.1//EN" "http://www.w3.org/Graphics/SVG/1.1/DTD/svg11.dtd">
<svg version="1.1" xmlns="http://www.w3.org/2000/svg" xmlns:xlink="http://www.w3.org/1999/xlink" width="64" height="64" viewBox="0 0 64 64">
	<path d="M4.905 4.905h54.191v54.191h-54.191v-54.191zM10.926 10.926v42.149h42.149v-42.149h-42.149zM21.463 28.989h7.527v-7.527h6.021v7.527h7.527v6.021h-7.527v7.527h-6.021v-7.527h-7.527v-6.021z" fill="#000000" />
</svg>
