<?xml version="1.0" encoding="utf-8"?>
<!-- Generated by IcoMoon.io -->
<!DOCTYPE svg PUBLIC "-//W3C//DTD SVG 1.1//EN" "http://www.w3.org/Graphics/SVG/1.1/DTD/svg11.dtd">
<svg version="1.1" xmlns="http://www.w3.org/2000/svg" xmlns:xlink="http://www.w3.org/1999/xlink" width="64" height="64" viewBox="0 0 64 64">
	<path d="M20 16c2 1.111 4 2.222 6 2.222s4-1.111 6-2.222c2 1.111 4 2.222 6 2.222 2 0 4-1.111 6-2.222l3.333 6.333h-30.667l3.333-6.333zM48 28c0 4.444-1.333 8-4 12s-9.333 7.667-12 7.667c-2.667 0-9.333-3.667-12-7.667-2.667-4-4-7.556-4-12 0-1.473 0-2.667 0.333-4.333h31.333c0.333 1.667 0.333 2.861 0.333 4.333zM22.556 36.883c0.172 1.094 0.562 1.917 1.169 2.468 0.607 0.551 1.405 0.826 2.392 0.826 1.369 0 2.48-0.514 3.335-1.542 0.855-1.028 1.282-2.703 1.282-5.025 0-2.282-0.407-3.92-1.221-4.917-0.814-0.996-1.855-1.494-3.124-1.494-1.167 0-2.127 0.389-2.881 1.168-0.754 0.779-1.131 1.803-1.131 3.074 0 1.22 0.368 2.211 1.104 2.972 0.736 0.761 1.612 1.142 2.626 1.142 0.933 0 1.711-0.356 2.333-1.067-0.098 1.452-0.325 2.407-0.681 2.867-0.356 0.459-0.787 0.689-1.294 0.689-0.4 0-0.723-0.116-0.968-0.349-0.245-0.232-0.397-0.59-0.454-1.074l-2.489 0.261zM28.244 31.508c0 0.628-0.161 1.104-0.483 1.428s-0.718 0.486-1.189 0.486c-0.487 0-0.893-0.169-1.218-0.505-0.325-0.337-0.488-0.865-0.488-1.583 0-0.709 0.15-1.22 0.449-1.532 0.299-0.312 0.674-0.468 1.126-0.468 0.476 0 0.895 0.19 1.258 0.57 0.363 0.38 0.544 0.915 0.544 1.606zM37.844 40h2.489v-2.489h1.6v-2.133h-1.6v-8h-2.158l-5.486 8.008v2.125h5.156v2.489zM37.844 35.378h-2.819l2.819-4.111v4.111z" fill="#000000" />
</svg>
