<?xml version="1.0" encoding="utf-8"?>
<!-- Generated by IcoMoon.io -->
<!DOCTYPE svg PUBLIC "-//W3C//DTD SVG 1.1//EN" "http://www.w3.org/Graphics/SVG/1.1/DTD/svg11.dtd">
<svg version="1.1" xmlns="http://www.w3.org/2000/svg" xmlns:xlink="http://www.w3.org/1999/xlink" width="64" height="64" viewBox="0 0 64 64">
	<path d="M46.316 22.737c0.93 0 1.684 0.754 1.684 1.684v15.158c0 0.93-0.754 1.684-1.684 1.684h-28.632c-0.93 0-1.684-0.754-1.684-1.684v-12.21l4.632-4.632h25.684zM42.947 26.105h-13.474c-0.93 0-1.684 0.754-1.684 1.684v10.105c0 0.93 0.754 1.684 1.684 1.684h13.474c0.93 0 1.684-0.754 1.684-1.684v-10.105c0-0.93-0.754-1.684-1.684-1.684zM29.474 26.947h5.815c-0.649 0.304-1.199 0.915-1.561 1.684h-5.096v-0.842c0-0.465 0.377-0.842 0.842-0.842zM42.947 26.947c0.465 0 0.842 0.377 0.842 0.842v0.842h-5.096c-0.362-0.769-0.912-1.38-1.561-1.684h5.815zM43.789 29.474v2.526h-4.799c0.109-0.395 0.168-0.82 0.168-1.263 0-0.434-0.057-0.86-0.161-1.263h4.793zM43.789 32.842v2.526h-5.071c-0.058-0.67-0.251-1.288-0.544-1.806 0.185-0.213 0.349-0.455 0.487-0.72h5.128zM43.789 36.211v1.684c0 0.465-0.377 0.842-0.842 0.842h-5.447c0.664-0.556 1.124-1.444 1.218-2.526h5.071zM29.474 38.737c-0.465 0-0.842-0.377-0.842-0.842v-1.684h4.229c0.095 1.082 0.554 1.971 1.218 2.526h-4.605zM28.632 35.368v-2.526h5.128c0.021 0.041 0.043 0.082 0.066 0.122-0.527 0.606-0.884 1.452-0.965 2.405h-4.229zM28.632 32v-2.526h4.793c-0.105 0.403-0.161 0.829-0.161 1.263 0 0.443 0.059 0.868 0.168 1.263h-4.799zM36.211 27.579c1.163 0 2.105 1.53 2.105 3.158 0 1.206-0.517 2.243-1.259 2.699 0.509 0.538 0.838 1.392 0.838 2.353 0 1.628-0.943 2.737-2.105 2.737-1.163 0-2.105-1.109-2.105-2.737 0-1.206 0.517-2.243 1.259-2.699-0.509-0.538-0.838-1.392-0.838-2.353 0-1.628 0.943-3.158 2.105-3.158z" fill="#000000" />
</svg>
