<?xml version="1.0" encoding="utf-8"?>
<!-- Generated by IcoMoon.io -->
<!DOCTYPE svg PUBLIC "-//W3C//DTD SVG 1.1//EN" "http://www.w3.org/Graphics/SVG/1.1/DTD/svg11.dtd">
<svg version="1.1" xmlns="http://www.w3.org/2000/svg" xmlns:xlink="http://www.w3.org/1999/xlink" width="64" height="64" viewBox="0 0 64 64">
	<path d="M23.333 41.333h17.333c1.841 0 3.333 1.492 3.333 3.333s-1.492 3.333-3.333 3.333h-17.333c-1.841 0-3.333-1.492-3.333-3.333s1.492-3.333 3.333-3.333zM16.226 30.831l6.032-3.483-6.032-3.483c-1.179-0.681-1.583-2.189-0.903-3.368 0.681-1.179 2.189-1.584 3.368-0.903l9.61 5.548c0.812 0.469 1.256 1.33 1.232 2.206 0.024 0.876-0.42 1.737-1.232 2.206l-9.61 5.548c-1.179 0.681-2.688 0.277-3.368-0.903-0.681-1.179-0.277-2.687 0.903-3.368zM47.774 30.831c1.179 0.681 1.584 2.189 0.903 3.368-0.681 1.179-2.189 1.584-3.368 0.903l-9.61-5.548c-0.812-0.469-1.257-1.33-1.232-2.206-0.024-0.876 0.42-1.737 1.232-2.206l9.61-5.548c1.179-0.681 2.688-0.277 3.368 0.903 0.681 1.179 0.277 2.687-0.903 3.368l-6.032 3.483 6.032 3.483z" fill="#000000" />
</svg>
