<?xml version="1.0" encoding="utf-8"?>
<!-- Generated by IcoMoon.io -->
<!DOCTYPE svg PUBLIC "-//W3C//DTD SVG 1.1//EN" "http://www.w3.org/Graphics/SVG/1.1/DTD/svg11.dtd">
<svg version="1.1" xmlns="http://www.w3.org/2000/svg" xmlns:xlink="http://www.w3.org/1999/xlink" width="64" height="64" viewBox="0 0 64 64">
	<path d="M20.97 37.568l0.164 0.261c0.903 4.094 5.424 6.539 10.866 6.539s9.963-2.446 10.866-6.539l0.164-0.261c0-1.512 1.342-2.489 3.257-2.489 1.665 0 2.712 1.253 3.047 2.489-0.796 6.469-8.933 12.444-17.333 12.444-8.401 0-16.538-5.975-17.333-12.444 0.334-1.236 1.381-2.489 3.046-2.489 1.915 0 3.257 0.977 3.257 2.489zM17.333 21.333c1.582 0 2.828 0.667 4.747 0.667s3.057-0.667 4.586-0.667c1.473 0 2.667 1.194 2.667 2.667 0 1.473-1.194 2.667-2.667 2.667h-9.333c-1.473 0-2.667-1.194-2.667-2.667s1.194-2.667 2.667-2.667zM37.333 21.333c1.583 0 2.828 0.667 4.747 0.667s3.057-0.667 4.586-0.667c1.473 0 2.667 1.194 2.667 2.667 0 1.473-1.194 2.667-2.667 2.667h-9.333c-1.473 0-2.667-1.194-2.667-2.667s1.194-2.667 2.667-2.667z" fill="#000000" />
</svg>
