<?xml version="1.0" encoding="utf-8"?>
<!-- Generated by IcoMoon.io -->
<!DOCTYPE svg PUBLIC "-//W3C//DTD SVG 1.1//EN" "http://www.w3.org/Graphics/SVG/1.1/DTD/svg11.dtd">
<svg version="1.1" xmlns="http://www.w3.org/2000/svg" xmlns:xlink="http://www.w3.org/1999/xlink" width="64" height="64" viewBox="0 0 64 64">
	<path d="M22.061 21.333c2.611 0 4.727 2.116 4.727 4.727s-2.116 4.727-4.727 4.727c-2.611 0-4.727-2.116-4.727-4.727 0-2.611 2.116-4.727 4.727-4.727zM23.333 41.333h17.333c1.841 0 3.333 1.492 3.333 3.333s-1.492 3.333-3.333 3.333h-17.333c-1.841 0-3.333-1.492-3.333-3.333s1.492-3.333 3.333-3.333zM40 17.333c3.682 0 6.667 3.582 6.667 8s-2.985 8-6.667 8c-3.682 0-6.667-3.582-6.667-8 0-4.418 2.985-8 6.667-8z" fill="#000000" />
</svg>
