<?xml version="1.0" encoding="utf-8"?>
<!-- Generated by IcoMoon.io -->
<!DOCTYPE svg PUBLIC "-//W3C//DTD SVG 1.1//EN" "http://www.w3.org/Graphics/SVG/1.1/DTD/svg11.dtd">
<svg version="1.1" xmlns="http://www.w3.org/2000/svg" xmlns:xlink="http://www.w3.org/1999/xlink" width="64" height="64" viewBox="0 0 64 64">
	<path d="M20.97 45.778c0 1.512-1.342 2.489-3.257 2.489-1.665 0-2.712-1.253-3.046-2.489 0.796-6.469 8.933-12.444 17.333-12.444 8.401 0 16.538 5.975 17.333 12.444-0.334 1.236-1.382 2.489-3.047 2.489-1.914 0-3.257-0.977-3.257-2.489l-0.164-0.261c-0.903-4.094-5.424-6.539-10.866-6.539s-9.963 2.446-10.866 6.539l-0.164 0.261zM28 22.667c0 3.682-2.089 6.667-4.667 6.667-2.577 0-4.667-2.985-4.667-6.667l5.333-6.599c2.262 0.462 4 3.241 4 6.599zM36 22.667c0-3.359 1.738-6.137 4-6.599l5.333 6.599c0 3.682-2.089 6.667-4.667 6.667-2.577 0-4.667-2.985-4.667-6.667z" fill="#000000" />
</svg>
