<?xml version="1.0" encoding="utf-8"?>
<!-- Generated by IcoMoon.io -->
<!DOCTYPE svg PUBLIC "-//W3C//DTD SVG 1.1//EN" "http://www.w3.org/Graphics/SVG/1.1/DTD/svg11.dtd">
<svg version="1.1" xmlns="http://www.w3.org/2000/svg" xmlns:xlink="http://www.w3.org/1999/xlink" width="64" height="64" viewBox="0 0 64 64">
	<path d="M39.958 40.022c0 4.406-3.572 7.978-7.978 7.978s-7.978-3.572-7.978-7.978c0-2.229 0.914-4.245 2.388-5.692-0.505-0.914-0.793-1.965-0.793-3.083 0-0.395 0.036-0.781 0.105-1.156l-5.495-2.349-3.096 0.823-0.205-0.771 2.743-0.729-2.684-1.147 0.314-0.734 2.672 1.143-1.362-2.473 0.699-0.385 1.546 2.806 5.354 2.289c0.747-1.61 2.146-2.856 3.858-3.4-1.226-0.681-2.055-1.988-2.055-3.489 0-1.279 0.602-2.417 1.537-3.147h-1.739v-1.684h1.684v-2.526h5.053v2.526h1.684v1.684h-1.779c0.936 0.73 1.537 1.868 1.537 3.147 0 1.501-0.829 2.809-2.055 3.489 1.674 0.532 3.048 1.735 3.807 3.293l4.358-3.877 0.573-3.152 0.785 0.143-0.508 2.793 2.181-1.94 0.53 0.596-2.172 1.932 2.818-0.18 0.051 0.796-3.197 0.204-4.879 4.341 0.101 1.136c0 1.118-0.288 2.169-0.793 3.083 1.474 1.448 2.388 3.463 2.388 5.692z" fill="#000000" />
</svg>
