<?xml version="1.0" encoding="utf-8"?>
<!-- Generated by IcoMoon.io -->
<!DOCTYPE svg PUBLIC "-//W3C//DTD SVG 1.1//EN" "http://www.w3.org/Graphics/SVG/1.1/DTD/svg11.dtd">
<svg version="1.1" xmlns="http://www.w3.org/2000/svg" xmlns:xlink="http://www.w3.org/1999/xlink" width="64" height="64" viewBox="0 0 64 64">
	<path d="M33.333 22.181l2.114-2.114 1.886 1.886-4 4v3.738l3.295-1.902 1.464-5.464 2.576 0.69-0.774 2.888 3.44-1.986 1.255-4.683 6.44 1.726-1.725 6.439-4.553-1.22-3.58 2.067 2.888 0.774-0.69 2.576-5.464-1.464-3.237 1.869 3.237 1.869 5.464-1.464 0.69 2.576-2.888 0.774 3.58 2.067 4.553-1.22 1.725 6.44-6.44 1.725-1.255-4.683-3.44-1.986 0.774 2.888-2.576 0.69-1.464-5.464-3.295-1.903v3.738l4 4-1.886 1.886-2.114-2.114v4.134l3.333 3.333-4.714 4.714-4.714-4.714 3.428-3.428v-3.972l-2.114 2.114-1.886-1.886 4-4v-3.805l-3.237 1.869-1.464 5.464-2.576-0.69 0.774-2.888-3.58 2.067-1.22 4.553-6.439-1.725 1.726-6.44 4.683 1.255 3.44-1.986-2.888-0.774 0.69-2.576 5.464 1.464 3.295-1.902-3.295-1.902-5.464 1.464-0.69-2.576 2.888-0.774-3.44-1.986-4.683 1.255-1.725-6.439 6.439-1.726 1.22 4.553 3.58 2.067-0.774-2.888 2.576-0.69 1.464 5.464 3.237 1.869v-3.805l-4-4 1.886-1.886 2.114 2.114v-3.972l-3.428-3.428 4.714-4.714 4.714 4.714-3.333 3.333v4.134zM30.114 14.667l1.886 1.886 1.886-1.886-1.886-1.886-1.886 1.886zM30.114 49.333l1.886 1.886 1.886-1.886-1.886-1.886-1.886 1.886zM16.046 24.966l2.576-0.69-0.69-2.576-2.576 0.69 0.69 2.576zM46.068 42.3l2.576-0.69-0.69-2.576-2.576 0.69 0.69 2.576zM46.068 21.7l-0.69 2.576 2.576 0.69 0.69-2.576-2.576-0.69zM16.046 39.034l-0.69 2.576 2.576 0.69 0.69-2.576-2.576-0.69z" fill="#000000" />
</svg>
