<?xml version="1.0" encoding="utf-8"?>
<!-- Generated by IcoMoon.io -->
<!DOCTYPE svg PUBLIC "-//W3C//DTD SVG 1.1//EN" "http://www.w3.org/Graphics/SVG/1.1/DTD/svg11.dtd">
<svg version="1.1" xmlns="http://www.w3.org/2000/svg" xmlns:xlink="http://www.w3.org/1999/xlink" width="64" height="64" viewBox="0 0 64 64">
	<path d="M32.007 25.095l13.057-4.248-13.057-3.953-13.357 3.953M33.749 47.827l14.272-4.876v-19.965l-14.225 4.415M16.021 22.855l14.222 4.612v20.294l-14.129-4.81" fill="#000000" />
</svg>
