<?xml version="1.0" encoding="utf-8"?>
<!-- Generated by IcoMoon.io -->
<!DOCTYPE svg PUBLIC "-//W3C//DTD SVG 1.1//EN" "http://www.w3.org/Graphics/SVG/1.1/DTD/svg11.dtd">
<svg version="1.1" xmlns="http://www.w3.org/2000/svg" xmlns:xlink="http://www.w3.org/1999/xlink" width="64" height="64" viewBox="0 0 64 64">
	<path d="M32 16c1.395 0 2.526 1.131 2.526 2.526s-1.131 2.526-2.526 2.526c-1.395 0-2.526-1.131-2.526-2.526 0-1.395 1.131-2.526 2.526-2.526zM25.263 17.684c1.395 0 2.526 1.131 2.526 2.526s-1.131 2.526-2.526 2.526c-1.395 0-2.526-1.131-2.526-2.526 0-1.395 1.131-2.526 2.526-2.526zM38.737 17.684c1.395 0 2.526 1.131 2.526 2.526s-1.131 2.526-2.526 2.526c-1.395 0-2.526-1.131-2.526-2.526 0-1.395 1.131-2.526 2.526-2.526zM31.684 30.316c-3.368-3.368-2.526-5.053-2.526-5.053h5.895c0 2.526-3.368 5.053-3.368 5.053zM35.053 47.158c0 0 0-3.368-6.737-10.105s-7.579-8.421-8.421-13.474c0 0 0.632-0.842 1.474 0 0.842 0.842 2.737 1.474 4.421 1.474 0 0 1.684 5.263 6.316 8.632 0 0 6.105-6.316 6.105-8.842 0 0 1.895 0.421 4.211-1.263 0 0 1.58-0.836 1.684 0 0.211 1.684-1.474 7.579-8.421 13.474 0 0 4.421 5.053 4 10.105h-4.632zM27.474 38.737l3.579 4c-1.684 1.684-1.895 5.263-1.895 5.263h-5.053c0.842-6.737 3.368-9.263 3.368-9.263z" fill="#000000" />
</svg>
