<?xml version="1.0" encoding="utf-8"?>
<!-- Generated by IcoMoon.io -->
<!DOCTYPE svg PUBLIC "-//W3C//DTD SVG 1.1//EN" "http://www.w3.org/Graphics/SVG/1.1/DTD/svg11.dtd">
<svg version="1.1" xmlns="http://www.w3.org/2000/svg" xmlns:xlink="http://www.w3.org/1999/xlink" width="64" height="64" viewBox="0 0 64 64">
	<path d="M38.737 45.474h10.105v2.526h-10.105v-2.526zM43.789 44.842l-5.263-5.263h2.737v-5.895h5.053v5.895h2.737l-5.263 5.263zM29.509 21.815l-9.572 5.83-6.043-4.933 9.578-5.894 6.036 4.997zM39.466 37.896v0.841h-1.558l1.558-0.841zM30.281 45.263v-10.699l6.101 4.997 0.424-0.229 1.194 1.194-7.718 4.737zM20.323 37.896l3.086 1.665 6.1-4.997v10.699l-9.186-5.638v-1.73zM28.873 34.052l-5.335 4.613-9.193-5.381 5.528-4.677 9 5.445zM36.253 38.664l-5.336-4.613 8.999-5.445 5.007 4.236h-4.503v3.382l-4.168 2.44zM39.853 27.645l-9.572-5.83 6.036-4.997 9.577 5.894-6.042 4.933z" fill="#000000" />
</svg>
