<?xml version="1.0" encoding="utf-8"?>
<!-- Generated by IcoMoon.io -->
<!DOCTYPE svg PUBLIC "-//W3C//DTD SVG 1.1//EN" "http://www.w3.org/Graphics/SVG/1.1/DTD/svg11.dtd">
<svg version="1.1" xmlns="http://www.w3.org/2000/svg" xmlns:xlink="http://www.w3.org/1999/xlink" width="64" height="64" viewBox="0 0 64 64">
	<path d="M39.048 38.752c-0.628 0.907-1.551 1.611-2.756 2.119-1.208 0.508-2.635 0.764-4.284 0.764-1.976 0-3.612-0.345-4.904-1.045-0.916-0.501-1.66-1.17-2.233-2.005-0.574-0.839-0.864-1.657-0.864-2.457 0-0.473 0.18-0.882 0.53-1.216 0.354-0.338 0.81-0.505 1.347-0.505 0.441 0 0.819 0.132 1.127 0.395 0.306 0.263 0.562 0.644 0.772 1.148 0.251 0.583 0.524 1.074 0.815 1.461 0.289 0.384 0.695 0.708 1.221 0.96 0.52 0.249 1.213 0.377 2.080 0.377 1.186 0 2.145-0.256 2.879-0.764 0.737-0.508 1.092-1.131 1.092-1.881 0-0.601-0.191-1.077-0.582-1.447-0.395-0.377-0.906-0.661-1.539-0.86-0.636-0.203-1.489-0.416-2.559-0.64-1.436-0.316-2.638-0.679-3.611-1.099-0.974-0.42-1.75-0.996-2.325-1.721-0.576-0.736-0.864-1.646-0.864-2.727 0-1.031 0.303-1.949 0.911-2.752 0.607-0.804 1.485-1.419 2.63-1.845 1.141-0.43 2.484-0.644 4.023-0.644 1.231 0 2.295 0.142 3.196 0.427 0.899 0.284 1.648 0.661 2.246 1.134 0.596 0.469 1.033 0.967 1.311 1.49 0.277 0.523 0.417 1.035 0.417 1.532 0 0.466-0.18 0.885-0.53 1.255-0.35 0.37-0.799 0.558-1.322 0.555-0.472 0-0.842-0.107-1.099-0.338-0.25-0.224-0.513-0.58-0.796-1.074-0.359-0.69-0.789-1.227-1.288-1.611-0.487-0.377-1.29-0.576-2.407-0.572-1.034 0-1.861 0.21-2.486 0.626-0.628 0.42-0.929 0.907-0.93 1.476 0.001 0.359 0.104 0.661 0.311 0.917 0.21 0.26 0.502 0.487 0.878 0.675 0.376 0.196 0.758 0.345 1.143 0.452 0.389 0.11 1.034 0.27 1.93 0.48 1.124 0.242 2.144 0.512 3.061 0.807 0.914 0.299 1.695 0.654 2.34 1.081 0.65 0.423 1.158 0.967 1.521 1.621 0.365 0.654 0.547 1.454 0.547 2.396 0 1.134-0.316 2.151-0.946 3.054zM46.664 34.318c0.12-0.754 0.182-1.529 0.182-2.318 0-8.199-6.647-14.844-14.847-14.844-0.787 0-1.562 0.064-2.317 0.181-1.367-0.846-2.981-1.337-4.71-1.337-4.955 0-8.972 4.018-8.972 8.974 0 1.728 0.49 3.342 1.336 4.711-0.117 0.757-0.181 1.525-0.181 2.315 0 8.203 6.647 14.844 14.845 14.844 0.787 0 1.562-0.060 2.317-0.178 1.369 0.843 2.981 1.333 4.71 1.333 4.956 0 8.972-4.014 8.972-8.971 0-1.728-0.489-3.342-1.336-4.711z" fill="#000000" />
</svg>
