<?xml version="1.0" encoding="utf-8"?>
<!-- Generated by IcoMoon.io -->
<!DOCTYPE svg PUBLIC "-//W3C//DTD SVG 1.1//EN" "http://www.w3.org/Graphics/SVG/1.1/DTD/svg11.dtd">
<svg version="1.1" xmlns="http://www.w3.org/2000/svg" xmlns:xlink="http://www.w3.org/1999/xlink" width="64" height="64" viewBox="0 0 64 64">
	<path d="M45.176 34.735h-2.489v-5.689h2.489M48.020 26.202h-8.533v11.378h5.689v2.489h-5.689v3.2h8.533v-14.082M33.443 34.735v-5.689h2.133v5.689M38.776 26.202h-8.533v11.378h5.333v2.489h-5.333v3.2h8.533v-8.777M25.62 20.513h3.2v3.2h-3.2M25.62 26.202h3.2v11.378h-3.2M19.22 34.735v-5.689h2.489v5.689M21.709 20.513v5.689h-5.689v11.378h8.889v-17.067h-3.2z" fill="#000000" />
</svg>
