<?xml version="1.0" encoding="utf-8"?>
<!-- Generated by IcoMoon.io -->
<!DOCTYPE svg PUBLIC "-//W3C//DTD SVG 1.1//EN" "http://www.w3.org/Graphics/SVG/1.1/DTD/svg11.dtd">
<svg version="1.1" xmlns="http://www.w3.org/2000/svg" xmlns:xlink="http://www.w3.org/1999/xlink" width="64" height="64" viewBox="0 0 64 64">
	<path d="M32 17.459c8.837 0 16 5.804 16 12.963 0 2.953-1.219 5.676-3.271 7.855-3.456 3.756-13.254 10.383-14.103 9.723-0.916-0.713 0.478-1.715 0.356-4.021-0.025-0.48-0.32-0.62-0.494-0.651-8.127-0.617-14.488-6.16-14.488-12.906 0-7.159 7.163-12.963 16-12.963zM27.996 26.316c-0.459 0-0.831 0.372-0.831 0.831v6.244c0 0.459 0.372 0.831 0.831 0.831s0.831-0.372 0.831-0.831v-6.244c0-0.459-0.372-0.831-0.831-0.831zM22.43 26.316c-0.459 0-0.831 0.372-0.831 0.831v6.244c0 0.459 0.372 0.831 0.831 0.831h3.122c0.459 0 0.831-0.372 0.831-0.831s-0.372-0.831-0.831-0.831h-2.291v-5.413c0-0.459-0.372-0.831-0.831-0.831zM30.846 26.316c-0.459 0-0.831 0.372-0.831 0.831v6.244c0 0.459 0.372 0.831 0.831 0.831s0.831-0.372 0.831-0.831v-3.884l3.238 4.398c0.274 0.364 0.789 0.439 1.155 0.17 0.216-0.15 0.358-0.4 0.358-0.683v-6.244c0-0.459-0.372-0.831-0.831-0.831s-0.831 0.372-0.831 0.831v3.898l-3.224-4.379-0.259-0.226c-0.127-0.078-0.276-0.124-0.436-0.124zM38.38 26.316c-0.266 0-0.503 0.125-0.655 0.32-0.11 0.141-0.176 0.319-0.176 0.512v6.244c0 0.459 0.372 0.831 0.831 0.831h3.156c0.459 0 0.831-0.372 0.831-0.831s-0.372-0.831-0.831-0.831h-2.324v-1.459h2.324c0.459 0 0.831-0.372 0.831-0.831s-0.372-0.831-0.831-0.831h-2.324v-1.459h2.324c0.459 0 0.831-0.372 0.831-0.831s-0.372-0.831-0.831-0.831h-3.156z" fill="#000000" />
</svg>
