<?xml version="1.0" encoding="utf-8"?>
<!-- Generated by IcoMoon.io -->
<!DOCTYPE svg PUBLIC "-//W3C//DTD SVG 1.1//EN" "http://www.w3.org/Graphics/SVG/1.1/DTD/svg11.dtd">
<svg version="1.1" xmlns="http://www.w3.org/2000/svg" xmlns:xlink="http://www.w3.org/1999/xlink" width="64" height="64" viewBox="0 0 64 64">
	<path d="M31.615 23.701l-6.036-4.997-9.578 5.894 6.043 4.933M41.572 39.781l-3.084 1.665-6.101-4.997v10.699l9.185-5.638M22.428 39.781v1.73l9.186 5.638v-10.699l-6.1 4.997M30.978 35.937l-9-5.445-5.528 4.677 9.193 5.381M38.359 40.55l9.192-5.381-5.529-4.677-8.999 5.445M41.958 29.531l-9.571-5.83 6.036-4.997 9.577 5.894-6.042 4.933z" fill="#000000" />
</svg>
