<?xml version="1.0" encoding="utf-8"?>
<!-- Generated by IcoMoon.io -->
<!DOCTYPE svg PUBLIC "-//W3C//DTD SVG 1.1//EN" "http://www.w3.org/Graphics/SVG/1.1/DTD/svg11.dtd">
<svg version="1.1" xmlns="http://www.w3.org/2000/svg" xmlns:xlink="http://www.w3.org/1999/xlink" width="64" height="64" viewBox="0 0 64 64">
	<path d="M16 47.158h7.579v-20.631h-7.579M19.883 16.711c-2.347 0-3.883 1.54-3.883 3.564 0 1.981 1.491 3.567 3.792 3.567h0.046c2.392 0 3.881-1.586 3.881-3.567-0.045-2.024-1.488-3.564-3.835-3.564zM48 35.459v11.699h-6.737v-10.947c0-2.773-1.114-4.625-3.596-4.625-1.895 0-3.023 1.275-3.52 2.509-0.181 0.441-0.463 1.077-0.463 1.695v11.368h-6.737c0 0 0-17.684 0-20.631h6.737v3.158l0.236-0.036v-0.067c0.911-1.404 2.539-3.409 6.182-3.409 4.514 0 7.898 2.949 7.898 9.287z" fill="#000000" />
</svg>
