<?xml version="1.0" encoding="utf-8"?>
<!-- Generated by IcoMoon.io -->
<!DOCTYPE svg PUBLIC "-//W3C//DTD SVG 1.1//EN" "http://www.w3.org/Graphics/SVG/1.1/DTD/svg11.dtd">
<svg version="1.1" xmlns="http://www.w3.org/2000/svg" xmlns:xlink="http://www.w3.org/1999/xlink" width="64" height="64" viewBox="0 0 64 64">
	<path d="M20.154 22.198c0-0.805-0.164-6.198 6.794-6.198h4.912v5.609h-3.612c-0.715 0-1.438 0.741-1.438 1.291l0.11 4.048h4.842c-0.202 2.825-0.527 5.043-0.527 5.043l-4.314 0.009v16h-6.737l-0.028-16.009-3.34 0.009v-5.053h3.368l-0.028-4.75zM48.8 33.152c5.325 5.8-6.071 14.136-8.137 15.073v0.027l-0.048-0.027c-2.067-0.937-13.466-9.273-8.141-15.073 1.695-1.846 4.583-1.545 7.218 0.957l-1.342 7.16 2.288-0.858v7.721l2.86-10.58-2.288 0.858 1.412-5.176c2.157-1.533 4.741-1.651 6.178-0.081z" fill="#000000" />
</svg>
