<?xml version="1.0" encoding="utf-8"?>
<!-- Generated by IcoMoon.io -->
<!DOCTYPE svg PUBLIC "-//W3C//DTD SVG 1.1//EN" "http://www.w3.org/Graphics/SVG/1.1/DTD/svg11.dtd">
<svg version="1.1" xmlns="http://www.w3.org/2000/svg" xmlns:xlink="http://www.w3.org/1999/xlink" width="64" height="64" viewBox="0 0 64 64">
	<path d="M20.154 22.198c0-0.805-0.164-6.198 6.794-6.198h4.912v5.609h-3.612c-0.715 0-1.438 0.741-1.438 1.291l0.11 4.048h4.842c-0.202 2.825-0.527 5.043-0.527 5.043l-4.314 0.009v16h-6.737l-0.028-16.009-3.34 0.009v-5.053h3.368l-0.028-4.75zM48.844 33.070c5.354 5.831-6.105 14.213-8.181 15.155v0.027l-0.048-0.027c-2.079-0.942-13.539-9.324-8.185-15.155 1.924-2.095 5.375-1.44 8.265 2.044 2.282-3.244 6.231-4.139 8.149-2.044z" fill="#000000" />
</svg>
