<?xml version="1.0" encoding="utf-8"?>
<!-- Generated by IcoMoon.io -->
<!DOCTYPE svg PUBLIC "-//W3C//DTD SVG 1.1//EN" "http://www.w3.org/Graphics/SVG/1.1/DTD/svg11.dtd">
<svg version="1.1" xmlns="http://www.w3.org/2000/svg" xmlns:xlink="http://www.w3.org/1999/xlink" width="64" height="64" viewBox="0 0 64 64">
	<path d="M43.559 30.1c0.088 0.602 0.134 1.216 0.134 1.84 0 7.341-6.199 13.292-13.847 13.292-7.645 0-13.845-5.951-13.845-13.292 0-7.341 6.199-13.292 13.845-13.292 1.5 0 2.944 0.23 4.297 0.656l0.002 8.032c0 0-4.126-2.258-7.815 0.393-3.69 2.648-2.995 5.427-2.995 5.427 0 0 0.173 4.388 5.379 4.388 5.821 0 7.47-5.299 7.47-5.299v-12.119c1.123 0.553 2.166 1.248 3.169 2.031 2.475 1.531 5.046 2.517 7.986 2.442 0 0 0.564-0.121 0.564 1 0 0.606-0.217 1.301-0.824 1.957 0 0-1.157 1.726-3.518 2.545z" fill="#000000" />
</svg>
