<?xml version="1.0" encoding="utf-8"?>
<!-- Generated by IcoMoon.io -->
<!DOCTYPE svg PUBLIC "-//W3C//DTD SVG 1.1//EN" "http://www.w3.org/Graphics/SVG/1.1/DTD/svg11.dtd">
<svg version="1.1" xmlns="http://www.w3.org/2000/svg" xmlns:xlink="http://www.w3.org/1999/xlink" width="64" height="64" viewBox="0 0 64 64">
	<path d="M23.641 16.084h-3.616l-2.515 15.691h2.268l0.427-2.716h3.032l0.427 2.716h2.493l-2.515-15.691zM21.71 18.886l1.19 7.998h-2.38l1.19-7.998z" fill="#000000" />
	<path d="M35.169 31.775c-0.119-0.292-0.195-0.593-0.227-0.903-0.032-0.309-0.046-0.656-1.663-6.874 1.077-0.507 1.609-1.553 1.598-3.138v-1.213c0.008-1.193-0.28-2.086-0.864-2.678-0.584-0.592-1.511-0.887-2.783-0.886h-3.714v15.691h2.442v-6.512h0.863c0.565-0.008 1.656 5.612 1.696 5.864s0.093 0.468 0.161 0.648h2.489zM31.163 18.302c0.867-0.022 1.291 0.508 1.272 1.589v1.522c-0.004 0.609-0.138 1.035-0.4 1.28s-0.629 0.362-1.099 0.353h-0.977v-4.744h1.204z" fill="#000000" />
	<path d="M36.073 18.302h2.583v13.474h2.442v-13.474h2.583v-2.218h-7.607v2.218z" fill="#000000" />
	<path d="M43.752 29.354h2.4v2.4h-2.4v-2.4z" fill="#000000" />
	<path d="M23.116 42.784v2.273c-0.004 0.562-0.127 0.961-0.367 1.199-0.24 0.238-0.572 0.353-0.994 0.347-0.422 0.007-0.754-0.109-0.994-0.347-0.24-0.238-0.363-0.637-0.367-1.199v-8.591c0.004-0.563 0.127-0.966 0.367-1.21 0.24-0.244 0.572-0.364 0.994-0.358 0.422-0.006 0.754 0.114 0.994 0.358 0.24 0.244 0.363 0.648 0.367 1.21v1.575h2.218v-1.494c0.001-1.238-0.3-2.19-0.904-2.856-0.604-0.666-1.52-1.003-2.747-1.011-1.244 0.007-2.177 0.344-2.799 1.011-0.622 0.666-0.933 1.619-0.933 2.856v8.325c0 1.277 0.311 2.253 0.933 2.928s1.555 1.015 2.799 1.020c1.227-0.006 2.142-0.346 2.747-1.020 0.604-0.675 0.905-1.651 0.904-2.928v-2.146l-2.218 0.059z" fill="#000000" />
	<path d="M29.151 36.462c0.004-0.561 0.127-0.964 0.367-1.208 0.24-0.244 0.572-0.363 0.994-0.358 0.422-0.006 0.754 0.114 0.994 0.358 0.24 0.244 0.363 0.647 0.367 1.208v8.575c-0.004 0.561-0.127 0.964-0.367 1.208-0.24 0.244-0.572 0.363-0.994 0.357-0.422 0.006-0.754-0.113-0.994-0.357-0.24-0.244-0.363-0.647-0.367-1.208v-8.575zM26.709 44.878c0.003 1.268 0.325 2.24 0.967 2.917s1.587 1.018 2.837 1.025c1.25-0.007 2.195-0.348 2.837-1.025 0.642-0.677 0.964-1.649 0.967-2.917v-8.257c-0.003-1.268-0.325-2.24-0.967-2.917-0.642-0.677-1.587-1.018-2.837-1.025-1.249 0.007-2.195 0.348-2.837 1.025-0.642 0.677-0.964 1.649-0.967 2.917v8.257z" fill="#000000" />
	<path d="M39.393 32.904h-3.456v15.691h2.175v-11.096l1.843 11.096h2.337l1.708-11.253v11.253h2.218v-15.691h-3.319l-1.685 11.141-1.82-11.141z" fill="#000000" />
</svg>
