<?xml version="1.0" encoding="utf-8"?>
<!-- Generated by IcoMoon.io -->
<!DOCTYPE svg PUBLIC "-//W3C//DTD SVG 1.1//EN" "http://www.w3.org/Graphics/SVG/1.1/DTD/svg11.dtd">
<svg version="1.1" xmlns="http://www.w3.org/2000/svg" xmlns:xlink="http://www.w3.org/1999/xlink" width="64" height="64" viewBox="0 0 64 64">
	<path d="M48 36.516c0 3.495-2.812 6.329-6.283 6.329h-19.435c-3.47 0-6.283-2.833-6.283-6.329 0-3.157 2.293-5.772 5.294-6.251-0.039-0.222-0.060-0.449-0.060-0.684 0-2.215 1.781-4.010 3.982-4.010 0.981 0 1.881 0.357 2.571 0.952 1.237-2.806 2.823-5.367 7.268-5.367 5.39 0 7.943 4.189 7.943 8.609 0 0.185-0.007 0.368-0.018 0.549 2.866 0.588 5.020 3.141 5.020 6.202z" fill="#000000" />
</svg>
