<?xml version="1.0" encoding="utf-8"?>
<!-- Generated by IcoMoon.io -->
<!DOCTYPE svg PUBLIC "-//W3C//DTD SVG 1.1//EN" "http://www.w3.org/Graphics/SVG/1.1/DTD/svg11.dtd">
<svg version="1.1" xmlns="http://www.w3.org/2000/svg" xmlns:xlink="http://www.w3.org/1999/xlink" width="64" height="64" viewBox="0 0 64 64">
	<path d="M33.641 47.97h-3.2c-7.058 0-12.8-5.744-12.8-12.8v-16c0-1.769 1.433-3.2 3.2-3.2s3.2 1.431 3.2 3.2v16c0 3.528 2.873 6.4 6.4 6.4h3.2c3.527 0 6.4-2.513 6.4-5.6 0-3.156-1.721-5.6-3.2-5.6h-6.4c-1.767 0-3.2-1.434-3.2-3.2 0-1.769 1.433-3.2 3.2-3.2h6.4c5.294 0 9.6 5.381 9.6 12 0 6.616-5.742 12-12.8 12z" fill="#000000" />
</svg>
