<?xml version="1.0" encoding="utf-8"?>
<!-- Generated by IcoMoon.io -->
<!DOCTYPE svg PUBLIC "-//W3C//DTD SVG 1.1//EN" "http://www.w3.org/Graphics/SVG/1.1/DTD/svg11.dtd">
<svg version="1.1" xmlns="http://www.w3.org/2000/svg" xmlns:xlink="http://www.w3.org/1999/xlink" width="64" height="64" viewBox="0 0 64 64">
	<path d="M19.368 24.421h-2.526v-2.526h2.526M24.421 21.895h-5.053v-2.526h5.053M24.421 24.421v-2.526h2.526v2.526M39.579 43.789v-5.895h-2.526v5.895h-4.211v-11.79h-3.368v-5.895h2.526v4.21h12.632v-4.21h2.526v5.895h-3.368v11.79M42.105 20.21v7.579h-7.579v-7.579M49.684 23.579h-5.053v-5.895h-12.632v5.895h-5.053v8.421h-10.105v-7.579h-2.526v7.579h2.526v2.526h4.21v3.368h-1.684v2.526h5.895v3.368h-5.895v-3.368h-2.526v5.895h10.947v-5.895h-2.526v-2.526h-1.684v-3.368h6.737v11.79h16v-11.79h3.368v-10.947z" fill="#000000" />
</svg>
