<?xml version="1.0" encoding="utf-8"?>
<!-- Generated by IcoMoon.io -->
<!DOCTYPE svg PUBLIC "-//W3C//DTD SVG 1.1//EN" "http://www.w3.org/Graphics/SVG/1.1/DTD/svg11.dtd">
<svg version="1.1" xmlns="http://www.w3.org/2000/svg" xmlns:xlink="http://www.w3.org/1999/xlink" width="64" height="64" viewBox="0 0 64 64">
	<path d="M17.411 24.557c1.48-1.48 3.879-1.48 5.359 0l7.443 7.443-5.359 5.359-7.443-7.443c-1.48-1.48-1.48-3.879 0-5.359zM39.443 41.23c1.48 1.48 1.48 3.879 0 5.359-1.48 1.48-3.879 1.48-5.359 0l-2.084-2.084 5.359-5.359 2.084 2.084z" fill="#000000" />
	<path d="M24.557 17.411c1.48-1.48 3.879-1.48 5.359 0l2.084 2.084-5.359 5.359-2.084-2.084c-1.48-1.48-1.48-3.879 0-5.359zM46.589 34.084c1.48 1.48 1.48 3.879 0 5.359-1.48 1.48-3.879 1.48-5.359 0l-7.443-7.443 5.359-5.359 7.443 7.443z" fill="#000000" />
	<path d="M17.411 39.443c-1.48-1.48-1.48-3.879 0-5.359l2.084-2.084 5.359 5.359-2.084 2.084c-1.48 1.48-3.879 1.48-5.359 0zM34.084 17.411c1.48-1.48 3.879-1.48 5.359 0 1.48 1.48 1.48 3.879 0 5.359l-7.443 7.443-5.359-5.359 7.443-7.443z" fill="#000000" />
	<path d="M24.557 46.589c-1.48-1.48-1.48-3.879 0-5.359l7.443-7.443 5.359 5.359-7.443 7.443c-1.48 1.48-3.879 1.48-5.359 0zM41.23 24.557c1.48-1.48 3.879-1.48 5.359 0 1.48 1.48 1.48 3.879 0 5.359l-2.084 2.084-5.359-5.359 2.084-2.084z" fill="#000000" />
</svg>
