<?xml version="1.0" encoding="utf-8"?>
<!-- Generated by IcoMoon.io -->
<!DOCTYPE svg PUBLIC "-//W3C//DTD SVG 1.1//EN" "http://www.w3.org/Graphics/SVG/1.1/DTD/svg11.dtd">
<svg version="1.1" xmlns="http://www.w3.org/2000/svg" xmlns:xlink="http://www.w3.org/1999/xlink" width="64" height="64" viewBox="0 0 64 64">
	<path d="M60.198 37.814l-15.407-15.407-15.407 15.407h30.814zM15.721 29.495v-14.844l-1.188 0.541-1.072 0.373-1.137 0.258-1.266 0.182v-4.603l1.791-0.405 1.733-0.603 1.733-0.849c0.58-0.327 1.177-0.55 1.791-0.98h3.431v20.931h-5.814zM25.24 43.915c0 1.553-0.18 3.027-0.541 4.423-0.36 1.396-0.922 2.619-1.685 3.668-0.763 1.049-1.743 1.883-2.941 2.502-1.198 0.618-2.632 0.927-4.301 0.927l-1.623-0.085-1.337-0.209-1.036-0.26-0.736-0.251v-4.732l0.67 0.359 0.95 0.338 1.114 0.251 1.151 0.101c1.439 0 2.54-0.398 3.303-1.194s1.153-1.966 1.171-3.51h-0.087c-0.411 0.528-0.941 0.947-1.588 1.259-0.647 0.311-1.432 0.467-2.352 0.467-0.718 0-1.411-0.139-2.078-0.417-0.668-0.278-1.26-0.683-1.777-1.215-0.517-0.532-0.749-1.156-1.060-1.941-0.311-0.786-0.467-1.683-0.467-2.693 0-1.227 0.199-2.313 0.596-3.256 0.397-0.944 0.759-1.77 1.449-2.408 0.69-0.638 1.503-1.12 2.437-1.445 0.934-0.325 1.938-0.488 3.013-0.488 0.546 0 1.119 0.062 1.719 0.186 0.6 0.124 1.185 0.333 1.756 0.626 0.571 0.293 1.115 0.684 1.632 1.171 0.517 0.488 0.973 1.096 1.367 1.825 0.394 0.729 0.707 1.587 0.937 2.575 0.23 0.988 0.345 2.13 0.345 3.424zM19.169 41.227l-0.108-0.907-0.325-0.815c-0.144-0.245-0.324-0.442-0.539-0.589s-0.471-0.221-0.769-0.221c-0.519 0-0.948 0.208-1.289 0.624-0.341 0.416-0.511 1.061-0.511 1.936 0 0.813 0.168 1.431 0.504 1.853 0.336 0.422 0.759 0.633 1.268 0.633 0.307 0 0.57-0.065 0.789-0.193 0.219-0.129 0.401-0.308 0.545-0.539l0.325-0.805 0.108-0.976z" fill="#000000" />
</svg>
