<?xml version="1.0" encoding="utf-8"?>
<!-- Generated by IcoMoon.io -->
<!DOCTYPE svg PUBLIC "-//W3C//DTD SVG 1.1//EN" "http://www.w3.org/Graphics/SVG/1.1/DTD/svg11.dtd">
<svg version="1.1" xmlns="http://www.w3.org/2000/svg" xmlns:xlink="http://www.w3.org/1999/xlink" width="64" height="64" viewBox="0 0 64 64">
	<path d="M9.656 58.813c0-2.468-2.001-4.469-4.469-4.469v-4.469c2.468 0 4.469-2.001 4.469-4.469 0-2.468-2.001-4.469-4.469-4.469v-4.469c2.468 0 4.469-2.001 4.469-4.469s-2.001-4.469-4.469-4.469v-4.469c2.468 0 4.469-2.001 4.469-4.469s-2.001-4.469-4.469-4.469v-4.469c2.468 0 4.469-2.001 4.469-4.469h4.469c0 2.468 2.001 4.469 4.469 4.469s4.469-2.001 4.469-4.469h4.469c0 2.468 2.001 4.469 4.469 4.469s4.469-2.001 4.469-4.469h4.469c0 2.468 2.001 4.469 4.469 4.469s4.469-2.001 4.469-4.469h4.469c0 2.468 2.001 4.469 4.469 4.469v4.469c-2.468 0-4.469 2.001-4.469 4.469s2.001 4.469 4.469 4.469v4.469c-2.468 0-4.469 2.001-4.469 4.469s2.001 4.469 4.469 4.469v4.469c-2.468 0-4.469 2.001-4.469 4.469s2.001 4.469 4.469 4.469v4.469c-2.468 0-4.469 2.001-4.469 4.469h-4.469c0-2.468-2.001-4.469-4.469-4.469-2.468 0-4.469 2.001-4.469 4.469h-4.469c0-2.468-2.001-4.469-4.469-4.469-2.468 0-4.469 2.001-4.469 4.469h-4.469c0-2.468-2.001-4.469-4.469-4.469s-4.469 2.001-4.469 4.469h-4.469zM34.651 32.011c-0.235 1.412-0.72 2.579-1.456 3.501-0.735 0.922-1.539 1.399-2.411 1.432-0.752-0.010-1.318-0.268-1.7-0.775-0.382-0.507-0.573-1.205-0.574-2.094 0.036-1.833 0.555-3.374 1.558-4.622 1.003-1.248 2.273-1.898 3.81-1.949l1.41 0.184-0.637 4.323zM38.518 43.664c-0.928 0.429-1.972 0.756-3.133 0.982s-2.331 0.34-3.509 0.341c-3.384-0.011-6.122-0.992-8.216-2.944-2.094-1.952-3.172-4.809-3.233-8.571 0.105-4.423 1.391-7.856 3.858-10.298 2.467-2.442 5.482-3.68 9.048-3.716 3.538 0.060 6.232 1.038 8.082 2.936 1.849 1.898 2.78 4.356 2.793 7.375-0.062 2.62-0.553 4.563-1.473 5.83-0.921 1.267-1.901 1.877-2.941 1.829-1.244 0-1.623-1.32-1.137-3.962l1.365-8.415c-0.598-0.298-1.392-0.548-2.383-0.752s-2.001-0.309-3.031-0.317c-3.296 0.089-5.864 1.144-7.705 3.165-1.84 2.022-2.775 4.477-2.805 7.366 0.029 1.918 0.496 3.387 1.401 4.406 0.905 1.019 2.076 1.533 3.513 1.542 2.472-0.029 4.444-1.144 5.915-3.346h0.091c0.129 1.096 0.542 1.92 1.24 2.474s1.589 0.831 2.673 0.832c2.498-0.033 4.503-1 6.018-2.903 1.514-1.903 2.292-4.544 2.333-7.924-0.059-3.814-1.301-6.879-3.726-9.195-2.425-2.316-5.681-3.505-9.766-3.568-5.1 0.13-9.158 1.802-12.172 5.018-3.015 3.215-4.558 7.194-4.629 11.935 0.122 4.403 1.53 7.801 4.225 10.193 2.695 2.393 5.947 3.604 9.756 3.633 1.611 0.008 3.075-0.103 4.39-0.333 1.316-0.23 2.643-0.627 3.981-1.191l-0.819-2.424z" fill="#000000" />
</svg>
