<?xml version="1.0" encoding="utf-8"?>
<!-- Generated by IcoMoon.io -->
<!DOCTYPE svg PUBLIC "-//W3C//DTD SVG 1.1//EN" "http://www.w3.org/Graphics/SVG/1.1/DTD/svg11.dtd">
<svg version="1.1" xmlns="http://www.w3.org/2000/svg" xmlns:xlink="http://www.w3.org/1999/xlink" width="64" height="64" viewBox="0 0 64 64">
	<path d="M33.841 41.206v5.523h-23.935v-5.523h23.935zM8.065 26.477h18.017l5.918-16.57 5.918 16.57h18.017l-15.004 10.75 6.719 16.867-11.967-7.040v-7.689h-12.88l0.591-1.887-15.327-11.001zM18.192 54.093l1.729-5.523h6.556l-8.285 5.523z" fill="#000000" />
</svg>
