<?xml version="1.0" encoding="utf-8"?>
<!-- Generated by IcoMoon.io -->
<!DOCTYPE svg PUBLIC "-//W3C//DTD SVG 1.1//EN" "http://www.w3.org/Graphics/SVG/1.1/DTD/svg11.dtd">
<svg version="1.1" xmlns="http://www.w3.org/2000/svg" xmlns:xlink="http://www.w3.org/1999/xlink" width="64" height="64" viewBox="0 0 64 64">
	<path d="M23.062 5.187h17.875l17.875 17.875v17.875l-17.875 17.875h-17.875l-17.875-17.875v-17.875l17.875-17.875zM15.737 41.942l6.32 6.32 9.942-9.943 9.942 9.943 6.32-6.32-9.942-9.942 9.943-9.942-6.32-6.32-9.942 9.942-9.942-9.943-6.32 6.32 9.943 9.942-9.943 9.942z" fill="#000000" />
</svg>
