<?xml version="1.0" encoding="utf-8"?>
<!-- Generated by IcoMoon.io -->
<!DOCTYPE svg PUBLIC "-//W3C//DTD SVG 1.1//EN" "http://www.w3.org/Graphics/SVG/1.1/DTD/svg11.dtd">
<svg version="1.1" xmlns="http://www.w3.org/2000/svg" xmlns:xlink="http://www.w3.org/1999/xlink" width="64" height="64" viewBox="0 0 64 64">
	<path d="M13.007 5.187h12.289l31.282 31.282c1.745 1.745 1.745 4.575 0 6.32l-13.79 13.79c-1.745 1.745-4.575 1.745-6.32 0l-31.282-31.282v-12.289c0-2.607 0-5.214 1.303-6.517s3.91-1.303 6.517-1.303zM16.359 11.89c-2.468 0-4.469 2.001-4.469 4.469s2.001 4.469 4.469 4.469c2.468 0 4.469-2.001 4.469-4.469 0-2.468-2.001-4.469-4.469-4.469zM29.766 20.828l-8.938 8.938 17.875 17.875 8.938-8.938-17.875-17.875z" fill="#000000" />
</svg>
