<?xml version="1.0" encoding="utf-8"?>
<!-- Generated by IcoMoon.io -->
<!DOCTYPE svg PUBLIC "-//W3C//DTD SVG 1.1//EN" "http://www.w3.org/Graphics/SVG/1.1/DTD/svg11.dtd">
<svg version="1.1" xmlns="http://www.w3.org/2000/svg" xmlns:xlink="http://www.w3.org/1999/xlink" width="64" height="64" viewBox="0 0 64 64">
	<path d="M28.344 37.373h-7.799l-1.94 7.251h-6.344l8.284-26.941h8.082l7.003 22.235 4.576-14.67h5.878l6.171 19.383h-4.848l-1.528-5.274h-5.672l-1.411 5.274-8.349-0.007-2.101-7.251zM21.434 32.992h6.021l-1.697-5.724-0.717-2.602-0.657-2.601h-0.081l-0.611 2.625-0.642 2.646-1.616 5.657zM40.852 36.172h4.379l-1.234-4.163-0.522-1.892-0.478-1.892h-0.059l-0.444 1.909-0.467 1.924-1.175 4.114zM37.895 22.737l5.053-5.053 5.053 5.053h-10.105z" fill="#000000" />
</svg>
