<?xml version="1.0" encoding="utf-8"?>
<!-- Generated by IcoMoon.io -->
<!DOCTYPE svg PUBLIC "-//W3C//DTD SVG 1.1//EN" "http://www.w3.org/Graphics/SVG/1.1/DTD/svg11.dtd">
<svg version="1.1" xmlns="http://www.w3.org/2000/svg" xmlns:xlink="http://www.w3.org/1999/xlink" width="64" height="64" viewBox="0 0 64 64">
	<path d="M17.684 48v-3.368h28.632v3.368h-28.632zM42.063 31.893c0 7.484-3.38 11.226-10.14 11.226-6.474 0-9.711-3.601-9.711-10.802v-16.302h3.054v16.189c0 5.496 2.33 8.244 6.991 8.244 4.502 0 6.752-2.654 6.752-7.963v-16.469h3.054v15.879z" fill="#000000" />
</svg>
