<?xml version="1.0" encoding="utf-8"?>
<!-- Generated by IcoMoon.io -->
<!DOCTYPE svg PUBLIC "-//W3C//DTD SVG 1.1//EN" "http://www.w3.org/Graphics/SVG/1.1/DTD/svg11.dtd">
<svg version="1.1" xmlns="http://www.w3.org/2000/svg" xmlns:xlink="http://www.w3.org/1999/xlink" width="64" height="64" viewBox="0 0 64 64">
	<path d="M37.895 21.053h11.79v3.368h-11.79v-3.368zM43.91 47.158h-5.63l-2.673-7.795h-11.659l-2.558 7.795h-5.63l11.301-30.316h5.637l11.213 30.316zM34.308 35.465l-4.121-12.377c-0.122-0.397-0.253-1.035-0.392-1.915h-0.088c-0.122 0.808-0.259 1.446-0.413 1.915l-4.067 12.377h9.081z" fill="#000000" />
</svg>
