<?xml version="1.0" encoding="utf-8"?>
<!-- Generated by IcoMoon.io -->
<!DOCTYPE svg PUBLIC "-//W3C//DTD SVG 1.1//EN" "http://www.w3.org/Graphics/SVG/1.1/DTD/svg11.dtd">
<svg version="1.1" xmlns="http://www.w3.org/2000/svg" xmlns:xlink="http://www.w3.org/1999/xlink" width="64" height="64" viewBox="0 0 64 64">
	<path d="M22.737 48.842v-32h10.1c3.081 0 5.52 0.669 7.318 2.007s2.696 3.081 2.696 5.229c0 1.795-0.506 3.356-1.518 4.682-1.012 1.326-2.411 2.268-4.196 2.825v0.093c2.152 0.252 3.871 1.074 5.157 2.464 1.286 1.391 1.929 3.198 1.929 5.422 0 2.762-1.069 4.999-3.207 6.711-2.138 1.712-4.838 2.568-8.1 2.568h-10.178zM27.802 20.956v9.143h3.778c1.805 0 3.22-0.437 4.246-1.311s1.539-2.111 1.539-3.711c0-2.748-1.791-4.121-5.371-4.121h-4.192zM27.802 34.214v10.514h4.857c1.938 0 3.436-0.475 4.493-1.425 1.057-0.95 1.586-2.258 1.586-3.925 0-3.443-2.252-5.164-6.757-5.164h-4.178z" fill="#000000" />
</svg>
