<?xml version="1.0" encoding="utf-8"?>
<!-- Generated by IcoMoon.io -->
<!DOCTYPE svg PUBLIC "-//W3C//DTD SVG 1.1//EN" "http://www.w3.org/Graphics/SVG/1.1/DTD/svg11.dtd">
<svg version="1.1" xmlns="http://www.w3.org/2000/svg" xmlns:xlink="http://www.w3.org/1999/xlink" width="64" height="64" viewBox="0 0 64 64">
	<path d="M22.333 25.322h6.333v0.903l-4.358 9.067-1.556-0.773 3.644-7.581h-4.063v-1.617zM33.684 25.263h1.718v6.122h0.808v1.617h-0.808v2.232h-1.752v-2.232h-4.312v-1.674l4.345-6.065zM33.651 31.385v-3.297l-2.257 3.297h2.257zM17.263 21.053h29.474c1.263 5.053 1.263 6.737 1.263 10.947s0 5.895-1.263 10.947h-29.474c-1.263-5.053-1.263-6.737-1.263-10.947s0-5.895 1.263-10.947zM20.21 40.421h4.21v-1.684h-4.21v1.684zM26.947 40.421h4.21v-1.684h-4.21v1.684zM20.21 37.053h17.684v-13.474h-17.684v13.474zM45.053 29.474l-2.526-5.895-2.526 5.895h5.053zM33.684 40.421h4.211v-1.684h-4.21v1.684zM45.053 32h-5.053l2.526 5.895 2.526-5.895z" fill="#000000" />
</svg>
