<?xml version="1.0" encoding="utf-8"?>
<!-- Generated by IcoMoon.io -->
<!DOCTYPE svg PUBLIC "-//W3C//DTD SVG 1.1//EN" "http://www.w3.org/Graphics/SVG/1.1/DTD/svg11.dtd">
<svg version="1.1" xmlns="http://www.w3.org/2000/svg" xmlns:xlink="http://www.w3.org/1999/xlink" width="64" height="64" viewBox="0 0 64 64">
	<path d="M13.589 46.729h23.935v5.523h-23.935v-5.523zM19.726 25.249c1.841-0.613 2.86-0.152 3.285-0.913 0.426-0.761 1.027-1.531 1.805-2.309 0.778-0.778 1.719-1.572 2.822-2.383l3.71-2.433c0.958-0.578 1.835-1.278 2.633-2.099s1.504-1.667 2.119-2.538c0.615-0.871 1.125-1.722 1.531-2.553l0.858-2.124c0.306-1.124 0.735-1.945 1.287-2.463 0.552-0.519 1.097-0.778 1.635-0.778 0.519 0 0.971 0.208 1.356 0.623 0.386 0.415 0.598 0.999 0.638 1.75l0.030 0.558v0.558c0 1.37-0.145 2.699-0.434 3.989-0.289 1.29-0.726 2.317-1.312 3.082l-1.072 1.576-1.102 1.765-1.247 2.024 6.014 0.618 2.493 0.269 2.458 0.279 2.214 0.264 1.75 0.224c0.472 0.060 0.849 0.354 1.132 0.883s0.424 1.125 0.424 1.79l-0.095 0.937-0.344 0.908-0.309 0.618-0.454 0.923-0.454 0.952-0.279 0.718-0.185 0.868-0.189 1.262-0.19 1.312-0.184 0.947-0.514 1.326-0.683 1.062-0.703 0.902-0.563 0.858-0.434 1.182-0.294 0.997-0.329 0.918-0.499 0.923-0.339 0.469-1.082 1.511-1.137 1.306c-0.396 0.382-0.821 0.688-1.276 0.917-0.455 0.229-0.966 0.344-1.531 0.344h-3.323v-2.181h-20.2l0.561-19.639zM9.907 47.069v-21.82l7.48-0.035v19.674h-5.639v2.181h-1.841z" fill="#000000" />
</svg>
