<?xml version="1.0" encoding="utf-8"?>
<!-- Generated by IcoMoon.io -->
<!DOCTYPE svg PUBLIC "-//W3C//DTD SVG 1.1//EN" "http://www.w3.org/Graphics/SVG/1.1/DTD/svg11.dtd">
<svg version="1.1" xmlns="http://www.w3.org/2000/svg" xmlns:xlink="http://www.w3.org/1999/xlink" width="64" height="64" viewBox="0 0 64 64">
	<path d="M24.473 24.473h15.053v15.053h-15.053v-15.053zM24.473 4.905h15.053v15.053h-15.053v-15.053zM4.905 4.905h15.053v15.053h-15.053v-15.053zM4.905 24.473h15.053v15.053h-15.053v-15.053zM44.042 24.473h15.053v15.053h-15.053v-15.053zM44.042 4.905h15.053v15.053h-15.053v-15.053zM4.905 44.042h15.053v15.053h-15.053v-15.053zM24.473 44.042h15.053v15.053h-15.053v-15.053zM44.042 44.042h15.053v15.053h-15.053v-15.053z" fill="#000000" />
</svg>
