<?xml version="1.0" encoding="utf-8"?>
<!-- Generated by IcoMoon.io -->
<!DOCTYPE svg PUBLIC "-//W3C//DTD SVG 1.1//EN" "http://www.w3.org/Graphics/SVG/1.1/DTD/svg11.dtd">
<svg version="1.1" xmlns="http://www.w3.org/2000/svg" xmlns:xlink="http://www.w3.org/1999/xlink" width="64" height="64" viewBox="0 0 64 64">
	<path d="M45.015 55.352v0.093h9.216v4.085h-14.769v-3.839l6.495-6.044c1.309-1.211 2.23-2.227 2.762-3.046 0.532-0.82 0.798-1.682 0.798-2.585 0-2.016-1.141-3.024-3.422-3.024-1.983 0-3.88 0.733-5.69 2.199v-4.267c1.983-1.136 4.221-1.704 6.711-1.704 2.334 0 4.155 0.56 5.464 1.679 1.309 1.119 1.964 2.632 1.964 4.536 0 2.543-1.604 5.172-4.812 7.885l-4.718 4.031zM37.892 35.964v-3.928h4.78c-0.874-6.564-6.072-11.761-12.635-12.635v4.78h-3.928v-4.78c-6.564 0.874-11.761 6.072-12.635 12.635h4.78v3.928h-4.78c0.875 6.564 6.072 11.761 12.635 12.635v-4.78h3.928v4.78c2.961-0.395 5.643-1.669 7.777-3.551v1.265l4.222-0.943v2.439c-3.56 3.599-8.501 5.829-13.963 5.829-10.846 0-19.639-8.792-19.639-19.639 0-10.183 7.751-18.556 17.675-19.542v-2.061h-5.892v-5.892h15.711v5.892h-5.892v2.061c3.95 0.392 7.555 1.954 10.465 4.335l1.417-1.417-2.777-2.777 4.166-4.166 8.332 8.332-4.166 4.166-2.777-2.777-1.417 1.417c2.643 3.229 4.277 7.316 4.422 11.778l-6.722 2.614h-3.086zM28.072 30.072c2.169 0 3.928 1.759 3.928 3.928s-1.758 3.928-3.928 3.928l-7.855 5.892 3.928-9.819c0-2.169 1.759-3.928 3.928-3.928z" fill="#000000" />
</svg>
