<?xml version="1.0" encoding="utf-8"?>
<!-- Generated by IcoMoon.io -->
<!DOCTYPE svg PUBLIC "-//W3C//DTD SVG 1.1//EN" "http://www.w3.org/Graphics/SVG/1.1/DTD/svg11.dtd">
<svg version="1.1" xmlns="http://www.w3.org/2000/svg" xmlns:xlink="http://www.w3.org/1999/xlink" width="64" height="64" viewBox="0 0 64 64">
	<path d="M39.364 39.206l11.047 10.126-11.047 10.126v-20.252zM48.57 31.841c0 3.077-0.755 5.978-2.090 8.528l-3.6-3.15c0.471-1.112 0.8-2.299 0.965-3.537h-4.481v-3.682h4.481c-0.82-6.153-5.692-11.026-11.845-11.845v4.481h-3.682v-4.481c-6.153 0.82-11.026 5.692-11.845 11.845h4.481v3.682h-4.481c0.82 6.153 5.692 11.026 11.845 11.845v-4.481h3.682v4.481c1.292-0.172 2.989-0.523 4.143-1.027v4.909c-1.744 0.548-4.059 0.843-5.984 0.843-10.168 0-18.411-8.243-18.411-18.411 0-9.547 7.266-17.396 16.57-18.32v-1.932h-5.523v-5.523h14.729v5.523h-5.523v1.932c3.703 0.368 7.083 1.832 9.811 4.065l1.329-1.328-2.604-2.604 3.906-3.906 7.811 7.811-3.906 3.906-2.604-2.604-1.328 1.329c2.597 3.174 4.156 7.231 4.156 11.652zM30.159 28.159c2.034 0 3.682 1.649 3.682 3.682s-1.649 3.682-3.682 3.682l-7.364 5.523 3.682-9.206c0-2.034 1.649-3.682 3.682-3.682z" fill="#000000" />
</svg>
