<?xml version="1.0" encoding="utf-8"?>
<!-- Generated by IcoMoon.io -->
<!DOCTYPE svg PUBLIC "-//W3C//DTD SVG 1.1//EN" "http://www.w3.org/Graphics/SVG/1.1/DTD/svg11.dtd">
<svg version="1.1" xmlns="http://www.w3.org/2000/svg" xmlns:xlink="http://www.w3.org/1999/xlink" width="64" height="64" viewBox="0 0 64 64">
	<path d="M36.713 44.176l8.248 8.248 12.47-17.478 3.535 3.535-16.005 21.013-11.783-11.783 3.535-3.535zM45.747 33.964c0 4.194-1.315 8.082-3.555 11.272l-3.543-3.543c1.062-1.719 1.78-3.673 2.059-5.765h-4.78v-3.928h4.78c-0.875-6.564-6.072-11.761-12.635-12.635v4.78h-3.928v-4.78c-6.564 0.875-11.761 6.072-12.635 12.635h4.78v3.928h-4.78c0.875 6.564 6.072 11.761 12.635 12.635v-4.78h3.928v4.78l2.465-0.548 3.79 3.79c-2.5 1.154-5.284 1.797-8.219 1.797-10.846 0-19.639-8.793-19.639-19.639 0-10.183 7.751-18.556 17.675-19.542v-2.061h-5.892v-5.892h15.711v5.892h-5.892v2.061c3.95 0.392 7.555 1.954 10.465 4.336l1.417-1.417-2.777-2.777 4.166-4.166 8.332 8.332-4.166 4.166-2.777-2.777-1.417 1.417c2.77 3.386 4.432 7.713 4.432 12.429zM26.108 30.036c2.169 0 3.928 1.759 3.928 3.928s-1.759 3.928-3.928 3.928l-7.856 5.892 3.928-9.819c0-2.169 1.759-3.928 3.928-3.928z" fill="#000000" />
</svg>
