<?xml version="1.0" encoding="utf-8"?>
<!-- Generated by IcoMoon.io -->
<!DOCTYPE svg PUBLIC "-//W3C//DTD SVG 1.1//EN" "http://www.w3.org/Graphics/SVG/1.1/DTD/svg11.dtd">
<svg version="1.1" xmlns="http://www.w3.org/2000/svg" xmlns:xlink="http://www.w3.org/1999/xlink" width="64" height="64" viewBox="0 0 64 64">
	<path d="M44 50.667v-5.333h-6.667v-5.333h6.667v-5.333h-12v5.333h-5.333v-16h5.333v5.333h12v-5.333h-6.667v-5.333h6.667v-5.333h-12v5.333h-10.667v10.667h-6.667v5.333h6.667v10.667h10.667v5.333h12z" fill="#000000" />
</svg>
