<?xml version="1.0" encoding="utf-8"?>
<!-- Generated by IcoMoon.io -->
<!DOCTYPE svg PUBLIC "-//W3C//DTD SVG 1.1//EN" "http://www.w3.org/Graphics/SVG/1.1/DTD/svg11.dtd">
<svg version="1.1" xmlns="http://www.w3.org/2000/svg" xmlns:xlink="http://www.w3.org/1999/xlink" width="64" height="64" viewBox="0 0 64 64">
	<path d="M13.333 20h5.333v6.667h5.333v-6.667h5.333v12h-5.333v5.333h16v-5.333h-5.333v-12h5.333v6.667h5.333v-6.667h5.333v12h-5.333v10.667h-10.667v6.667h-5.333v-6.667h-10.667v-10.667h-5.333v-12z" fill="#000000" />
</svg>
