<?xml version="1.0" encoding="utf-8"?>
<!-- Generated by IcoMoon.io -->
<!DOCTYPE svg PUBLIC "-//W3C//DTD SVG 1.1//EN" "http://www.w3.org/Graphics/SVG/1.1/DTD/svg11.dtd">
<svg version="1.1" xmlns="http://www.w3.org/2000/svg" xmlns:xlink="http://www.w3.org/1999/xlink" width="64" height="64" viewBox="0 0 64 64">
	<path d="M32 13.333l9.333 13.333h-4.533l7.2 8h-5.333l6.667 8h-10.667v6.667h-5.333v-6.667h-10.667l6.667-8h-5.333l7.2-8h-4.533l9.333-13.333z" fill="#000000" />
</svg>
