<?xml version="1.0" encoding="utf-8"?>
<!-- Generated by IcoMoon.io -->
<!DOCTYPE svg PUBLIC "-//W3C//DTD SVG 1.1//EN" "http://www.w3.org/Graphics/SVG/1.1/DTD/svg11.dtd">
<svg version="1.1" xmlns="http://www.w3.org/2000/svg" xmlns:xlink="http://www.w3.org/1999/xlink" width="64" height="64" viewBox="0 0 64 64">
	<path d="M48 18.667c-6.667 5.333-4 8-5.333 12s0 5.333-5.333 9.333c-6.83 5.123-12.667 2-12.667 2-1.333 1.333-6.333 3.667-6.333 3.667l-1.479-2.948c5.333-1.333 6.479-3.052 6.479-3.052-1.333-2.667-3.333-7.667 0.667-14.333 4-6.667 24-6.667 24-6.667zM25.333 37.333l1.333 1.333c0 0 2.667-1.333 4-5.333s8-10.667 8-10.667c-2.667 1.333-8 6.667-9.333 10.667-1.333 4-4 4-4 4z" fill="#000000" />
</svg>
