<?xml version="1.0" encoding="utf-8"?>
<!-- Generated by IcoMoon.io -->
<!DOCTYPE svg PUBLIC "-//W3C//DTD SVG 1.1//EN" "http://www.w3.org/Graphics/SVG/1.1/DTD/svg11.dtd">
<svg version="1.1" xmlns="http://www.w3.org/2000/svg" xmlns:xlink="http://www.w3.org/1999/xlink" width="64" height="64" viewBox="0 0 64 64">
	<path d="M52.818 9.495c0.931 0.956 1.798 2 2.602 3.133 0.804 1.133 1.497 2.349 2.081 3.65 0.583 1.3 1.040 2.674 1.369 4.12 0.329 1.446 0.493 2.945 0.493 4.497 0 1.508-0.16 3.054-0.479 4.637-0.32 1.583-0.847 3.198-1.583 4.846-0.735 1.648-1.715 3.335-2.937 5.060-1.223 1.726-2.737 3.482-4.543 5.27-0.583 0.577-1.248 1.235-1.992 1.974-0.745 0.739-1.535 1.521-2.369 2.346-0.835 0.826-1.688 1.674-2.56 2.546-0.872 0.872-1.727 1.715-2.565 2.528-1.937 1.918-3.954 3.917-6.052 5.996l-6.014-6.080c2.073-2.061 4.078-4.050 6.014-5.968 0.819-0.813 1.67-1.651 2.551-2.514 0.881-0.863 1.739-1.711 2.574-2.546 0.835-0.835 1.625-1.621 2.369-2.36 0.745-0.738 1.409-1.396 1.992-1.974 2.365-2.371 4.145-4.725 5.34-7.062 1.195-2.337 1.792-4.61 1.792-6.82 0-1.67-0.34-3.28-1.019-4.832-0.68-1.552-1.718-3.017-3.114-4.394-0.348-0.348-0.779-0.677-1.294-0.987-0.515-0.31-1.097-0.582-1.746-0.815-0.649-0.233-1.356-0.422-2.123-0.568-0.767-0.146-1.578-0.219-2.435-0.219-0.869 0-1.778 0.088-2.728 0.265-0.95 0.177-1.91 0.469-2.882 0.875-0.971 0.406-1.952 0.939-2.942 1.597-0.99 0.658-1.96 1.462-2.909 2.411l-6.34 6.377 9.925 9.953h-26.106v-25.696l9.869 9.692 6.368-6.405c1.415-1.589 2.88-2.883 4.394-3.882 1.515-0.999 3.027-1.775 4.539-2.328 1.511-0.552 3.015-0.925 4.511-1.117 1.496-0.193 2.93-0.289 4.301-0.289 1.421 0 2.791 0.126 4.11 0.377 1.319 0.251 2.56 0.605 3.724 1.062 1.164 0.456 2.234 0.994 3.212 1.615 0.977 0.621 1.845 1.297 2.602 2.030z" fill="#000000" />
</svg>
