<?xml version="1.0" encoding="utf-8"?>
<!-- Generated by IcoMoon.io -->
<!DOCTYPE svg PUBLIC "-//W3C//DTD SVG 1.1//EN" "http://www.w3.org/Graphics/SVG/1.1/DTD/svg11.dtd">
<svg version="1.1" xmlns="http://www.w3.org/2000/svg" xmlns:xlink="http://www.w3.org/1999/xlink" width="64" height="64" viewBox="0 0 64 64">
	<path d="M13.43 18.442c-0.216 1.289-1.337 2.272-2.688 2.272-1.505 0-2.725-1.22-2.725-2.725 0-1.505 1.22-2.725 2.725-2.725 1.284 0 2.361 0.888 2.649 2.083l29.075-4.262c5.295-1.783 10.155-2.683 11.336-2.886v-1.090h5.451v5.451h-5.451v-1.090c-2.649 0.514-23.711 4.909-23.711 13.082 0 7.631 13.899 5.451 13.899 13.082 0 4.823-9.668 8.979-18.31 11.731l27.063-3.967c0.199-1.309 1.33-2.312 2.694-2.312 1.505 0 2.725 1.22 2.725 2.725 0 1.505-1.22 2.725-2.725 2.725-1.27 0-2.337-0.869-2.64-2.045l-35.062 5.14c-3.195 0.817-5.359 1.265-5.359 1.265v1.090h-5.451v-5.451h5.451v1.090c4.361-1.090 27.798-7.631 27.798-11.992s-13.627-3.27-13.627-13.082c0-5.267 5.311-9.072 11.267-11.683l-24.387 3.575zM10.742 19.623c0.903 0 1.635-0.732 1.635-1.635s-0.732-1.635-1.635-1.635c-0.903 0-1.635 0.732-1.635 1.635 0 0.903 0.732 1.635 1.635 1.635zM54.893 10.197v3.27h3.27v-3.27h-3.27zM8.017 51.622v3.27h3.27v-3.27h-3.27zM55.438 46.172c-0.903 0-1.635 0.732-1.635 1.635s0.732 1.635 1.635 1.635c0.903 0 1.635-0.732 1.635-1.635 0-0.903-0.732-1.635-1.635-1.635z" fill="#000000" />
</svg>
