<?xml version="1.0" encoding="utf-8"?>
<!-- Generated by IcoMoon.io -->
<!DOCTYPE svg PUBLIC "-//W3C//DTD SVG 1.1//EN" "http://www.w3.org/Graphics/SVG/1.1/DTD/svg11.dtd">
<svg version="1.1" xmlns="http://www.w3.org/2000/svg" xmlns:xlink="http://www.w3.org/1999/xlink" width="64" height="64" viewBox="0 0 64 64">
	<path d="M10.832 17.888v1.411h-1.411v25.402h1.411v1.411h42.337v-1.411h1.411v-25.402h-1.411v-1.411h-42.337zM60.225 44.701v7.056h-7.056v-1.411h-42.337v1.411h-7.056v-7.056h1.411v-25.402h-1.411v-7.056h7.056v1.411h42.337v-1.411h7.056v7.056h-1.411v25.402h1.411zM5.187 13.654v4.234h4.234v-4.234h-4.234zM54.58 13.654v4.234h4.234v-4.234h-4.234zM5.187 46.112v4.234h4.234v-4.234h-4.234zM54.58 46.112v4.234h4.234v-4.234h-4.234z" fill="#000000" />
</svg>
