<?xml version="1.0" encoding="utf-8"?>
<!-- Generated by IcoMoon.io -->
<!DOCTYPE svg PUBLIC "-//W3C//DTD SVG 1.1//EN" "http://www.w3.org/Graphics/SVG/1.1/DTD/svg11.dtd">
<svg version="1.1" xmlns="http://www.w3.org/2000/svg" xmlns:xlink="http://www.w3.org/1999/xlink" width="64" height="64" viewBox="0 0 64 64">
	<path d="M46.663 8.958c5.784 0 10.474 4.689 10.474 10.474s-4.689 10.474-10.517 10.474h-34.521c-2.892 0-5.237-2.345-5.237-5.237 0-2.564 1.843-4.698 4.277-5.149l-0.087-1.135c0-3.937 3.103-7.149 6.997-7.324 1.723-4.886 6.381-8.387 11.856-8.387 5.198 0 9.66 3.156 11.572 7.656 1.529-0.873 3.299-1.372 5.186-1.372zM8.957 59.232v-18.853l18.853-2.095v20.948h-18.853zM13.147 55.043h4.189v-4.19h-4.189v4.19zM19.431 55.043h4.19v-4.19h-4.19v4.19zM13.147 48.758h4.19v-4.19h-4.19v4.19zM19.431 48.758h4.19v-4.19h-4.19v4.19zM29.905 42.474l6.284 1.885v-10.265h2.095v10.893l12.569 3.771v10.474h-20.948v-16.758zM34.095 55.043h4.19v-4.19h-4.19v4.19zM40.379 55.043h4.19v-4.19h-4.19v4.19zM46.663 34.095l8.379 3.142-8.379 3.142h-6.284v-6.284h6.284z" fill="#000000" />
</svg>
