<?xml version="1.0" encoding="utf-8"?>
<!-- Generated by IcoMoon.io -->
<!DOCTYPE svg PUBLIC "-//W3C//DTD SVG 1.1//EN" "http://www.w3.org/Graphics/SVG/1.1/DTD/svg11.dtd">
<svg version="1.1" xmlns="http://www.w3.org/2000/svg" xmlns:xlink="http://www.w3.org/1999/xlink" width="64" height="64" viewBox="0 0 64 64">
	<path d="M34.822 30.589h12.701v-11.29h-31.047v11.29h12.701v-2.822h5.645v2.822zM47.524 10.832h-31.047v5.645h31.047v-5.645zM53.168 5.187v53.627h-42.337v-53.627h42.337zM15.065 54.58h33.869v-11.29h-33.869v11.29zM16.476 34.822v5.645h31.047v-5.645h-31.047z" fill="#000000" />
</svg>
